ISO-10303-21;
HEADER;
FILE_DESCRIPTION(('CATIA V5 STEP Exchange'),'2;1');

FILE_NAME('G:\\LC22-01a electrical power system\\design\\mechanical\\battery pack\\parts\\battery holder.stp','2014-04-18T15:21:55+00:00',('none'),('none'),'CATIA Version 5 Release 20 SP 4 (IN-10)','CATIA V5 STEP AP203','none');

FILE_SCHEMA(('CONFIG_CONTROL_DESIGN'));

ENDSEC;
/* file written by CATIA V5R20 */
DATA;
#5=PRODUCT('battery holder','','',(#2)) ;
#1=APPLICATION_CONTEXT('configuration controlled 3D design of mechanical parts and assemblies') ;
#14=PRODUCT_DEFINITION('',' ',#6,#3) ;
#16=SECURITY_CLASSIFICATION(' ',' ',#15) ;
#15=SECURITY_CLASSIFICATION_LEVEL('unclassified') ;
#47=CARTESIAN_POINT(' ',(0.,0.,0.)) ;
#52=CARTESIAN_POINT('Axis2P3D Location',(7.5,1.42108547152E-014,-8.881784197E-015)) ;
#57=CARTESIAN_POINT('Line Origine',(6.,2.75735931288,-8.881784197E-015)) ;
#61=CARTESIAN_POINT('Vertex',(4.81806530651,2.75735931288,-8.881784197E-015)) ;
#63=CARTESIAN_POINT('Vertex',(7.18193469349,2.75735931288,-8.881784197E-015)) ;
#66=CARTESIAN_POINT('Axis2P3D Location',(6.,1.42108547152E-014,-8.881784197E-015)) ;
#70=CARTESIAN_POINT('Vertex',(3.36725231433,1.43827661581,-8.881784197E-015)) ;
#73=CARTESIAN_POINT('Axis2P3D Location',(6.,1.42108547152E-014,-8.881784197E-015)) ;
#77=CARTESIAN_POINT('Vertex',(4.81806530651,-2.75735931288,-8.881784197E-015)) ;
#80=CARTESIAN_POINT('Line Origine',(6.,-2.75735931288,-8.881784197E-015)) ;
#84=CARTESIAN_POINT('Vertex',(7.18193469349,-2.75735931288,-8.881784197E-015)) ;
#87=CARTESIAN_POINT('Axis2P3D Location',(6.,1.42108547152E-014,-8.881784197E-015)) ;
#91=CARTESIAN_POINT('Vertex',(8.63274768567,-1.43827661581,-8.881784197E-015)) ;
#94=CARTESIAN_POINT('Axis2P3D Location',(6.,1.42108547152E-014,-8.881784197E-015)) ;
#107=CARTESIAN_POINT('Axis2P3D Location',(6.,1.42108547152E-014,-8.881784197E-015)) ;
#111=CARTESIAN_POINT('Vertex',(4.68362615716,0.719138307906,-8.881784197E-015)) ;
#113=CARTESIAN_POINT('Vertex',(7.31637384284,-0.719138307906,-8.881784197E-015)) ;
#116=CARTESIAN_POINT('Axis2P3D Location',(6.,1.42108547152E-014,-8.881784197E-015)) ;
#126=CARTESIAN_POINT('Axis2P3D Location',(6.,-7.,-3.5)) ;
#131=CARTESIAN_POINT('Axis2P3D Location',(10.,-7.,-3.5)) ;
#135=CARTESIAN_POINT('Vertex',(10.,-7.,-9.)) ;
#137=CARTESIAN_POINT('Vertex',(10.,-7.,2.)) ;
#140=CARTESIAN_POINT('Line Origine',(6.,-7.,2.)) ;
#144=CARTESIAN_POINT('Vertex',(2.,-7.,2.)) ;
#147=CARTESIAN_POINT('Axis2P3D Location',(2.,-7.,-3.5)) ;
#151=CARTESIAN_POINT('Vertex',(2.,-7.,-9.)) ;
#154=CARTESIAN_POINT('Line Origine',(6.,-7.,-9.)) ;
#166=CARTESIAN_POINT('Control Point',(7.18193469349,-2.75735931288,-1.1990408666E-014)) ;
#167=CARTESIAN_POINT('Control Point',(6.76525530481,-2.93596781821,0.216506203369)) ;
#168=CARTESIAN_POINT('Control Point',(6.27078748273,-3.05614184323,0.331691830964)) ;
#169=CARTESIAN_POINT('Control Point',(5.72923147123,-3.05614974667,0.331700479785)) ;
#170=CARTESIAN_POINT('Control Point',(5.23474469519,-2.93596781821,0.21650620337)) ;
#171=CARTESIAN_POINT('Control Point',(4.81806530651,-2.75735931288,-1.27675647832E-015)) ;
#178=CARTESIAN_POINT('Axis2P3D Location',(6.,1.42108547152E-014,3.9)) ;
#183=CARTESIAN_POINT('Axis2P3D Location',(6.,1.42108547152E-014,-11.)) ;
#187=CARTESIAN_POINT('Vertex',(4.68362615716,0.719138307906,-11.)) ;
#189=CARTESIAN_POINT('Vertex',(7.31637384284,-0.719138307906,-11.)) ;
#192=CARTESIAN_POINT('Line Origine',(4.68362615716,0.719138307906,-5.65500019073)) ;
#197=CARTESIAN_POINT('Line Origine',(7.31637384284,-0.719138307906,-5.65500019073)) ;
#209=CARTESIAN_POINT('Axis2P3D Location',(6.,1.42108547152E-014,-11.)) ;
#221=CARTESIAN_POINT('Axis2P3D Location',(2.,34.9990195136,-9.)) ;
#226=CARTESIAN_POINT('Line Origine',(6.,-14.,-9.)) ;
#230=CARTESIAN_POINT('Vertex',(10.,-14.,-9.)) ;
#232=CARTESIAN_POINT('Vertex',(2.,-14.,-9.)) ;
#235=CARTESIAN_POINT('Line Origine',(10.,-10.5,-9.)) ;
#240=CARTESIAN_POINT('Line Origine',(2.,-10.5,-9.)) ;
#252=CARTESIAN_POINT('Axis2P3D Location',(10.,0.,0.)) ;
#257=CARTESIAN_POINT('Line Origine',(10.,-3.5527136788E-015,-11.)) ;
#261=CARTESIAN_POINT('Vertex',(10.,-14.,-11.)) ;
#263=CARTESIAN_POINT('Vertex',(10.,14.,-11.)) ;
#266=CARTESIAN_POINT('Line Origine',(10.,14.,-10.)) ;
#270=CARTESIAN_POINT('Vertex',(10.,14.,-9.)) ;
#273=CARTESIAN_POINT('Line Origine',(10.,10.5,-9.)) ;
#277=CARTESIAN_POINT('Vertex',(10.,7.,-9.)) ;
#280=CARTESIAN_POINT('Axis2P3D Location',(10.,7.,-3.5)) ;
#284=CARTESIAN_POINT('Vertex',(10.,7.,2.)) ;
#287=CARTESIAN_POINT('Line Origine',(10.,18.45,2.)) ;
#291=CARTESIAN_POINT('Vertex',(10.,29.9,2.)) ;
#294=CARTESIAN_POINT('Axis2P3D Location',(10.,29.9,-3.5)) ;
#298=CARTESIAN_POINT('Vertex',(10.,29.9,-9.)) ;
#301=CARTESIAN_POINT('Line Origine',(10.,25.95,-9.)) ;
#305=CARTESIAN_POINT('Vertex',(10.,22.,-9.)) ;
#308=CARTESIAN_POINT('Line Origine',(10.,22.,-10.)) ;
#312=CARTESIAN_POINT('Vertex',(10.,22.,-11.)) ;
#315=CARTESIAN_POINT('Line Origine',(10.,32.5,-11.)) ;
#319=CARTESIAN_POINT('Vertex',(10.,43.,-11.)) ;
#322=CARTESIAN_POINT('Line Origine',(10.,43.,-10.)) ;
#326=CARTESIAN_POINT('Vertex',(10.,43.,-9.)) ;
#329=CARTESIAN_POINT('Line Origine',(10.,40.0555512755,-9.)) ;
#333=CARTESIAN_POINT('Vertex',(10.,37.1111025509,-9.)) ;
#336=CARTESIAN_POINT('Axis2P3D Location',(10.,37.1111025509,-8.)) ;
#340=CARTESIAN_POINT('Vertex',(10.,36.2627375449,-7.47058823529)) ;
#343=CARTESIAN_POINT('Axis2P3D Location',(10.,29.9,-3.5)) ;
#347=CARTESIAN_POINT('Vertex',(10.,29.9,4.)) ;
#350=CARTESIAN_POINT('Line Origine',(10.,18.45,4.)) ;
#354=CARTESIAN_POINT('Vertex',(10.,7.,4.)) ;
#357=CARTESIAN_POINT('Line Origine',(10.,-8.881784197E-016,4.)) ;
#361=CARTESIAN_POINT('Vertex',(10.,-7.,4.)) ;
#364=CARTESIAN_POINT('Line Origine',(10.,-18.45,4.)) ;
#368=CARTESIAN_POINT('Vertex',(10.,-29.9,4.)) ;
#371=CARTESIAN_POINT('Axis2P3D Location',(10.,-29.9,-3.5)) ;
#375=CARTESIAN_POINT('Vertex',(10.,-36.2627375449,-7.47058823529)) ;
#378=CARTESIAN_POINT('Axis2P3D Location',(10.,-37.1111025509,-8.)) ;
#382=CARTESIAN_POINT('Vertex',(10.,-37.1111025509,-9.)) ;
#385=CARTESIAN_POINT('Line Origine',(10.,-40.0555512755,-9.)) ;
#389=CARTESIAN_POINT('Vertex',(10.,-43.,-9.)) ;
#392=CARTESIAN_POINT('Line Origine',(10.,-43.,-10.)) ;
#396=CARTESIAN_POINT('Vertex',(10.,-43.,-11.)) ;
#399=CARTESIAN_POINT('Line Origine',(10.,-32.5,-11.)) ;
#403=CARTESIAN_POINT('Vertex',(10.,-22.,-11.)) ;
#406=CARTESIAN_POINT('Line Origine',(10.,-22.,-10.)) ;
#410=CARTESIAN_POINT('Vertex',(10.,-22.,-9.)) ;
#413=CARTESIAN_POINT('Line Origine',(10.,-25.95,-9.)) ;
#417=CARTESIAN_POINT('Vertex',(10.,-29.9,-9.)) ;
#420=CARTESIAN_POINT('Axis2P3D Location',(10.,-29.9,-3.5)) ;
#424=CARTESIAN_POINT('Vertex',(10.,-29.9,2.)) ;
#427=CARTESIAN_POINT('Line Origine',(10.,-18.45,2.)) ;
#432=CARTESIAN_POINT('Line Origine',(10.,-14.,-10.)) ;
#468=CARTESIAN_POINT('Axis2P3D Location',(0.,43.,-11.)) ;
#473=CARTESIAN_POINT('Line Origine',(5.,22.,-11.)) ;
#477=CARTESIAN_POINT('Vertex',(0.,22.,-11.)) ;
#480=CARTESIAN_POINT('Line Origine',(0.,32.5,-11.)) ;
#484=CARTESIAN_POINT('Vertex',(0.,43.,-11.)) ;
#487=CARTESIAN_POINT('Line Origine',(5.,43.,-11.)) ;
#498=CARTESIAN_POINT('Axis2P3D Location',(6.,40.,-11.)) ;
#502=CARTESIAN_POINT('Vertex',(7.31637384284,39.2808616921,-11.)) ;
#504=CARTESIAN_POINT('Vertex',(4.68362615716,40.7191383079,-11.)) ;
#507=CARTESIAN_POINT('Axis2P3D Location',(6.,40.,-11.)) ;
#517=CARTESIAN_POINT('Axis2P3D Location',(0.,43.,4.)) ;
#522=CARTESIAN_POINT('Line Origine',(1.,43.,-5.)) ;
#526=CARTESIAN_POINT('Vertex',(0.,43.,-5.)) ;
#528=CARTESIAN_POINT('Vertex',(2.,43.,-5.)) ;
#531=CARTESIAN_POINT('Line Origine',(2.,43.,-7.)) ;
#535=CARTESIAN_POINT('Vertex',(2.,43.,-9.)) ;
#538=CARTESIAN_POINT('Line Origine',(6.,43.,-9.)) ;
#543=CARTESIAN_POINT('Line Origine',(0.,43.,-8.)) ;
#557=CARTESIAN_POINT('Line Origine',(6.,37.1111025509,-9.)) ;
#561=CARTESIAN_POINT('Vertex',(2.,37.1111025509,-9.)) ;
#564=CARTESIAN_POINT('Line Origine',(2.,40.0555512755,-9.)) ;
#575=CARTESIAN_POINT('Axis2P3D Location',(6.,40.,-9.)) ;
#579=CARTESIAN_POINT('Vertex',(4.68362615716,40.7191383079,-9.)) ;
#581=CARTESIAN_POINT('Vertex',(7.31637384284,39.2808616921,-9.)) ;
#584=CARTESIAN_POINT('Axis2P3D Location',(6.,40.,-9.)) ;
#594=CARTESIAN_POINT('Axis2P3D Location',(6.,37.1111025509,-8.)) ;
#599=CARTESIAN_POINT('Line Origine',(6.,36.2627375449,-7.47058823529)) ;
#603=CARTESIAN_POINT('Vertex',(2.,36.2627375449,-7.47058823529)) ;
#606=CARTESIAN_POINT('Axis2P3D Location',(2.,37.1111025509,-8.)) ;
#618=CARTESIAN_POINT('Axis2P3D Location',(6.,29.9,-3.5)) ;
#623=CARTESIAN_POINT('Axis2P3D Location',(2.,29.9,-3.5)) ;
#627=CARTESIAN_POINT('Vertex',(2.,29.9,4.)) ;
#630=CARTESIAN_POINT('Line Origine',(6.,29.9,4.)) ;
#642=CARTESIAN_POINT('Axis2P3D Location',(0.,-43.,4.)) ;
#647=CARTESIAN_POINT('Line Origine',(1.,-34.,4.)) ;
#651=CARTESIAN_POINT('Vertex',(0.,-34.,4.)) ;
#653=CARTESIAN_POINT('Vertex',(2.,-34.,4.)) ;
#656=CARTESIAN_POINT('Line Origine',(2.,-31.95,4.)) ;
#660=CARTESIAN_POINT('Vertex',(2.,-29.9,4.)) ;
#663=CARTESIAN_POINT('Line Origine',(6.,-29.9,4.)) ;
#668=CARTESIAN_POINT('Line Origine',(2.,31.95,4.)) ;
#672=CARTESIAN_POINT('Vertex',(2.,34.,4.)) ;
#675=CARTESIAN_POINT('Line Origine',(1.,34.,4.)) ;
#679=CARTESIAN_POINT('Vertex',(0.,34.,4.)) ;
#682=CARTESIAN_POINT('Line Origine',(0.,0.,4.)) ;
#699=CARTESIAN_POINT('Axis2P3D Location',(6.,1.42108547152E-014,4.)) ;
#703=CARTESIAN_POINT('Vertex',(3.36725231433,1.43827661581,4.)) ;
#705=CARTESIAN_POINT('Vertex',(8.63274768567,-1.43827661581,4.)) ;
#708=CARTESIAN_POINT('Axis2P3D Location',(6.,1.42108547152E-014,4.)) ;
#718=CARTESIAN_POINT('Axis2P3D Location',(6.,-29.9,-3.5)) ;
#723=CARTESIAN_POINT('Axis2P3D Location',(2.,-29.9,-3.5)) ;
#727=CARTESIAN_POINT('Vertex',(2.,-36.2627375449,-7.47058823529)) ;
#730=CARTESIAN_POINT('Line Origine',(6.,-36.2627375449,-7.47058823529)) ;
#742=CARTESIAN_POINT('Axis2P3D Location',(6.,-37.1111025509,-8.)) ;
#747=CARTESIAN_POINT('Line Origine',(6.,-37.1111025509,-9.)) ;
#751=CARTESIAN_POINT('Vertex',(2.,-37.1111025509,-9.)) ;
#754=CARTESIAN_POINT('Axis2P3D Location',(2.,-37.1111025509,-8.)) ;
#766=CARTESIAN_POINT('Line Origine',(2.,-40.0555512755,-9.)) ;
#770=CARTESIAN_POINT('Vertex',(2.,-43.,-9.)) ;
#773=CARTESIAN_POINT('Line Origine',(6.,-43.,-9.)) ;
#784=CARTESIAN_POINT('Axis2P3D Location',(6.,-40.,-9.)) ;
#788=CARTESIAN_POINT('Vertex',(4.68362615716,-39.2808616921,-9.)) ;
#790=CARTESIAN_POINT('Vertex',(7.31637384284,-40.7191383079,-9.)) ;
#793=CARTESIAN_POINT('Axis2P3D Location',(6.,-40.,-9.)) ;
#803=CARTESIAN_POINT('Axis2P3D Location',(0.,-43.,-11.)) ;
#808=CARTESIAN_POINT('Line Origine',(1.,-43.,-5.)) ;
#812=CARTESIAN_POINT('Vertex',(0.,-43.,-5.)) ;
#814=CARTESIAN_POINT('Vertex',(2.,-43.,-5.)) ;
#817=CARTESIAN_POINT('Line Origine',(0.,-43.,-8.)) ;
#821=CARTESIAN_POINT('Vertex',(0.,-43.,-11.)) ;
#824=CARTESIAN_POINT('Line Origine',(5.,-43.,-11.)) ;
#829=CARTESIAN_POINT('Line Origine',(2.,-43.,-7.)) ;
#843=CARTESIAN_POINT('Line Origine',(5.,-22.,-11.)) ;
#847=CARTESIAN_POINT('Vertex',(0.,-22.,-11.)) ;
#850=CARTESIAN_POINT('Line Origine',(0.,-32.5,-11.)) ;
#861=CARTESIAN_POINT('Axis2P3D Location',(6.,-40.,-11.)) ;
#865=CARTESIAN_POINT('Vertex',(7.31637384284,-40.7191383079,-11.)) ;
#867=CARTESIAN_POINT('Vertex',(4.68362615716,-39.2808616921,-11.)) ;
#870=CARTESIAN_POINT('Axis2P3D Location',(6.,-40.,-11.)) ;
#880=CARTESIAN_POINT('Axis2P3D Location',(0.,0.,0.)) ;
#885=CARTESIAN_POINT('Line Origine',(0.,-14.,-9.)) ;
#889=CARTESIAN_POINT('Vertex',(0.,-14.,-7.)) ;
#891=CARTESIAN_POINT('Vertex',(0.,-14.,-11.)) ;
#894=CARTESIAN_POINT('Line Origine',(0.,-18.,-7.)) ;
#898=CARTESIAN_POINT('Vertex',(0.,-22.,-7.)) ;
#901=CARTESIAN_POINT('Line Origine',(0.,-22.,-9.)) ;
#906=CARTESIAN_POINT('Line Origine',(0.,-38.5,-0.5)) ;
#911=CARTESIAN_POINT('Line Origine',(0.,38.5,-0.5)) ;
#916=CARTESIAN_POINT('Line Origine',(0.,22.,-9.)) ;
#920=CARTESIAN_POINT('Vertex',(0.,22.,-7.)) ;
#923=CARTESIAN_POINT('Line Origine',(0.,18.,-7.)) ;
#927=CARTESIAN_POINT('Vertex',(0.,14.,-7.)) ;
#930=CARTESIAN_POINT('Line Origine',(0.,14.,-9.)) ;
#934=CARTESIAN_POINT('Vertex',(0.,14.,-11.)) ;
#937=CARTESIAN_POINT('Line Origine',(0.,0.,-11.)) ;
#959=CARTESIAN_POINT('Axis2P3D Location',(6.,40.,-9.1)) ;
#964=CARTESIAN_POINT('Line Origine',(7.31637384284,39.2808616921,-3.5)) ;
#969=CARTESIAN_POINT('Line Origine',(4.68362615716,40.7191383079,-3.5)) ;
#988=CARTESIAN_POINT('Axis2P3D Location',(12.,34.,4.)) ;
#993=CARTESIAN_POINT('Line Origine',(2.,38.5,-0.5)) ;
#1005=CARTESIAN_POINT('Axis2P3D Location',(12.,-43.,-5.)) ;
#1010=CARTESIAN_POINT('Line Origine',(2.,-38.5,-0.5)) ;
#1022=CARTESIAN_POINT('Axis2P3D Location',(6.,-40.,-9.1)) ;
#1027=CARTESIAN_POINT('Line Origine',(7.31637384284,-40.7191383079,-3.5)) ;
#1032=CARTESIAN_POINT('Line Origine',(4.68362615716,-39.2808616921,-3.5)) ;
#1051=CARTESIAN_POINT('Axis2P3D Location',(2.,0.,0.)) ;
#1056=CARTESIAN_POINT('Line Origine',(2.,25.95,-9.)) ;
#1060=CARTESIAN_POINT('Vertex',(2.,22.,-9.)) ;
#1062=CARTESIAN_POINT('Vertex',(2.,29.9,-9.)) ;
#1065=CARTESIAN_POINT('Axis2P3D Location',(2.,29.9,-3.5)) ;
#1069=CARTESIAN_POINT('Vertex',(2.,29.9,2.)) ;
#1072=CARTESIAN_POINT('Line Origine',(2.,18.45,2.)) ;
#1076=CARTESIAN_POINT('Vertex',(2.,7.,2.)) ;
#1079=CARTESIAN_POINT('Axis2P3D Location',(2.,7.,-3.5)) ;
#1083=CARTESIAN_POINT('Vertex',(2.,7.,-9.)) ;
#1086=CARTESIAN_POINT('Line Origine',(2.,10.5,-9.)) ;
#1090=CARTESIAN_POINT('Vertex',(2.,14.,-9.)) ;
#1093=CARTESIAN_POINT('Line Origine',(2.,14.,-8.)) ;
#1097=CARTESIAN_POINT('Vertex',(2.,14.,-7.)) ;
#1100=CARTESIAN_POINT('Line Origine',(2.,18.,-7.)) ;
#1104=CARTESIAN_POINT('Vertex',(2.,22.,-7.)) ;
#1107=CARTESIAN_POINT('Line Origine',(2.,22.,-8.)) ;
#1123=CARTESIAN_POINT('Axis2P3D Location',(10.,14.,-7.)) ;
#1128=CARTESIAN_POINT('Line Origine',(1.,-22.,-7.)) ;
#1132=CARTESIAN_POINT('Vertex',(2.,-22.,-7.)) ;
#1135=CARTESIAN_POINT('Line Origine',(1.,-14.,-7.)) ;
#1139=CARTESIAN_POINT('Vertex',(2.,-14.,-7.)) ;
#1142=CARTESIAN_POINT('Line Origine',(2.,-18.,-7.)) ;
#1154=CARTESIAN_POINT('Line Origine',(1.,14.,-7.)) ;
#1159=CARTESIAN_POINT('Line Origine',(1.,22.,-7.)) ;
#1189=CARTESIAN_POINT('Axis2P3D Location',(6.,-29.9,-3.5)) ;
#1194=CARTESIAN_POINT('Line Origine',(6.,-29.9,-9.)) ;
#1198=CARTESIAN_POINT('Vertex',(2.,-29.9,-9.)) ;
#1201=CARTESIAN_POINT('Axis2P3D Location',(2.,-29.9,-3.5)) ;
#1205=CARTESIAN_POINT('Vertex',(2.,-29.9,2.)) ;
#1208=CARTESIAN_POINT('Line Origine',(6.,-29.9,2.)) ;
#1220=CARTESIAN_POINT('Line Origine',(6.,-22.,-9.)) ;
#1224=CARTESIAN_POINT('Vertex',(2.,-22.,-9.)) ;
#1227=CARTESIAN_POINT('Line Origine',(2.,-25.95,-9.)) ;
#1239=CARTESIAN_POINT('Axis2P3D Location',(10.,-22.,-7.)) ;
#1244=CARTESIAN_POINT('Line Origine',(2.,-22.,-8.)) ;
#1258=CARTESIAN_POINT('Axis2P3D Location',(10.,22.,-7.)) ;
#1263=CARTESIAN_POINT('Line Origine',(6.,22.,-9.)) ;
#1277=CARTESIAN_POINT('Line Origine',(6.,29.9,-9.)) ;
#1289=CARTESIAN_POINT('Axis2P3D Location',(6.,29.9,-3.5)) ;
#1294=CARTESIAN_POINT('Line Origine',(6.,29.9,2.)) ;
#1306=CARTESIAN_POINT('Axis2P3D Location',(2.,7.,2.)) ;
#1311=CARTESIAN_POINT('Line Origine',(6.,7.,2.)) ;
#1323=CARTESIAN_POINT('Line Origine',(6.,14.,-9.)) ;
#1328=CARTESIAN_POINT('Line Origine',(6.,7.,-9.)) ;
#1340=CARTESIAN_POINT('Axis2P3D Location',(10.,14.,-15.)) ;
#1345=CARTESIAN_POINT('Line Origine',(5.,14.,-11.)) ;
#1359=CARTESIAN_POINT('Axis2P3D Location',(10.,-14.,-15.)) ;
#1364=CARTESIAN_POINT('Line Origine',(2.,-14.,-8.)) ;
#1369=CARTESIAN_POINT('Line Origine',(5.,-14.,-11.)) ;
#1394=CARTESIAN_POINT('Line Origine',(2.,-18.45,2.)) ;
#1417=CARTESIAN_POINT('Axis2P3D Location',(6.,7.,-3.5)) ;
#1429=CARTESIAN_POINT('Control Point',(4.81806530651,2.75735931288,-8.881784197E-015)) ;
#1430=CARTESIAN_POINT('Control Point',(5.23474469518,2.93596781821,0.216506203365)) ;
#1431=CARTESIAN_POINT('Control Point',(5.72921251727,3.05614184324,0.331691830966)) ;
#1432=CARTESIAN_POINT('Control Point',(6.27076852877,3.05614974667,0.331700479786)) ;
#1433=CARTESIAN_POINT('Control Point',(6.76525530482,2.93596781821,0.216506203365)) ;
#1434=CARTESIAN_POINT('Control Point',(7.18193469349,2.75735931288,-8.80794747874E-015)) ;
#1441=CARTESIAN_POINT('Axis2P3D Location',(6.,1.42108547152E-014,3.9)) ;
#1446=CARTESIAN_POINT('Line Origine',(3.36725231433,1.43827661581,2.15499995232)) ;
#1451=CARTESIAN_POINT('Line Origine',(8.63274768567,-1.43827661581,2.15499995232)) ;
#53=DIRECTION('Axis2P3D Direction',(0.,-0.,-1.)) ;
#54=DIRECTION('Axis2P3D XDirection',(1.,0.,-0.)) ;
#58=DIRECTION('Vector Direction',(1.,0.,0.)) ;
#67=DIRECTION('Axis2P3D Direction',(0.,-0.,-1.)) ;
#74=DIRECTION('Axis2P3D Direction',(0.,-0.,-1.)) ;
#81=DIRECTION('Vector Direction',(1.,0.,0.)) ;
#88=DIRECTION('Axis2P3D Direction',(0.,-0.,-1.)) ;
#95=DIRECTION('Axis2P3D Direction',(0.,-0.,-1.)) ;
#108=DIRECTION('Axis2P3D Direction',(0.,-0.,-1.)) ;
#117=DIRECTION('Axis2P3D Direction',(0.,-0.,-1.)) ;
#127=DIRECTION('Axis2P3D Direction',(1.,0.,0.)) ;
#128=DIRECTION('Axis2P3D XDirection',(-0.,-1.83690953073E-016,-1.)) ;
#132=DIRECTION('Axis2P3D Direction',(1.,0.,0.)) ;
#141=DIRECTION('Vector Direction',(1.,0.,0.)) ;
#148=DIRECTION('Axis2P3D Direction',(1.,0.,0.)) ;
#155=DIRECTION('Vector Direction',(1.,0.,0.)) ;
#179=DIRECTION('Axis2P3D Direction',(0.,-0.,-1.)) ;
#180=DIRECTION('Axis2P3D XDirection',(0.87758256189,-0.479425538604,0.)) ;
#184=DIRECTION('Axis2P3D Direction',(0.,-0.,-1.)) ;
#193=DIRECTION('Vector Direction',(0.,0.,-1.)) ;
#198=DIRECTION('Vector Direction',(0.,0.,-1.)) ;
#210=DIRECTION('Axis2P3D Direction',(0.,-0.,-1.)) ;
#222=DIRECTION('Axis2P3D Direction',(0.,0.,-1.)) ;
#223=DIRECTION('Axis2P3D XDirection',(0.,1.,0.)) ;
#227=DIRECTION('Vector Direction',(-1.,0.,0.)) ;
#236=DIRECTION('Vector Direction',(0.,-1.,0.)) ;
#241=DIRECTION('Vector Direction',(0.,-1.,0.)) ;
#253=DIRECTION('Axis2P3D Direction',(1.,0.,0.)) ;
#254=DIRECTION('Axis2P3D XDirection',(0.,1.,0.)) ;
#258=DIRECTION('Vector Direction',(0.,-1.,0.)) ;
#267=DIRECTION('Vector Direction',(0.,0.,1.)) ;
#274=DIRECTION('Vector Direction',(0.,-1.,0.)) ;
#281=DIRECTION('Axis2P3D Direction',(1.,0.,0.)) ;
#288=DIRECTION('Vector Direction',(0.,1.,0.)) ;
#295=DIRECTION('Axis2P3D Direction',(1.,0.,0.)) ;
#302=DIRECTION('Vector Direction',(0.,-1.,0.)) ;
#309=DIRECTION('Vector Direction',(0.,0.,-1.)) ;
#316=DIRECTION('Vector Direction',(0.,-1.,0.)) ;
#323=DIRECTION('Vector Direction',(0.,0.,-1.)) ;
#330=DIRECTION('Vector Direction',(0.,1.,0.)) ;
#337=DIRECTION('Axis2P3D Direction',(1.,0.,0.)) ;
#344=DIRECTION('Axis2P3D Direction',(1.,0.,0.)) ;
#351=DIRECTION('Vector Direction',(0.,1.,0.)) ;
#358=DIRECTION('Vector Direction',(0.,1.,0.)) ;
#365=DIRECTION('Vector Direction',(0.,1.,0.)) ;
#372=DIRECTION('Axis2P3D Direction',(1.,0.,0.)) ;
#379=DIRECTION('Axis2P3D Direction',(1.,0.,0.)) ;
#386=DIRECTION('Vector Direction',(0.,1.,0.)) ;
#393=DIRECTION('Vector Direction',(0.,0.,1.)) ;
#400=DIRECTION('Vector Direction',(0.,-1.,0.)) ;
#407=DIRECTION('Vector Direction',(0.,0.,-1.)) ;
#414=DIRECTION('Vector Direction',(0.,-1.,0.)) ;
#421=DIRECTION('Axis2P3D Direction',(1.,0.,0.)) ;
#428=DIRECTION('Vector Direction',(0.,1.,0.)) ;
#433=DIRECTION('Vector Direction',(0.,0.,1.)) ;
#469=DIRECTION('Axis2P3D Direction',(-0.,0.,1.)) ;
#470=DIRECTION('Axis2P3D XDirection',(0.,-1.,0.)) ;
#474=DIRECTION('Vector Direction',(-1.,0.,0.)) ;
#481=DIRECTION('Vector Direction',(0.,-1.,0.)) ;
#488=DIRECTION('Vector Direction',(1.,0.,0.)) ;
#499=DIRECTION('Axis2P3D Direction',(-0.,0.,1.)) ;
#508=DIRECTION('Axis2P3D Direction',(-0.,0.,1.)) ;
#518=DIRECTION('Axis2P3D Direction',(0.,-1.,0.)) ;
#519=DIRECTION('Axis2P3D XDirection',(0.,0.,-1.)) ;
#523=DIRECTION('Vector Direction',(-1.,0.,0.)) ;
#532=DIRECTION('Vector Direction',(0.,0.,-1.)) ;
#539=DIRECTION('Vector Direction',(1.,0.,0.)) ;
#544=DIRECTION('Vector Direction',(0.,0.,-1.)) ;
#558=DIRECTION('Vector Direction',(-1.,0.,0.)) ;
#565=DIRECTION('Vector Direction',(0.,1.,0.)) ;
#576=DIRECTION('Axis2P3D Direction',(0.,0.,-1.)) ;
#585=DIRECTION('Axis2P3D Direction',(0.,0.,-1.)) ;
#595=DIRECTION('Axis2P3D Direction',(-1.,0.,0.)) ;
#596=DIRECTION('Axis2P3D XDirection',(-0.,1.46549439251E-014,-1.)) ;
#600=DIRECTION('Vector Direction',(-1.,0.,0.)) ;
#607=DIRECTION('Axis2P3D Direction',(-1.,0.,0.)) ;
#619=DIRECTION('Axis2P3D Direction',(1.,0.,0.)) ;
#620=DIRECTION('Axis2P3D XDirection',(0.,0.679869268479,-0.733333333333)) ;
#624=DIRECTION('Axis2P3D Direction',(1.,0.,0.)) ;
#631=DIRECTION('Vector Direction',(1.,0.,0.)) ;
#643=DIRECTION('Axis2P3D Direction',(0.,0.,-1.)) ;
#644=DIRECTION('Axis2P3D XDirection',(0.,1.,0.)) ;
#648=DIRECTION('Vector Direction',(-1.,0.,0.)) ;
#657=DIRECTION('Vector Direction',(0.,1.,0.)) ;
#664=DIRECTION('Vector Direction',(1.,0.,0.)) ;
#669=DIRECTION('Vector Direction',(0.,1.,0.)) ;
#676=DIRECTION('Vector Direction',(-1.,0.,0.)) ;
#683=DIRECTION('Vector Direction',(0.,1.,0.)) ;
#700=DIRECTION('Axis2P3D Direction',(0.,0.,-1.)) ;
#709=DIRECTION('Axis2P3D Direction',(0.,0.,-1.)) ;
#719=DIRECTION('Axis2P3D Direction',(1.,0.,0.)) ;
#720=DIRECTION('Axis2P3D XDirection',(0.,5.05319527541E-016,1.)) ;
#724=DIRECTION('Axis2P3D Direction',(1.,0.,0.)) ;
#731=DIRECTION('Vector Direction',(1.,0.,0.)) ;
#743=DIRECTION('Axis2P3D Direction',(-1.,0.,0.)) ;
#744=DIRECTION('Axis2P3D XDirection',(0.,0.848365005992,0.529411764706)) ;
#748=DIRECTION('Vector Direction',(-1.,0.,0.)) ;
#755=DIRECTION('Axis2P3D Direction',(-1.,0.,0.)) ;
#767=DIRECTION('Vector Direction',(0.,1.,0.)) ;
#774=DIRECTION('Vector Direction',(1.,0.,0.)) ;
#785=DIRECTION('Axis2P3D Direction',(0.,0.,-1.)) ;
#794=DIRECTION('Axis2P3D Direction',(0.,0.,-1.)) ;
#804=DIRECTION('Axis2P3D Direction',(0.,1.,0.)) ;
#805=DIRECTION('Axis2P3D XDirection',(0.,0.,1.)) ;
#809=DIRECTION('Vector Direction',(-1.,0.,0.)) ;
#818=DIRECTION('Vector Direction',(0.,0.,1.)) ;
#825=DIRECTION('Vector Direction',(1.,0.,0.)) ;
#830=DIRECTION('Vector Direction',(0.,0.,1.)) ;
#844=DIRECTION('Vector Direction',(-1.,0.,0.)) ;
#851=DIRECTION('Vector Direction',(0.,-1.,0.)) ;
#862=DIRECTION('Axis2P3D Direction',(-0.,0.,1.)) ;
#871=DIRECTION('Axis2P3D Direction',(-0.,0.,1.)) ;
#881=DIRECTION('Axis2P3D Direction',(1.,0.,0.)) ;
#882=DIRECTION('Axis2P3D XDirection',(0.,1.,0.)) ;
#886=DIRECTION('Vector Direction',(0.,1.7763568394E-015,-1.)) ;
#895=DIRECTION('Vector Direction',(0.,1.,0.)) ;
#902=DIRECTION('Vector Direction',(0.,0.,-1.)) ;
#907=DIRECTION('Vector Direction',(0.,0.707106781187,0.707106781187)) ;
#912=DIRECTION('Vector Direction',(0.,0.707106781187,-0.707106781187)) ;
#917=DIRECTION('Vector Direction',(0.,0.,-1.)) ;
#924=DIRECTION('Vector Direction',(0.,1.,0.)) ;
#931=DIRECTION('Vector Direction',(0.,0.,-1.)) ;
#938=DIRECTION('Vector Direction',(0.,-1.,0.)) ;
#960=DIRECTION('Axis2P3D Direction',(0.,-0.,-1.)) ;
#961=DIRECTION('Axis2P3D XDirection',(0.87758256189,-0.479425538604,0.)) ;
#965=DIRECTION('Vector Direction',(0.,0.,-1.)) ;
#970=DIRECTION('Vector Direction',(0.,0.,-1.)) ;
#989=DIRECTION('Axis2P3D Direction',(-0.,-0.707106781187,-0.707106781187)) ;
#990=DIRECTION('Axis2P3D XDirection',(-1.,0.,0.)) ;
#994=DIRECTION('Vector Direction',(0.,0.707106781187,-0.707106781187)) ;
#1006=DIRECTION('Axis2P3D Direction',(0.,0.707106781187,-0.707106781187)) ;
#1007=DIRECTION('Axis2P3D XDirection',(-1.,0.,0.)) ;
#1011=DIRECTION('Vector Direction',(0.,0.707106781187,0.707106781187)) ;
#1023=DIRECTION('Axis2P3D Direction',(0.,-0.,-1.)) ;
#1024=DIRECTION('Axis2P3D XDirection',(0.87758256189,-0.479425538604,0.)) ;
#1028=DIRECTION('Vector Direction',(0.,0.,-1.)) ;
#1033=DIRECTION('Vector Direction',(0.,0.,-1.)) ;
#1052=DIRECTION('Axis2P3D Direction',(1.,0.,0.)) ;
#1053=DIRECTION('Axis2P3D XDirection',(0.,1.,0.)) ;
#1057=DIRECTION('Vector Direction',(0.,-1.,0.)) ;
#1066=DIRECTION('Axis2P3D Direction',(1.,0.,0.)) ;
#1073=DIRECTION('Vector Direction',(0.,1.,0.)) ;
#1080=DIRECTION('Axis2P3D Direction',(1.,0.,0.)) ;
#1087=DIRECTION('Vector Direction',(0.,-1.,0.)) ;
#1094=DIRECTION('Vector Direction',(0.,0.,-1.)) ;
#1101=DIRECTION('Vector Direction',(0.,1.,0.)) ;
#1108=DIRECTION('Vector Direction',(0.,0.,-1.)) ;
#1124=DIRECTION('Axis2P3D Direction',(0.,-0.,1.)) ;
#1125=DIRECTION('Axis2P3D XDirection',(0.,1.,0.)) ;
#1129=DIRECTION('Vector Direction',(-1.,0.,0.)) ;
#1136=DIRECTION('Vector Direction',(-1.,0.,0.)) ;
#1143=DIRECTION('Vector Direction',(0.,1.,0.)) ;
#1155=DIRECTION('Vector Direction',(-1.,0.,0.)) ;
#1160=DIRECTION('Vector Direction',(-1.,0.,0.)) ;
#1190=DIRECTION('Axis2P3D Direction',(1.,0.,0.)) ;
#1191=DIRECTION('Axis2P3D XDirection',(0.,2.83274922616E-016,1.)) ;
#1195=DIRECTION('Vector Direction',(1.,0.,0.)) ;
#1202=DIRECTION('Axis2P3D Direction',(1.,0.,0.)) ;
#1209=DIRECTION('Vector Direction',(1.,0.,0.)) ;
#1221=DIRECTION('Vector Direction',(-1.,0.,0.)) ;
#1228=DIRECTION('Vector Direction',(0.,-1.,0.)) ;
#1240=DIRECTION('Axis2P3D Direction',(0.,1.,0.)) ;
#1241=DIRECTION('Axis2P3D XDirection',(0.,0.,-1.)) ;
#1245=DIRECTION('Vector Direction',(0.,0.,-1.)) ;
#1259=DIRECTION('Axis2P3D Direction',(0.,1.,0.)) ;
#1260=DIRECTION('Axis2P3D XDirection',(0.,0.,-1.)) ;
#1264=DIRECTION('Vector Direction',(-1.,0.,0.)) ;
#1278=DIRECTION('Vector Direction',(1.,0.,0.)) ;
#1290=DIRECTION('Axis2P3D Direction',(1.,0.,0.)) ;
#1291=DIRECTION('Axis2P3D XDirection',(-0.,-1.83690953073E-016,-1.)) ;
#1295=DIRECTION('Vector Direction',(1.,0.,0.)) ;
#1307=DIRECTION('Axis2P3D Direction',(0.,0.,-1.)) ;
#1308=DIRECTION('Axis2P3D XDirection',(0.,1.,0.)) ;
#1312=DIRECTION('Vector Direction',(1.,0.,0.)) ;
#1324=DIRECTION('Vector Direction',(-1.,0.,0.)) ;
#1329=DIRECTION('Vector Direction',(1.,0.,0.)) ;
#1341=DIRECTION('Axis2P3D Direction',(0.,-1.,0.)) ;
#1342=DIRECTION('Axis2P3D XDirection',(0.,0.,1.)) ;
#1346=DIRECTION('Vector Direction',(-1.,0.,0.)) ;
#1360=DIRECTION('Axis2P3D Direction',(0.,-1.,0.)) ;
#1361=DIRECTION('Axis2P3D XDirection',(0.,0.,1.)) ;
#1365=DIRECTION('Vector Direction',(0.,0.,-1.)) ;
#1370=DIRECTION('Vector Direction',(-1.,0.,0.)) ;
#1395=DIRECTION('Vector Direction',(0.,1.,0.)) ;
#1418=DIRECTION('Axis2P3D Direction',(1.,0.,0.)) ;
#1419=DIRECTION('Axis2P3D XDirection',(0.,2.83274922616E-016,1.)) ;
#1442=DIRECTION('Axis2P3D Direction',(0.,-0.,-1.)) ;
#1443=DIRECTION('Axis2P3D XDirection',(0.87758256189,-0.479425538604,0.)) ;
#1447=DIRECTION('Vector Direction',(0.,0.,-1.)) ;
#1452=DIRECTION('Vector Direction',(0.,0.,-1.)) ;
#48=AXIS2_PLACEMENT_3D(' ',#47,$,$) ;
#55=AXIS2_PLACEMENT_3D('Plane Axis2P3D',#52,#53,#54) ;
#68=AXIS2_PLACEMENT_3D('Circle Axis2P3D',#66,#67,$) ;
#75=AXIS2_PLACEMENT_3D('Circle Axis2P3D',#73,#74,$) ;
#89=AXIS2_PLACEMENT_3D('Circle Axis2P3D',#87,#88,$) ;
#96=AXIS2_PLACEMENT_3D('Circle Axis2P3D',#94,#95,$) ;
#109=AXIS2_PLACEMENT_3D('Circle Axis2P3D',#107,#108,$) ;
#118=AXIS2_PLACEMENT_3D('Circle Axis2P3D',#116,#117,$) ;
#129=AXIS2_PLACEMENT_3D('Cylinder Axis2P3D',#126,#127,#128) ;
#133=AXIS2_PLACEMENT_3D('Circle Axis2P3D',#131,#132,$) ;
#149=AXIS2_PLACEMENT_3D('Circle Axis2P3D',#147,#148,$) ;
#181=AXIS2_PLACEMENT_3D('Cylinder Axis2P3D',#178,#179,#180) ;
#185=AXIS2_PLACEMENT_3D('Circle Axis2P3D',#183,#184,$) ;
#211=AXIS2_PLACEMENT_3D('Circle Axis2P3D',#209,#210,$) ;
#224=AXIS2_PLACEMENT_3D('Plane Axis2P3D',#221,#222,#223) ;
#255=AXIS2_PLACEMENT_3D('Plane Axis2P3D',#252,#253,#254) ;
#282=AXIS2_PLACEMENT_3D('Circle Axis2P3D',#280,#281,$) ;
#296=AXIS2_PLACEMENT_3D('Circle Axis2P3D',#294,#295,$) ;
#338=AXIS2_PLACEMENT_3D('Circle Axis2P3D',#336,#337,$) ;
#345=AXIS2_PLACEMENT_3D('Circle Axis2P3D',#343,#344,$) ;
#373=AXIS2_PLACEMENT_3D('Circle Axis2P3D',#371,#372,$) ;
#380=AXIS2_PLACEMENT_3D('Circle Axis2P3D',#378,#379,$) ;
#422=AXIS2_PLACEMENT_3D('Circle Axis2P3D',#420,#421,$) ;
#471=AXIS2_PLACEMENT_3D('Plane Axis2P3D',#468,#469,#470) ;
#500=AXIS2_PLACEMENT_3D('Circle Axis2P3D',#498,#499,$) ;
#509=AXIS2_PLACEMENT_3D('Circle Axis2P3D',#507,#508,$) ;
#520=AXIS2_PLACEMENT_3D('Plane Axis2P3D',#517,#518,#519) ;
#577=AXIS2_PLACEMENT_3D('Circle Axis2P3D',#575,#576,$) ;
#586=AXIS2_PLACEMENT_3D('Circle Axis2P3D',#584,#585,$) ;
#597=AXIS2_PLACEMENT_3D('Cylinder Axis2P3D',#594,#595,#596) ;
#608=AXIS2_PLACEMENT_3D('Circle Axis2P3D',#606,#607,$) ;
#621=AXIS2_PLACEMENT_3D('Cylinder Axis2P3D',#618,#619,#620) ;
#625=AXIS2_PLACEMENT_3D('Circle Axis2P3D',#623,#624,$) ;
#645=AXIS2_PLACEMENT_3D('Plane Axis2P3D',#642,#643,#644) ;
#701=AXIS2_PLACEMENT_3D('Circle Axis2P3D',#699,#700,$) ;
#710=AXIS2_PLACEMENT_3D('Circle Axis2P3D',#708,#709,$) ;
#721=AXIS2_PLACEMENT_3D('Cylinder Axis2P3D',#718,#719,#720) ;
#725=AXIS2_PLACEMENT_3D('Circle Axis2P3D',#723,#724,$) ;
#745=AXIS2_PLACEMENT_3D('Cylinder Axis2P3D',#742,#743,#744) ;
#756=AXIS2_PLACEMENT_3D('Circle Axis2P3D',#754,#755,$) ;
#786=AXIS2_PLACEMENT_3D('Circle Axis2P3D',#784,#785,$) ;
#795=AXIS2_PLACEMENT_3D('Circle Axis2P3D',#793,#794,$) ;
#806=AXIS2_PLACEMENT_3D('Plane Axis2P3D',#803,#804,#805) ;
#863=AXIS2_PLACEMENT_3D('Circle Axis2P3D',#861,#862,$) ;
#872=AXIS2_PLACEMENT_3D('Circle Axis2P3D',#870,#871,$) ;
#883=AXIS2_PLACEMENT_3D('Plane Axis2P3D',#880,#881,#882) ;
#962=AXIS2_PLACEMENT_3D('Cylinder Axis2P3D',#959,#960,#961) ;
#991=AXIS2_PLACEMENT_3D('Plane Axis2P3D',#988,#989,#990) ;
#1008=AXIS2_PLACEMENT_3D('Plane Axis2P3D',#1005,#1006,#1007) ;
#1025=AXIS2_PLACEMENT_3D('Cylinder Axis2P3D',#1022,#1023,#1024) ;
#1054=AXIS2_PLACEMENT_3D('Plane Axis2P3D',#1051,#1052,#1053) ;
#1067=AXIS2_PLACEMENT_3D('Circle Axis2P3D',#1065,#1066,$) ;
#1081=AXIS2_PLACEMENT_3D('Circle Axis2P3D',#1079,#1080,$) ;
#1126=AXIS2_PLACEMENT_3D('Plane Axis2P3D',#1123,#1124,#1125) ;
#1192=AXIS2_PLACEMENT_3D('Cylinder Axis2P3D',#1189,#1190,#1191) ;
#1203=AXIS2_PLACEMENT_3D('Circle Axis2P3D',#1201,#1202,$) ;
#1242=AXIS2_PLACEMENT_3D('Plane Axis2P3D',#1239,#1240,#1241) ;
#1261=AXIS2_PLACEMENT_3D('Plane Axis2P3D',#1258,#1259,#1260) ;
#1292=AXIS2_PLACEMENT_3D('Cylinder Axis2P3D',#1289,#1290,#1291) ;
#1309=AXIS2_PLACEMENT_3D('Plane Axis2P3D',#1306,#1307,#1308) ;
#1343=AXIS2_PLACEMENT_3D('Plane Axis2P3D',#1340,#1341,#1342) ;
#1362=AXIS2_PLACEMENT_3D('Plane Axis2P3D',#1359,#1360,#1361) ;
#1420=AXIS2_PLACEMENT_3D('Cylinder Axis2P3D',#1417,#1418,#1419) ;
#1444=AXIS2_PLACEMENT_3D('Cylinder Axis2P3D',#1441,#1442,#1443) ;
#40=PRODUCT_DEFINITION_SHAPE(' ',' ',#14) ;
#31=APPROVAL_PERSON_ORGANIZATION(#25,#21,#19) ;
#25=PERSON_AND_ORGANIZATION(#22,#23) ;
#22=PERSON(' ',' ',' ',$,$,$) ;
#23=ORGANIZATION(' ',' ',' ') ;
#21=APPROVAL(#20,' ') ;
#20=APPROVAL_STATUS('not_yet_approved') ;
#19=APPROVAL_ROLE('APPROVER') ;
#13=DATE_AND_TIME(#11,#12) ;
#12=LOCAL_TIME(17,21,53.,#10) ;
#10=COORDINATED_UNIVERSAL_TIME_OFFSET(0,0,.AHEAD.) ;
#100=ORIENTED_EDGE('',*,*,#65,.F.) ;
#101=ORIENTED_EDGE('',*,*,#72,.F.) ;
#102=ORIENTED_EDGE('',*,*,#79,.F.) ;
#103=ORIENTED_EDGE('',*,*,#86,.T.) ;
#104=ORIENTED_EDGE('',*,*,#93,.F.) ;
#105=ORIENTED_EDGE('',*,*,#98,.F.) ;
#122=ORIENTED_EDGE('',*,*,#115,.T.) ;
#123=ORIENTED_EDGE('',*,*,#120,.T.) ;
#160=ORIENTED_EDGE('',*,*,#139,.T.) ;
#161=ORIENTED_EDGE('',*,*,#146,.F.) ;
#162=ORIENTED_EDGE('',*,*,#153,.F.) ;
#163=ORIENTED_EDGE('',*,*,#158,.T.) ;
#174=ORIENTED_EDGE('',*,*,#172,.F.) ;
#175=ORIENTED_EDGE('',*,*,#86,.F.) ;
#203=ORIENTED_EDGE('',*,*,#191,.F.) ;
#204=ORIENTED_EDGE('',*,*,#196,.T.) ;
#205=ORIENTED_EDGE('',*,*,#120,.F.) ;
#206=ORIENTED_EDGE('',*,*,#201,.F.) ;
#215=ORIENTED_EDGE('',*,*,#213,.F.) ;
#216=ORIENTED_EDGE('',*,*,#201,.T.) ;
#217=ORIENTED_EDGE('',*,*,#115,.F.) ;
#218=ORIENTED_EDGE('',*,*,#196,.F.) ;
#246=ORIENTED_EDGE('',*,*,#234,.F.) ;
#247=ORIENTED_EDGE('',*,*,#239,.T.) ;
#248=ORIENTED_EDGE('',*,*,#158,.F.) ;
#249=ORIENTED_EDGE('',*,*,#244,.F.) ;
#438=ORIENTED_EDGE('',*,*,#265,.T.) ;
#439=ORIENTED_EDGE('',*,*,#272,.F.) ;
#440=ORIENTED_EDGE('',*,*,#279,.F.) ;
#441=ORIENTED_EDGE('',*,*,#286,.F.) ;
#442=ORIENTED_EDGE('',*,*,#293,.F.) ;
#443=ORIENTED_EDGE('',*,*,#300,.F.) ;
#444=ORIENTED_EDGE('',*,*,#307,.F.) ;
#445=ORIENTED_EDGE('',*,*,#314,.F.) ;
#446=ORIENTED_EDGE('',*,*,#321,.T.) ;
#447=ORIENTED_EDGE('',*,*,#328,.T.) ;
#448=ORIENTED_EDGE('',*,*,#335,.T.) ;
#449=ORIENTED_EDGE('',*,*,#342,.T.) ;
#450=ORIENTED_EDGE('',*,*,#349,.T.) ;
#451=ORIENTED_EDGE('',*,*,#356,.T.) ;
#452=ORIENTED_EDGE('',*,*,#363,.T.) ;
#453=ORIENTED_EDGE('',*,*,#370,.T.) ;
#454=ORIENTED_EDGE('',*,*,#377,.T.) ;
#455=ORIENTED_EDGE('',*,*,#384,.T.) ;
#456=ORIENTED_EDGE('',*,*,#391,.T.) ;
#457=ORIENTED_EDGE('',*,*,#398,.T.) ;
#458=ORIENTED_EDGE('',*,*,#405,.T.) ;
#459=ORIENTED_EDGE('',*,*,#412,.F.) ;
#460=ORIENTED_EDGE('',*,*,#419,.F.) ;
#461=ORIENTED_EDGE('',*,*,#426,.F.) ;
#462=ORIENTED_EDGE('',*,*,#431,.F.) ;
#463=ORIENTED_EDGE('',*,*,#139,.F.) ;
#464=ORIENTED_EDGE('',*,*,#239,.F.) ;
#465=ORIENTED_EDGE('',*,*,#436,.F.) ;
#493=ORIENTED_EDGE('',*,*,#479,.T.) ;
#494=ORIENTED_EDGE('',*,*,#486,.T.) ;
#495=ORIENTED_EDGE('',*,*,#491,.T.) ;
#496=ORIENTED_EDGE('',*,*,#321,.F.) ;
#513=ORIENTED_EDGE('',*,*,#506,.T.) ;
#514=ORIENTED_EDGE('',*,*,#511,.T.) ;
#549=ORIENTED_EDGE('',*,*,#530,.T.) ;
#550=ORIENTED_EDGE('',*,*,#537,.F.) ;
#551=ORIENTED_EDGE('',*,*,#542,.T.) ;
#552=ORIENTED_EDGE('',*,*,#328,.F.) ;
#553=ORIENTED_EDGE('',*,*,#491,.F.) ;
#554=ORIENTED_EDGE('',*,*,#547,.T.) ;
#570=ORIENTED_EDGE('',*,*,#563,.F.) ;
#571=ORIENTED_EDGE('',*,*,#335,.F.) ;
#572=ORIENTED_EDGE('',*,*,#542,.F.) ;
#573=ORIENTED_EDGE('',*,*,#568,.T.) ;
#590=ORIENTED_EDGE('',*,*,#583,.T.) ;
#591=ORIENTED_EDGE('',*,*,#588,.T.) ;
#612=ORIENTED_EDGE('',*,*,#605,.F.) ;
#613=ORIENTED_EDGE('',*,*,#342,.F.) ;
#614=ORIENTED_EDGE('',*,*,#563,.T.) ;
#615=ORIENTED_EDGE('',*,*,#610,.F.) ;
#636=ORIENTED_EDGE('',*,*,#629,.T.) ;
#637=ORIENTED_EDGE('',*,*,#634,.T.) ;
#638=ORIENTED_EDGE('',*,*,#349,.F.) ;
#639=ORIENTED_EDGE('',*,*,#605,.T.) ;
#688=ORIENTED_EDGE('',*,*,#655,.T.) ;
#689=ORIENTED_EDGE('',*,*,#662,.F.) ;
#690=ORIENTED_EDGE('',*,*,#667,.T.) ;
#691=ORIENTED_EDGE('',*,*,#370,.F.) ;
#692=ORIENTED_EDGE('',*,*,#363,.F.) ;
#693=ORIENTED_EDGE('',*,*,#356,.F.) ;
#694=ORIENTED_EDGE('',*,*,#634,.F.) ;
#695=ORIENTED_EDGE('',*,*,#674,.F.) ;
#696=ORIENTED_EDGE('',*,*,#681,.F.) ;
#697=ORIENTED_EDGE('',*,*,#686,.T.) ;
#714=ORIENTED_EDGE('',*,*,#707,.T.) ;
#715=ORIENTED_EDGE('',*,*,#712,.T.) ;
#736=ORIENTED_EDGE('',*,*,#377,.F.) ;
#737=ORIENTED_EDGE('',*,*,#667,.F.) ;
#738=ORIENTED_EDGE('',*,*,#729,.T.) ;
#739=ORIENTED_EDGE('',*,*,#734,.F.) ;
#760=ORIENTED_EDGE('',*,*,#753,.F.) ;
#761=ORIENTED_EDGE('',*,*,#384,.F.) ;
#762=ORIENTED_EDGE('',*,*,#734,.T.) ;
#763=ORIENTED_EDGE('',*,*,#758,.F.) ;
#779=ORIENTED_EDGE('',*,*,#753,.T.) ;
#780=ORIENTED_EDGE('',*,*,#772,.T.) ;
#781=ORIENTED_EDGE('',*,*,#777,.T.) ;
#782=ORIENTED_EDGE('',*,*,#391,.F.) ;
#799=ORIENTED_EDGE('',*,*,#792,.T.) ;
#800=ORIENTED_EDGE('',*,*,#797,.T.) ;
#835=ORIENTED_EDGE('',*,*,#816,.F.) ;
#836=ORIENTED_EDGE('',*,*,#823,.T.) ;
#837=ORIENTED_EDGE('',*,*,#828,.T.) ;
#838=ORIENTED_EDGE('',*,*,#398,.F.) ;
#839=ORIENTED_EDGE('',*,*,#777,.F.) ;
#840=ORIENTED_EDGE('',*,*,#833,.F.) ;
#856=ORIENTED_EDGE('',*,*,#849,.F.) ;
#857=ORIENTED_EDGE('',*,*,#405,.F.) ;
#858=ORIENTED_EDGE('',*,*,#828,.F.) ;
#859=ORIENTED_EDGE('',*,*,#854,.T.) ;
#876=ORIENTED_EDGE('',*,*,#869,.T.) ;
#877=ORIENTED_EDGE('',*,*,#874,.T.) ;
#943=ORIENTED_EDGE('',*,*,#893,.F.) ;
#944=ORIENTED_EDGE('',*,*,#900,.F.) ;
#945=ORIENTED_EDGE('',*,*,#905,.T.) ;
#946=ORIENTED_EDGE('',*,*,#854,.F.) ;
#947=ORIENTED_EDGE('',*,*,#823,.F.) ;
#948=ORIENTED_EDGE('',*,*,#910,.F.) ;
#949=ORIENTED_EDGE('',*,*,#686,.F.) ;
#950=ORIENTED_EDGE('',*,*,#915,.F.) ;
#951=ORIENTED_EDGE('',*,*,#547,.F.) ;
#952=ORIENTED_EDGE('',*,*,#486,.F.) ;
#953=ORIENTED_EDGE('',*,*,#922,.F.) ;
#954=ORIENTED_EDGE('',*,*,#929,.F.) ;
#955=ORIENTED_EDGE('',*,*,#936,.T.) ;
#956=ORIENTED_EDGE('',*,*,#941,.F.) ;
#975=ORIENTED_EDGE('',*,*,#968,.F.) ;
#976=ORIENTED_EDGE('',*,*,#511,.F.) ;
#977=ORIENTED_EDGE('',*,*,#973,.T.) ;
#978=ORIENTED_EDGE('',*,*,#588,.F.) ;
#982=ORIENTED_EDGE('',*,*,#973,.F.) ;
#983=ORIENTED_EDGE('',*,*,#506,.F.) ;
#984=ORIENTED_EDGE('',*,*,#968,.T.) ;
#985=ORIENTED_EDGE('',*,*,#583,.F.) ;
#999=ORIENTED_EDGE('',*,*,#530,.F.) ;
#1000=ORIENTED_EDGE('',*,*,#915,.T.) ;
#1001=ORIENTED_EDGE('',*,*,#681,.T.) ;
#1002=ORIENTED_EDGE('',*,*,#997,.T.) ;
#1016=ORIENTED_EDGE('',*,*,#655,.F.) ;
#1017=ORIENTED_EDGE('',*,*,#910,.T.) ;
#1018=ORIENTED_EDGE('',*,*,#816,.T.) ;
#1019=ORIENTED_EDGE('',*,*,#1014,.T.) ;
#1038=ORIENTED_EDGE('',*,*,#1031,.F.) ;
#1039=ORIENTED_EDGE('',*,*,#874,.F.) ;
#1040=ORIENTED_EDGE('',*,*,#1036,.T.) ;
#1041=ORIENTED_EDGE('',*,*,#797,.F.) ;
#1045=ORIENTED_EDGE('',*,*,#1036,.F.) ;
#1046=ORIENTED_EDGE('',*,*,#869,.F.) ;
#1047=ORIENTED_EDGE('',*,*,#1031,.T.) ;
#1048=ORIENTED_EDGE('',*,*,#792,.F.) ;
#1113=ORIENTED_EDGE('',*,*,#1064,.T.) ;
#1114=ORIENTED_EDGE('',*,*,#1071,.T.) ;
#1115=ORIENTED_EDGE('',*,*,#1078,.T.) ;
#1116=ORIENTED_EDGE('',*,*,#1085,.T.) ;
#1117=ORIENTED_EDGE('',*,*,#1092,.T.) ;
#1118=ORIENTED_EDGE('',*,*,#1099,.F.) ;
#1119=ORIENTED_EDGE('',*,*,#1106,.T.) ;
#1120=ORIENTED_EDGE('',*,*,#1111,.T.) ;
#1148=ORIENTED_EDGE('',*,*,#1134,.T.) ;
#1149=ORIENTED_EDGE('',*,*,#900,.T.) ;
#1150=ORIENTED_EDGE('',*,*,#1141,.F.) ;
#1151=ORIENTED_EDGE('',*,*,#1146,.F.) ;
#1165=ORIENTED_EDGE('',*,*,#1158,.T.) ;
#1166=ORIENTED_EDGE('',*,*,#929,.T.) ;
#1167=ORIENTED_EDGE('',*,*,#1163,.F.) ;
#1168=ORIENTED_EDGE('',*,*,#1106,.F.) ;
#1172=ORIENTED_EDGE('',*,*,#833,.T.) ;
#1173=ORIENTED_EDGE('',*,*,#772,.F.) ;
#1174=ORIENTED_EDGE('',*,*,#758,.T.) ;
#1175=ORIENTED_EDGE('',*,*,#729,.F.) ;
#1176=ORIENTED_EDGE('',*,*,#662,.T.) ;
#1177=ORIENTED_EDGE('',*,*,#1014,.F.) ;
#1181=ORIENTED_EDGE('',*,*,#674,.T.) ;
#1182=ORIENTED_EDGE('',*,*,#629,.F.) ;
#1183=ORIENTED_EDGE('',*,*,#610,.T.) ;
#1184=ORIENTED_EDGE('',*,*,#568,.F.) ;
#1185=ORIENTED_EDGE('',*,*,#537,.T.) ;
#1186=ORIENTED_EDGE('',*,*,#997,.F.) ;
#1214=ORIENTED_EDGE('',*,*,#426,.T.) ;
#1215=ORIENTED_EDGE('',*,*,#1200,.F.) ;
#1216=ORIENTED_EDGE('',*,*,#1207,.F.) ;
#1217=ORIENTED_EDGE('',*,*,#1212,.T.) ;
#1233=ORIENTED_EDGE('',*,*,#1226,.T.) ;
#1234=ORIENTED_EDGE('',*,*,#1231,.F.) ;
#1235=ORIENTED_EDGE('',*,*,#1200,.T.) ;
#1236=ORIENTED_EDGE('',*,*,#419,.T.) ;
#1250=ORIENTED_EDGE('',*,*,#1248,.T.) ;
#1251=ORIENTED_EDGE('',*,*,#1226,.F.) ;
#1252=ORIENTED_EDGE('',*,*,#412,.T.) ;
#1253=ORIENTED_EDGE('',*,*,#849,.T.) ;
#1254=ORIENTED_EDGE('',*,*,#905,.F.) ;
#1255=ORIENTED_EDGE('',*,*,#1134,.F.) ;
#1269=ORIENTED_EDGE('',*,*,#1163,.T.) ;
#1270=ORIENTED_EDGE('',*,*,#922,.T.) ;
#1271=ORIENTED_EDGE('',*,*,#479,.F.) ;
#1272=ORIENTED_EDGE('',*,*,#314,.T.) ;
#1273=ORIENTED_EDGE('',*,*,#1267,.T.) ;
#1274=ORIENTED_EDGE('',*,*,#1111,.F.) ;
#1283=ORIENTED_EDGE('',*,*,#1267,.F.) ;
#1284=ORIENTED_EDGE('',*,*,#307,.T.) ;
#1285=ORIENTED_EDGE('',*,*,#1281,.F.) ;
#1286=ORIENTED_EDGE('',*,*,#1064,.F.) ;
#1300=ORIENTED_EDGE('',*,*,#300,.T.) ;
#1301=ORIENTED_EDGE('',*,*,#1298,.F.) ;
#1302=ORIENTED_EDGE('',*,*,#1071,.F.) ;
#1303=ORIENTED_EDGE('',*,*,#1281,.T.) ;
#1317=ORIENTED_EDGE('',*,*,#293,.T.) ;
#1318=ORIENTED_EDGE('',*,*,#1315,.F.) ;
#1319=ORIENTED_EDGE('',*,*,#1078,.F.) ;
#1320=ORIENTED_EDGE('',*,*,#1298,.T.) ;
#1334=ORIENTED_EDGE('',*,*,#1327,.T.) ;
#1335=ORIENTED_EDGE('',*,*,#1092,.F.) ;
#1336=ORIENTED_EDGE('',*,*,#1332,.T.) ;
#1337=ORIENTED_EDGE('',*,*,#279,.T.) ;
#1351=ORIENTED_EDGE('',*,*,#272,.T.) ;
#1352=ORIENTED_EDGE('',*,*,#1349,.T.) ;
#1353=ORIENTED_EDGE('',*,*,#936,.F.) ;
#1354=ORIENTED_EDGE('',*,*,#1158,.F.) ;
#1355=ORIENTED_EDGE('',*,*,#1099,.T.) ;
#1356=ORIENTED_EDGE('',*,*,#1327,.F.) ;
#1375=ORIENTED_EDGE('',*,*,#234,.T.) ;
#1376=ORIENTED_EDGE('',*,*,#1368,.F.) ;
#1377=ORIENTED_EDGE('',*,*,#1141,.T.) ;
#1378=ORIENTED_EDGE('',*,*,#893,.T.) ;
#1379=ORIENTED_EDGE('',*,*,#1373,.F.) ;
#1380=ORIENTED_EDGE('',*,*,#436,.T.) ;
#1384=ORIENTED_EDGE('',*,*,#1373,.T.) ;
#1385=ORIENTED_EDGE('',*,*,#941,.T.) ;
#1386=ORIENTED_EDGE('',*,*,#1349,.F.) ;
#1387=ORIENTED_EDGE('',*,*,#265,.F.) ;
#1390=ORIENTED_EDGE('',*,*,#213,.T.) ;
#1391=ORIENTED_EDGE('',*,*,#191,.T.) ;
#1400=ORIENTED_EDGE('',*,*,#431,.T.) ;
#1401=ORIENTED_EDGE('',*,*,#1212,.F.) ;
#1402=ORIENTED_EDGE('',*,*,#1398,.F.) ;
#1403=ORIENTED_EDGE('',*,*,#146,.T.) ;
#1407=ORIENTED_EDGE('',*,*,#244,.T.) ;
#1408=ORIENTED_EDGE('',*,*,#153,.T.) ;
#1409=ORIENTED_EDGE('',*,*,#1398,.T.) ;
#1410=ORIENTED_EDGE('',*,*,#1207,.T.) ;
#1411=ORIENTED_EDGE('',*,*,#1231,.T.) ;
#1412=ORIENTED_EDGE('',*,*,#1248,.F.) ;
#1413=ORIENTED_EDGE('',*,*,#1146,.T.) ;
#1414=ORIENTED_EDGE('',*,*,#1368,.T.) ;
#1423=ORIENTED_EDGE('',*,*,#286,.T.) ;
#1424=ORIENTED_EDGE('',*,*,#1332,.F.) ;
#1425=ORIENTED_EDGE('',*,*,#1085,.F.) ;
#1426=ORIENTED_EDGE('',*,*,#1315,.T.) ;
#1437=ORIENTED_EDGE('',*,*,#1435,.F.) ;
#1438=ORIENTED_EDGE('',*,*,#65,.T.) ;
#1457=ORIENTED_EDGE('',*,*,#172,.T.) ;
#1458=ORIENTED_EDGE('',*,*,#79,.T.) ;
#1459=ORIENTED_EDGE('',*,*,#1450,.T.) ;
#1460=ORIENTED_EDGE('',*,*,#712,.F.) ;
#1461=ORIENTED_EDGE('',*,*,#1455,.F.) ;
#1462=ORIENTED_EDGE('',*,*,#93,.T.) ;
#1466=ORIENTED_EDGE('',*,*,#1435,.T.) ;
#1467=ORIENTED_EDGE('',*,*,#98,.T.) ;
#1468=ORIENTED_EDGE('',*,*,#1455,.T.) ;
#1469=ORIENTED_EDGE('',*,*,#707,.F.) ;
#1470=ORIENTED_EDGE('',*,*,#1450,.F.) ;
#1471=ORIENTED_EDGE('',*,*,#72,.T.) ;
#124=FACE_BOUND('',#121,.T.) ;
#176=FACE_BOUND('',#173,.T.) ;
#515=FACE_BOUND('',#512,.T.) ;
#592=FACE_BOUND('',#589,.T.) ;
#716=FACE_BOUND('',#713,.T.) ;
#801=FACE_BOUND('',#798,.T.) ;
#878=FACE_BOUND('',#875,.T.) ;
#1392=FACE_BOUND('',#1389,.T.) ;
#1439=FACE_BOUND('',#1436,.T.) ;
#51=CLOSED_SHELL('Closed Shell',(#125,#177,#208,#220,#251,#467,#516,#556,#593,#617,#641,#717,#741,#765,#802,#842,#879,#958,#980,#987,#1004,#1021,#1043,#1050,#1122,#1153,#1170,#1179,#1188,#1219,#1238,#1257,#1276,#1288,#1305,#1322,#1339,#1358,#1382,#1393,#1405,#1416,#1440,#1464,#1473)) ;
#59=VECTOR('Line Direction',#58,1.) ;
#82=VECTOR('Line Direction',#81,1.) ;
#142=VECTOR('Line Direction',#141,1.) ;
#156=VECTOR('Line Direction',#155,1.) ;
#194=VECTOR('Line Direction',#193,1.) ;
#199=VECTOR('Line Direction',#198,1.) ;
#228=VECTOR('Line Direction',#227,1.) ;
#237=VECTOR('Line Direction',#236,1.) ;
#242=VECTOR('Line Direction',#241,1.) ;
#259=VECTOR('Line Direction',#258,1.) ;
#268=VECTOR('Line Direction',#267,1.) ;
#275=VECTOR('Line Direction',#274,1.) ;
#289=VECTOR('Line Direction',#288,1.) ;
#303=VECTOR('Line Direction',#302,1.) ;
#310=VECTOR('Line Direction',#309,1.) ;
#317=VECTOR('Line Direction',#316,1.) ;
#324=VECTOR('Line Direction',#323,1.) ;
#331=VECTOR('Line Direction',#330,1.) ;
#352=VECTOR('Line Direction',#351,1.) ;
#359=VECTOR('Line Direction',#358,1.) ;
#366=VECTOR('Line Direction',#365,1.) ;
#387=VECTOR('Line Direction',#386,1.) ;
#394=VECTOR('Line Direction',#393,1.) ;
#401=VECTOR('Line Direction',#400,1.) ;
#408=VECTOR('Line Direction',#407,1.) ;
#415=VECTOR('Line Direction',#414,1.) ;
#429=VECTOR('Line Direction',#428,1.) ;
#434=VECTOR('Line Direction',#433,1.) ;
#475=VECTOR('Line Direction',#474,1.) ;
#482=VECTOR('Line Direction',#481,1.) ;
#489=VECTOR('Line Direction',#488,1.) ;
#524=VECTOR('Line Direction',#523,1.) ;
#533=VECTOR('Line Direction',#532,1.) ;
#540=VECTOR('Line Direction',#539,1.) ;
#545=VECTOR('Line Direction',#544,1.) ;
#559=VECTOR('Line Direction',#558,1.) ;
#566=VECTOR('Line Direction',#565,1.) ;
#601=VECTOR('Line Direction',#600,1.) ;
#632=VECTOR('Line Direction',#631,1.) ;
#649=VECTOR('Line Direction',#648,1.) ;
#658=VECTOR('Line Direction',#657,1.) ;
#665=VECTOR('Line Direction',#664,1.) ;
#670=VECTOR('Line Direction',#669,1.) ;
#677=VECTOR('Line Direction',#676,1.) ;
#684=VECTOR('Line Direction',#683,1.) ;
#732=VECTOR('Line Direction',#731,1.) ;
#749=VECTOR('Line Direction',#748,1.) ;
#768=VECTOR('Line Direction',#767,1.) ;
#775=VECTOR('Line Direction',#774,1.) ;
#810=VECTOR('Line Direction',#809,1.) ;
#819=VECTOR('Line Direction',#818,1.) ;
#826=VECTOR('Line Direction',#825,1.) ;
#831=VECTOR('Line Direction',#830,1.) ;
#845=VECTOR('Line Direction',#844,1.) ;
#852=VECTOR('Line Direction',#851,1.) ;
#887=VECTOR('Line Direction',#886,1.) ;
#896=VECTOR('Line Direction',#895,1.) ;
#903=VECTOR('Line Direction',#902,1.) ;
#908=VECTOR('Line Direction',#907,1.) ;
#913=VECTOR('Line Direction',#912,1.) ;
#918=VECTOR('Line Direction',#917,1.) ;
#925=VECTOR('Line Direction',#924,1.) ;
#932=VECTOR('Line Direction',#931,1.) ;
#939=VECTOR('Line Direction',#938,1.) ;
#966=VECTOR('Line Direction',#965,1.) ;
#971=VECTOR('Line Direction',#970,1.) ;
#995=VECTOR('Line Direction',#994,1.) ;
#1012=VECTOR('Line Direction',#1011,1.) ;
#1029=VECTOR('Line Direction',#1028,1.) ;
#1034=VECTOR('Line Direction',#1033,1.) ;
#1058=VECTOR('Line Direction',#1057,1.) ;
#1074=VECTOR('Line Direction',#1073,1.) ;
#1088=VECTOR('Line Direction',#1087,1.) ;
#1095=VECTOR('Line Direction',#1094,1.) ;
#1102=VECTOR('Line Direction',#1101,1.) ;
#1109=VECTOR('Line Direction',#1108,1.) ;
#1130=VECTOR('Line Direction',#1129,1.) ;
#1137=VECTOR('Line Direction',#1136,1.) ;
#1144=VECTOR('Line Direction',#1143,1.) ;
#1156=VECTOR('Line Direction',#1155,1.) ;
#1161=VECTOR('Line Direction',#1160,1.) ;
#1196=VECTOR('Line Direction',#1195,1.) ;
#1210=VECTOR('Line Direction',#1209,1.) ;
#1222=VECTOR('Line Direction',#1221,1.) ;
#1229=VECTOR('Line Direction',#1228,1.) ;
#1246=VECTOR('Line Direction',#1245,1.) ;
#1265=VECTOR('Line Direction',#1264,1.) ;
#1279=VECTOR('Line Direction',#1278,1.) ;
#1296=VECTOR('Line Direction',#1295,1.) ;
#1313=VECTOR('Line Direction',#1312,1.) ;
#1325=VECTOR('Line Direction',#1324,1.) ;
#1330=VECTOR('Line Direction',#1329,1.) ;
#1347=VECTOR('Line Direction',#1346,1.) ;
#1366=VECTOR('Line Direction',#1365,1.) ;
#1371=VECTOR('Line Direction',#1370,1.) ;
#1396=VECTOR('Line Direction',#1395,1.) ;
#1448=VECTOR('Line Direction',#1447,1.) ;
#1453=VECTOR('Line Direction',#1452,1.) ;
#1475=ADVANCED_BREP_SHAPE_REPRESENTATION('NONE',(#1474),#46) ;
#49=SHAPE_REPRESENTATION(' ',(#48),#46) ;
#125=ADVANCED_FACE('PartBody',(#106,#124),#56,.F.) ;
#177=ADVANCED_FACE('PartBody',(#164,#176),#130,.F.) ;
#208=ADVANCED_FACE('PartBody',(#207),#182,.F.) ;
#220=ADVANCED_FACE('PartBody',(#219),#182,.F.) ;
#251=ADVANCED_FACE('PartBody',(#250),#225,.F.) ;
#467=ADVANCED_FACE('PartBody',(#466),#256,.T.) ;
#516=ADVANCED_FACE('PartBody',(#497,#515),#472,.F.) ;
#556=ADVANCED_FACE('PartBody',(#555),#521,.F.) ;
#593=ADVANCED_FACE('PartBody',(#574,#592),#225,.F.) ;
#617=ADVANCED_FACE('PartBody',(#616),#598,.F.) ;
#641=ADVANCED_FACE('PartBody',(#640),#622,.T.) ;
#717=ADVANCED_FACE('PartBody',(#698,#716),#646,.F.) ;
#741=ADVANCED_FACE('PartBody',(#740),#722,.T.) ;
#765=ADVANCED_FACE('PartBody',(#764),#746,.F.) ;
#802=ADVANCED_FACE('PartBody',(#783,#801),#225,.F.) ;
#842=ADVANCED_FACE('PartBody',(#841),#807,.F.) ;
#879=ADVANCED_FACE('PartBody',(#860,#878),#472,.F.) ;
#958=ADVANCED_FACE('PartBody',(#957),#884,.F.) ;
#980=ADVANCED_FACE('PartBody',(#979),#963,.F.) ;
#987=ADVANCED_FACE('PartBody',(#986),#963,.F.) ;
#1004=ADVANCED_FACE('PartBody',(#1003),#992,.F.) ;
#1021=ADVANCED_FACE('PartBody',(#1020),#1009,.F.) ;
#1043=ADVANCED_FACE('PartBody',(#1042),#1026,.F.) ;
#1050=ADVANCED_FACE('PartBody',(#1049),#1026,.F.) ;
#1122=ADVANCED_FACE('PartBody',(#1121),#1055,.T.) ;
#1153=ADVANCED_FACE('PartBody',(#1152),#1127,.F.) ;
#1170=ADVANCED_FACE('PartBody',(#1169),#1127,.F.) ;
#1179=ADVANCED_FACE('PartBody',(#1178),#1055,.T.) ;
#1188=ADVANCED_FACE('PartBody',(#1187),#1055,.T.) ;
#1219=ADVANCED_FACE('PartBody',(#1218),#1193,.F.) ;
#1238=ADVANCED_FACE('PartBody',(#1237),#225,.F.) ;
#1257=ADVANCED_FACE('PartBody',(#1256),#1243,.T.) ;
#1276=ADVANCED_FACE('PartBody',(#1275),#1262,.F.) ;
#1288=ADVANCED_FACE('PartBody',(#1287),#225,.F.) ;
#1305=ADVANCED_FACE('PartBody',(#1304),#1293,.F.) ;
#1322=ADVANCED_FACE('PartBody',(#1321),#1310,.T.) ;
#1339=ADVANCED_FACE('PartBody',(#1338),#225,.F.) ;
#1358=ADVANCED_FACE('PartBody',(#1357),#1344,.F.) ;
#1382=ADVANCED_FACE('PartBody',(#1381),#1363,.T.) ;
#1393=ADVANCED_FACE('PartBody',(#1388,#1392),#472,.F.) ;
#1405=ADVANCED_FACE('PartBody',(#1404),#1310,.T.) ;
#1416=ADVANCED_FACE('PartBody',(#1415),#1055,.T.) ;
#1440=ADVANCED_FACE('PartBody',(#1427,#1439),#1421,.F.) ;
#1464=ADVANCED_FACE('PartBody',(#1463),#1445,.F.) ;
#1473=ADVANCED_FACE('PartBody',(#1472),#1445,.F.) ;
#4=APPLICATION_PROTOCOL_DEFINITION('international standard','config_control_design',1994,#1) ;
#32=APPROVAL_DATE_TIME(#13,#21) ;
#165=B_SPLINE_CURVE_WITH_KNOTS('',5,(#166,#167,#168,#169,#170,#171),.UNSPECIFIED.,.F.,.U.,(6,6),(0.,3.55244737628),.UNSPECIFIED.) ;
#1428=B_SPLINE_CURVE_WITH_KNOTS('',5,(#1429,#1430,#1431,#1432,#1433,#1434),.UNSPECIFIED.,.F.,.U.,(6,6),(0.,3.55244737621),.UNSPECIFIED.) ;
#1474=MANIFOLD_SOLID_BREP('PartBody',#51) ;
#11=CALENDAR_DATE(2014,18,4) ;
#30=CC_DESIGN_APPROVAL(#21,(#16,#6,#14)) ;
#18=CC_DESIGN_DATE_AND_TIME_ASSIGNMENT(#13,#17,(#16)) ;
#29=CC_DESIGN_DATE_AND_TIME_ASSIGNMENT(#13,#28,(#14)) ;
#17=DATE_TIME_ROLE('classification_date') ;
#28=DATE_TIME_ROLE('creation_date') ;
#27=CC_DESIGN_PERSON_AND_ORGANIZATION_ASSIGNMENT(#25,#26,(#16)) ;
#33=CC_DESIGN_PERSON_AND_ORGANIZATION_ASSIGNMENT(#25,#34,(#6)) ;
#35=CC_DESIGN_PERSON_AND_ORGANIZATION_ASSIGNMENT(#25,#36,(#6,#14)) ;
#37=CC_DESIGN_PERSON_AND_ORGANIZATION_ASSIGNMENT(#25,#38,(#5)) ;
#26=PERSON_AND_ORGANIZATION_ROLE('classification_officer') ;
#34=PERSON_AND_ORGANIZATION_ROLE('design_supplier') ;
#36=PERSON_AND_ORGANIZATION_ROLE('creator') ;
#38=PERSON_AND_ORGANIZATION_ROLE('design_owner') ;
#39=CC_DESIGN_SECURITY_CLASSIFICATION(#16,(#6)) ;
#69=CIRCLE('generated circle',#68,3.) ;
#76=CIRCLE('generated circle',#75,3.) ;
#90=CIRCLE('generated circle',#89,3.) ;
#97=CIRCLE('generated circle',#96,3.) ;
#110=CIRCLE('generated circle',#109,1.5) ;
#119=CIRCLE('generated circle',#118,1.5) ;
#134=CIRCLE('generated circle',#133,5.5) ;
#150=CIRCLE('generated circle',#149,5.5) ;
#186=CIRCLE('generated circle',#185,1.5) ;
#212=CIRCLE('generated circle',#211,1.5) ;
#283=CIRCLE('generated circle',#282,5.5) ;
#297=CIRCLE('generated circle',#296,5.5) ;
#339=CIRCLE('generated circle',#338,1.) ;
#346=CIRCLE('generated circle',#345,7.5) ;
#374=CIRCLE('generated circle',#373,7.5) ;
#381=CIRCLE('generated circle',#380,1.) ;
#423=CIRCLE('generated circle',#422,5.5) ;
#501=CIRCLE('generated circle',#500,1.5) ;
#510=CIRCLE('generated circle',#509,1.5) ;
#578=CIRCLE('generated circle',#577,1.5) ;
#587=CIRCLE('generated circle',#586,1.5) ;
#609=CIRCLE('generated circle',#608,1.) ;
#626=CIRCLE('generated circle',#625,7.5) ;
#702=CIRCLE('generated circle',#701,3.) ;
#711=CIRCLE('generated circle',#710,3.) ;
#726=CIRCLE('generated circle',#725,7.5) ;
#757=CIRCLE('generated circle',#756,1.) ;
#787=CIRCLE('generated circle',#786,1.5) ;
#796=CIRCLE('generated circle',#795,1.5) ;
#864=CIRCLE('generated circle',#863,1.5) ;
#873=CIRCLE('generated circle',#872,1.5) ;
#1068=CIRCLE('generated circle',#1067,5.5) ;
#1082=CIRCLE('generated circle',#1081,5.5) ;
#1204=CIRCLE('generated circle',#1203,5.5) ;
#1476=SHAPE_REPRESENTATION_RELATIONSHIP(' ',' ',#49,#1475) ;
#130=CYLINDRICAL_SURFACE('generated cylinder',#129,5.5) ;
#182=CYLINDRICAL_SURFACE('generated cylinder',#181,1.5) ;
#598=CYLINDRICAL_SURFACE('generated cylinder',#597,1.) ;
#622=CYLINDRICAL_SURFACE('generated cylinder',#621,7.5) ;
#722=CYLINDRICAL_SURFACE('generated cylinder',#721,7.5) ;
#746=CYLINDRICAL_SURFACE('generated cylinder',#745,1.) ;
#963=CYLINDRICAL_SURFACE('generated cylinder',#962,1.5) ;
#1026=CYLINDRICAL_SURFACE('generated cylinder',#1025,1.5) ;
#1193=CYLINDRICAL_SURFACE('generated cylinder',#1192,5.5) ;
#1293=CYLINDRICAL_SURFACE('generated cylinder',#1292,5.5) ;
#1421=CYLINDRICAL_SURFACE('generated cylinder',#1420,5.5) ;
#1445=CYLINDRICAL_SURFACE('generated cylinder',#1444,3.) ;
#3=DESIGN_CONTEXT(' ',#1,'design') ;
#65=EDGE_CURVE('',#62,#64,#60,.T.) ;
#72=EDGE_CURVE('',#71,#62,#69,.T.) ;
#79=EDGE_CURVE('',#78,#71,#76,.T.) ;
#86=EDGE_CURVE('',#78,#85,#83,.T.) ;
#93=EDGE_CURVE('',#92,#85,#90,.T.) ;
#98=EDGE_CURVE('',#64,#92,#97,.T.) ;
#115=EDGE_CURVE('',#112,#114,#110,.T.) ;
#120=EDGE_CURVE('',#114,#112,#119,.T.) ;
#139=EDGE_CURVE('',#136,#138,#134,.T.) ;
#146=EDGE_CURVE('',#145,#138,#143,.T.) ;
#153=EDGE_CURVE('',#152,#145,#150,.T.) ;
#158=EDGE_CURVE('',#152,#136,#157,.T.) ;
#172=EDGE_CURVE('',#85,#78,#165,.T.) ;
#191=EDGE_CURVE('',#188,#190,#186,.F.) ;
#196=EDGE_CURVE('',#188,#112,#195,.F.) ;
#201=EDGE_CURVE('',#190,#114,#200,.F.) ;
#213=EDGE_CURVE('',#190,#188,#212,.F.) ;
#234=EDGE_CURVE('',#231,#233,#229,.T.) ;
#239=EDGE_CURVE('',#231,#136,#238,.F.) ;
#244=EDGE_CURVE('',#233,#152,#243,.F.) ;
#265=EDGE_CURVE('',#262,#264,#260,.F.) ;
#272=EDGE_CURVE('',#271,#264,#269,.F.) ;
#279=EDGE_CURVE('',#278,#271,#276,.F.) ;
#286=EDGE_CURVE('',#285,#278,#283,.T.) ;
#293=EDGE_CURVE('',#292,#285,#290,.F.) ;
#300=EDGE_CURVE('',#299,#292,#297,.T.) ;
#307=EDGE_CURVE('',#306,#299,#304,.F.) ;
#314=EDGE_CURVE('',#313,#306,#311,.F.) ;
#321=EDGE_CURVE('',#313,#320,#318,.F.) ;
#328=EDGE_CURVE('',#320,#327,#325,.F.) ;
#335=EDGE_CURVE('',#327,#334,#332,.F.) ;
#342=EDGE_CURVE('',#334,#341,#339,.F.) ;
#349=EDGE_CURVE('',#341,#348,#346,.T.) ;
#356=EDGE_CURVE('',#348,#355,#353,.F.) ;
#363=EDGE_CURVE('',#355,#362,#360,.F.) ;
#370=EDGE_CURVE('',#362,#369,#367,.F.) ;
#377=EDGE_CURVE('',#369,#376,#374,.T.) ;
#384=EDGE_CURVE('',#376,#383,#381,.F.) ;
#391=EDGE_CURVE('',#383,#390,#388,.F.) ;
#398=EDGE_CURVE('',#390,#397,#395,.F.) ;
#405=EDGE_CURVE('',#397,#404,#402,.F.) ;
#412=EDGE_CURVE('',#411,#404,#409,.T.) ;
#419=EDGE_CURVE('',#418,#411,#416,.F.) ;
#426=EDGE_CURVE('',#425,#418,#423,.T.) ;
#431=EDGE_CURVE('',#138,#425,#430,.F.) ;
#436=EDGE_CURVE('',#262,#231,#435,.T.) ;
#479=EDGE_CURVE('',#313,#478,#476,.T.) ;
#486=EDGE_CURVE('',#478,#485,#483,.F.) ;
#491=EDGE_CURVE('',#485,#320,#490,.T.) ;
#506=EDGE_CURVE('',#503,#505,#501,.T.) ;
#511=EDGE_CURVE('',#505,#503,#510,.T.) ;
#530=EDGE_CURVE('',#527,#529,#525,.F.) ;
#537=EDGE_CURVE('',#536,#529,#534,.F.) ;
#542=EDGE_CURVE('',#536,#327,#541,.T.) ;
#547=EDGE_CURVE('',#485,#527,#546,.F.) ;
#563=EDGE_CURVE('',#334,#562,#560,.T.) ;
#568=EDGE_CURVE('',#536,#562,#567,.F.) ;
#583=EDGE_CURVE('',#580,#582,#578,.T.) ;
#588=EDGE_CURVE('',#582,#580,#587,.T.) ;
#605=EDGE_CURVE('',#341,#604,#602,.T.) ;
#610=EDGE_CURVE('',#604,#562,#609,.F.) ;
#629=EDGE_CURVE('',#604,#628,#626,.T.) ;
#634=EDGE_CURVE('',#628,#348,#633,.T.) ;
#655=EDGE_CURVE('',#652,#654,#650,.F.) ;
#662=EDGE_CURVE('',#661,#654,#659,.F.) ;
#667=EDGE_CURVE('',#661,#369,#666,.T.) ;
#674=EDGE_CURVE('',#673,#628,#671,.F.) ;
#681=EDGE_CURVE('',#680,#673,#678,.F.) ;
#686=EDGE_CURVE('',#680,#652,#685,.F.) ;
#707=EDGE_CURVE('',#704,#706,#702,.T.) ;
#712=EDGE_CURVE('',#706,#704,#711,.T.) ;
#729=EDGE_CURVE('',#661,#728,#726,.T.) ;
#734=EDGE_CURVE('',#376,#728,#733,.F.) ;
#753=EDGE_CURVE('',#383,#752,#750,.T.) ;
#758=EDGE_CURVE('',#752,#728,#757,.F.) ;
#772=EDGE_CURVE('',#752,#771,#769,.F.) ;
#777=EDGE_CURVE('',#771,#390,#776,.T.) ;
#792=EDGE_CURVE('',#789,#791,#787,.T.) ;
#797=EDGE_CURVE('',#791,#789,#796,.T.) ;
#816=EDGE_CURVE('',#813,#815,#811,.F.) ;
#823=EDGE_CURVE('',#813,#822,#820,.F.) ;
#828=EDGE_CURVE('',#822,#397,#827,.T.) ;
#833=EDGE_CURVE('',#815,#771,#832,.F.) ;
#849=EDGE_CURVE('',#404,#848,#846,.T.) ;
#854=EDGE_CURVE('',#822,#848,#853,.F.) ;
#869=EDGE_CURVE('',#866,#868,#864,.T.) ;
#874=EDGE_CURVE('',#868,#866,#873,.T.) ;
#893=EDGE_CURVE('',#890,#892,#888,.T.) ;
#900=EDGE_CURVE('',#899,#890,#897,.T.) ;
#905=EDGE_CURVE('',#899,#848,#904,.T.) ;
#910=EDGE_CURVE('',#652,#813,#909,.F.) ;
#915=EDGE_CURVE('',#527,#680,#914,.F.) ;
#922=EDGE_CURVE('',#921,#478,#919,.T.) ;
#929=EDGE_CURVE('',#928,#921,#926,.T.) ;
#936=EDGE_CURVE('',#928,#935,#933,.T.) ;
#941=EDGE_CURVE('',#892,#935,#940,.F.) ;
#968=EDGE_CURVE('',#503,#582,#967,.F.) ;
#973=EDGE_CURVE('',#505,#580,#972,.F.) ;
#997=EDGE_CURVE('',#673,#529,#996,.T.) ;
#1014=EDGE_CURVE('',#815,#654,#1013,.T.) ;
#1031=EDGE_CURVE('',#866,#791,#1030,.F.) ;
#1036=EDGE_CURVE('',#868,#789,#1035,.F.) ;
#1064=EDGE_CURVE('',#1061,#1063,#1059,.F.) ;
#1071=EDGE_CURVE('',#1063,#1070,#1068,.T.) ;
#1078=EDGE_CURVE('',#1070,#1077,#1075,.F.) ;
#1085=EDGE_CURVE('',#1077,#1084,#1082,.T.) ;
#1092=EDGE_CURVE('',#1084,#1091,#1089,.F.) ;
#1099=EDGE_CURVE('',#1098,#1091,#1096,.T.) ;
#1106=EDGE_CURVE('',#1098,#1105,#1103,.T.) ;
#1111=EDGE_CURVE('',#1105,#1061,#1110,.T.) ;
#1134=EDGE_CURVE('',#1133,#899,#1131,.T.) ;
#1141=EDGE_CURVE('',#1140,#890,#1138,.T.) ;
#1146=EDGE_CURVE('',#1133,#1140,#1145,.T.) ;
#1158=EDGE_CURVE('',#1098,#928,#1157,.T.) ;
#1163=EDGE_CURVE('',#1105,#921,#1162,.T.) ;
#1200=EDGE_CURVE('',#1199,#418,#1197,.T.) ;
#1207=EDGE_CURVE('',#1206,#1199,#1204,.T.) ;
#1212=EDGE_CURVE('',#1206,#425,#1211,.T.) ;
#1226=EDGE_CURVE('',#411,#1225,#1223,.T.) ;
#1231=EDGE_CURVE('',#1199,#1225,#1230,.F.) ;
#1248=EDGE_CURVE('',#1133,#1225,#1247,.T.) ;
#1267=EDGE_CURVE('',#306,#1061,#1266,.T.) ;
#1281=EDGE_CURVE('',#1063,#299,#1280,.T.) ;
#1298=EDGE_CURVE('',#1070,#292,#1297,.T.) ;
#1315=EDGE_CURVE('',#1077,#285,#1314,.T.) ;
#1327=EDGE_CURVE('',#271,#1091,#1326,.T.) ;
#1332=EDGE_CURVE('',#1084,#278,#1331,.T.) ;
#1349=EDGE_CURVE('',#264,#935,#1348,.T.) ;
#1368=EDGE_CURVE('',#1140,#233,#1367,.T.) ;
#1373=EDGE_CURVE('',#262,#892,#1372,.T.) ;
#1398=EDGE_CURVE('',#145,#1206,#1397,.F.) ;
#1435=EDGE_CURVE('',#62,#64,#1428,.T.) ;
#1450=EDGE_CURVE('',#71,#704,#1449,.F.) ;
#1455=EDGE_CURVE('',#92,#706,#1454,.F.) ;
#99=EDGE_LOOP('',(#100,#101,#102,#103,#104,#105)) ;
#121=EDGE_LOOP('',(#122,#123)) ;
#159=EDGE_LOOP('',(#160,#161,#162,#163)) ;
#173=EDGE_LOOP('',(#174,#175)) ;
#202=EDGE_LOOP('',(#203,#204,#205,#206)) ;
#214=EDGE_LOOP('',(#215,#216,#217,#218)) ;
#245=EDGE_LOOP('',(#246,#247,#248,#249)) ;
#437=EDGE_LOOP('',(#438,#439,#440,#441,#442,#443,#444,#445,#446,#447,#448,#449,#450,#451,#452,#453,#454,#455,#456,#457,#458,#459,#460,#461,#462,#463,#464,#465)) ;
#492=EDGE_LOOP('',(#493,#494,#495,#496)) ;
#512=EDGE_LOOP('',(#513,#514)) ;
#548=EDGE_LOOP('',(#549,#550,#551,#552,#553,#554)) ;
#569=EDGE_LOOP('',(#570,#571,#572,#573)) ;
#589=EDGE_LOOP('',(#590,#591)) ;
#611=EDGE_LOOP('',(#612,#613,#614,#615)) ;
#635=EDGE_LOOP('',(#636,#637,#638,#639)) ;
#687=EDGE_LOOP('',(#688,#689,#690,#691,#692,#693,#694,#695,#696,#697)) ;
#713=EDGE_LOOP('',(#714,#715)) ;
#735=EDGE_LOOP('',(#736,#737,#738,#739)) ;
#759=EDGE_LOOP('',(#760,#761,#762,#763)) ;
#778=EDGE_LOOP('',(#779,#780,#781,#782)) ;
#798=EDGE_LOOP('',(#799,#800)) ;
#834=EDGE_LOOP('',(#835,#836,#837,#838,#839,#840)) ;
#855=EDGE_LOOP('',(#856,#857,#858,#859)) ;
#875=EDGE_LOOP('',(#876,#877)) ;
#942=EDGE_LOOP('',(#943,#944,#945,#946,#947,#948,#949,#950,#951,#952,#953,#954,#955,#956)) ;
#974=EDGE_LOOP('',(#975,#976,#977,#978)) ;
#981=EDGE_LOOP('',(#982,#983,#984,#985)) ;
#998=EDGE_LOOP('',(#999,#1000,#1001,#1002)) ;
#1015=EDGE_LOOP('',(#1016,#1017,#1018,#1019)) ;
#1037=EDGE_LOOP('',(#1038,#1039,#1040,#1041)) ;
#1044=EDGE_LOOP('',(#1045,#1046,#1047,#1048)) ;
#1112=EDGE_LOOP('',(#1113,#1114,#1115,#1116,#1117,#1118,#1119,#1120)) ;
#1147=EDGE_LOOP('',(#1148,#1149,#1150,#1151)) ;
#1164=EDGE_LOOP('',(#1165,#1166,#1167,#1168)) ;
#1171=EDGE_LOOP('',(#1172,#1173,#1174,#1175,#1176,#1177)) ;
#1180=EDGE_LOOP('',(#1181,#1182,#1183,#1184,#1185,#1186)) ;
#1213=EDGE_LOOP('',(#1214,#1215,#1216,#1217)) ;
#1232=EDGE_LOOP('',(#1233,#1234,#1235,#1236)) ;
#1249=EDGE_LOOP('',(#1250,#1251,#1252,#1253,#1254,#1255)) ;
#1268=EDGE_LOOP('',(#1269,#1270,#1271,#1272,#1273,#1274)) ;
#1282=EDGE_LOOP('',(#1283,#1284,#1285,#1286)) ;
#1299=EDGE_LOOP('',(#1300,#1301,#1302,#1303)) ;
#1316=EDGE_LOOP('',(#1317,#1318,#1319,#1320)) ;
#1333=EDGE_LOOP('',(#1334,#1335,#1336,#1337)) ;
#1350=EDGE_LOOP('',(#1351,#1352,#1353,#1354,#1355,#1356)) ;
#1374=EDGE_LOOP('',(#1375,#1376,#1377,#1378,#1379,#1380)) ;
#1383=EDGE_LOOP('',(#1384,#1385,#1386,#1387)) ;
#1389=EDGE_LOOP('',(#1390,#1391)) ;
#1399=EDGE_LOOP('',(#1400,#1401,#1402,#1403)) ;
#1406=EDGE_LOOP('',(#1407,#1408,#1409,#1410,#1411,#1412,#1413,#1414)) ;
#1422=EDGE_LOOP('',(#1423,#1424,#1425,#1426)) ;
#1436=EDGE_LOOP('',(#1437,#1438)) ;
#1456=EDGE_LOOP('',(#1457,#1458,#1459,#1460,#1461,#1462)) ;
#1465=EDGE_LOOP('',(#1466,#1467,#1468,#1469,#1470,#1471)) ;
#106=FACE_OUTER_BOUND('',#99,.T.) ;
#164=FACE_OUTER_BOUND('',#159,.T.) ;
#207=FACE_OUTER_BOUND('',#202,.T.) ;
#219=FACE_OUTER_BOUND('',#214,.T.) ;
#250=FACE_OUTER_BOUND('',#245,.T.) ;
#466=FACE_OUTER_BOUND('',#437,.T.) ;
#497=FACE_OUTER_BOUND('',#492,.T.) ;
#555=FACE_OUTER_BOUND('',#548,.T.) ;
#574=FACE_OUTER_BOUND('',#569,.T.) ;
#616=FACE_OUTER_BOUND('',#611,.T.) ;
#640=FACE_OUTER_BOUND('',#635,.T.) ;
#698=FACE_OUTER_BOUND('',#687,.T.) ;
#740=FACE_OUTER_BOUND('',#735,.T.) ;
#764=FACE_OUTER_BOUND('',#759,.T.) ;
#783=FACE_OUTER_BOUND('',#778,.T.) ;
#841=FACE_OUTER_BOUND('',#834,.T.) ;
#860=FACE_OUTER_BOUND('',#855,.T.) ;
#957=FACE_OUTER_BOUND('',#942,.T.) ;
#979=FACE_OUTER_BOUND('',#974,.T.) ;
#986=FACE_OUTER_BOUND('',#981,.T.) ;
#1003=FACE_OUTER_BOUND('',#998,.T.) ;
#1020=FACE_OUTER_BOUND('',#1015,.T.) ;
#1042=FACE_OUTER_BOUND('',#1037,.T.) ;
#1049=FACE_OUTER_BOUND('',#1044,.T.) ;
#1121=FACE_OUTER_BOUND('',#1112,.T.) ;
#1152=FACE_OUTER_BOUND('',#1147,.T.) ;
#1169=FACE_OUTER_BOUND('',#1164,.T.) ;
#1178=FACE_OUTER_BOUND('',#1171,.T.) ;
#1187=FACE_OUTER_BOUND('',#1180,.T.) ;
#1218=FACE_OUTER_BOUND('',#1213,.T.) ;
#1237=FACE_OUTER_BOUND('',#1232,.T.) ;
#1256=FACE_OUTER_BOUND('',#1249,.T.) ;
#1275=FACE_OUTER_BOUND('',#1268,.T.) ;
#1287=FACE_OUTER_BOUND('',#1282,.T.) ;
#1304=FACE_OUTER_BOUND('',#1299,.T.) ;
#1321=FACE_OUTER_BOUND('',#1316,.T.) ;
#1338=FACE_OUTER_BOUND('',#1333,.T.) ;
#1357=FACE_OUTER_BOUND('',#1350,.T.) ;
#1381=FACE_OUTER_BOUND('',#1374,.T.) ;
#1388=FACE_OUTER_BOUND('',#1383,.T.) ;
#1404=FACE_OUTER_BOUND('',#1399,.T.) ;
#1415=FACE_OUTER_BOUND('',#1406,.T.) ;
#1427=FACE_OUTER_BOUND('',#1422,.T.) ;
#1463=FACE_OUTER_BOUND('',#1456,.T.) ;
#1472=FACE_OUTER_BOUND('',#1465,.T.) ;
#45=UNCERTAINTY_MEASURE_WITH_UNIT(LENGTH_MEASURE(0.005),#41,'distance_accuracy_value','CONFUSED CURVE UNCERTAINTY') ;
#60=LINE('Line',#57,#59) ;
#83=LINE('Line',#80,#82) ;
#143=LINE('Line',#140,#142) ;
#157=LINE('Line',#154,#156) ;
#195=LINE('Line',#192,#194) ;
#200=LINE('Line',#197,#199) ;
#229=LINE('Line',#226,#228) ;
#238=LINE('Line',#235,#237) ;
#243=LINE('Line',#240,#242) ;
#260=LINE('Line',#257,#259) ;
#269=LINE('Line',#266,#268) ;
#276=LINE('Line',#273,#275) ;
#290=LINE('Line',#287,#289) ;
#304=LINE('Line',#301,#303) ;
#311=LINE('Line',#308,#310) ;
#318=LINE('Line',#315,#317) ;
#325=LINE('Line',#322,#324) ;
#332=LINE('Line',#329,#331) ;
#353=LINE('Line',#350,#352) ;
#360=LINE('Line',#357,#359) ;
#367=LINE('Line',#364,#366) ;
#388=LINE('Line',#385,#387) ;
#395=LINE('Line',#392,#394) ;
#402=LINE('Line',#399,#401) ;
#409=LINE('Line',#406,#408) ;
#416=LINE('Line',#413,#415) ;
#430=LINE('Line',#427,#429) ;
#435=LINE('Line',#432,#434) ;
#476=LINE('Line',#473,#475) ;
#483=LINE('Line',#480,#482) ;
#490=LINE('Line',#487,#489) ;
#525=LINE('Line',#522,#524) ;
#534=LINE('Line',#531,#533) ;
#541=LINE('Line',#538,#540) ;
#546=LINE('Line',#543,#545) ;
#560=LINE('Line',#557,#559) ;
#567=LINE('Line',#564,#566) ;
#602=LINE('Line',#599,#601) ;
#633=LINE('Line',#630,#632) ;
#650=LINE('Line',#647,#649) ;
#659=LINE('Line',#656,#658) ;
#666=LINE('Line',#663,#665) ;
#671=LINE('Line',#668,#670) ;
#678=LINE('Line',#675,#677) ;
#685=LINE('Line',#682,#684) ;
#733=LINE('Line',#730,#732) ;
#750=LINE('Line',#747,#749) ;
#769=LINE('Line',#766,#768) ;
#776=LINE('Line',#773,#775) ;
#811=LINE('Line',#808,#810) ;
#820=LINE('Line',#817,#819) ;
#827=LINE('Line',#824,#826) ;
#832=LINE('Line',#829,#831) ;
#846=LINE('Line',#843,#845) ;
#853=LINE('Line',#850,#852) ;
#888=LINE('Line',#885,#887) ;
#897=LINE('Line',#894,#896) ;
#904=LINE('Line',#901,#903) ;
#909=LINE('Line',#906,#908) ;
#914=LINE('Line',#911,#913) ;
#919=LINE('Line',#916,#918) ;
#926=LINE('Line',#923,#925) ;
#933=LINE('Line',#930,#932) ;
#940=LINE('Line',#937,#939) ;
#967=LINE('Line',#964,#966) ;
#972=LINE('Line',#969,#971) ;
#996=LINE('Line',#993,#995) ;
#1013=LINE('Line',#1010,#1012) ;
#1030=LINE('Line',#1027,#1029) ;
#1035=LINE('Line',#1032,#1034) ;
#1059=LINE('Line',#1056,#1058) ;
#1075=LINE('Line',#1072,#1074) ;
#1089=LINE('Line',#1086,#1088) ;
#1096=LINE('Line',#1093,#1095) ;
#1103=LINE('Line',#1100,#1102) ;
#1110=LINE('Line',#1107,#1109) ;
#1131=LINE('Line',#1128,#1130) ;
#1138=LINE('Line',#1135,#1137) ;
#1145=LINE('Line',#1142,#1144) ;
#1157=LINE('Line',#1154,#1156) ;
#1162=LINE('Line',#1159,#1161) ;
#1197=LINE('Line',#1194,#1196) ;
#1211=LINE('Line',#1208,#1210) ;
#1223=LINE('Line',#1220,#1222) ;
#1230=LINE('Line',#1227,#1229) ;
#1247=LINE('Line',#1244,#1246) ;
#1266=LINE('Line',#1263,#1265) ;
#1280=LINE('Line',#1277,#1279) ;
#1297=LINE('Line',#1294,#1296) ;
#1314=LINE('Line',#1311,#1313) ;
#1326=LINE('Line',#1323,#1325) ;
#1331=LINE('Line',#1328,#1330) ;
#1348=LINE('Line',#1345,#1347) ;
#1367=LINE('Line',#1364,#1366) ;
#1372=LINE('Line',#1369,#1371) ;
#1397=LINE('Line',#1394,#1396) ;
#1449=LINE('Line',#1446,#1448) ;
#1454=LINE('Line',#1451,#1453) ;
#2=MECHANICAL_CONTEXT(' ',#1,'mechanical') ;
#24=PERSONAL_ADDRESS(' ',' ',' ',' ',' ',' ',' ',' ',' ',' ',' ',' ',(#22),' ') ;
#56=PLANE('',#55) ;
#225=PLANE('',#224) ;
#256=PLANE('',#255) ;
#472=PLANE('',#471) ;
#521=PLANE('',#520) ;
#646=PLANE('',#645) ;
#807=PLANE('',#806) ;
#884=PLANE('',#883) ;
#992=PLANE('',#991) ;
#1009=PLANE('',#1008) ;
#1055=PLANE('',#1054) ;
#1127=PLANE('',#1126) ;
#1243=PLANE('',#1242) ;
#1262=PLANE('',#1261) ;
#1310=PLANE('',#1309) ;
#1344=PLANE('',#1343) ;
#1363=PLANE('',#1362) ;
#43=PLANE_ANGLE_MEASURE_WITH_UNIT(PLANE_ANGLE_MEASURE(0.0174532925199),#42) ;
#7=PRODUCT_CATEGORY('part',$) ;
#9=PRODUCT_CATEGORY_RELATIONSHIP(' ',' ',#7,#8) ;
#6=PRODUCT_DEFINITION_FORMATION_WITH_SPECIFIED_SOURCE('',' ',#5,.NOT_KNOWN.) ;
#8=PRODUCT_RELATED_PRODUCT_CATEGORY('detail',$,(#5)) ;
#50=SHAPE_DEFINITION_REPRESENTATION(#40,#49) ;
#62=VERTEX_POINT('',#61) ;
#64=VERTEX_POINT('',#63) ;
#71=VERTEX_POINT('',#70) ;
#78=VERTEX_POINT('',#77) ;
#85=VERTEX_POINT('',#84) ;
#92=VERTEX_POINT('',#91) ;
#112=VERTEX_POINT('',#111) ;
#114=VERTEX_POINT('',#113) ;
#136=VERTEX_POINT('',#135) ;
#138=VERTEX_POINT('',#137) ;
#145=VERTEX_POINT('',#144) ;
#152=VERTEX_POINT('',#151) ;
#188=VERTEX_POINT('',#187) ;
#190=VERTEX_POINT('',#189) ;
#231=VERTEX_POINT('',#230) ;
#233=VERTEX_POINT('',#232) ;
#262=VERTEX_POINT('',#261) ;
#264=VERTEX_POINT('',#263) ;
#271=VERTEX_POINT('',#270) ;
#278=VERTEX_POINT('',#277) ;
#285=VERTEX_POINT('',#284) ;
#292=VERTEX_POINT('',#291) ;
#299=VERTEX_POINT('',#298) ;
#306=VERTEX_POINT('',#305) ;
#313=VERTEX_POINT('',#312) ;
#320=VERTEX_POINT('',#319) ;
#327=VERTEX_POINT('',#326) ;
#334=VERTEX_POINT('',#333) ;
#341=VERTEX_POINT('',#340) ;
#348=VERTEX_POINT('',#347) ;
#355=VERTEX_POINT('',#354) ;
#362=VERTEX_POINT('',#361) ;
#369=VERTEX_POINT('',#368) ;
#376=VERTEX_POINT('',#375) ;
#383=VERTEX_POINT('',#382) ;
#390=VERTEX_POINT('',#389) ;
#397=VERTEX_POINT('',#396) ;
#404=VERTEX_POINT('',#403) ;
#411=VERTEX_POINT('',#410) ;
#418=VERTEX_POINT('',#417) ;
#425=VERTEX_POINT('',#424) ;
#478=VERTEX_POINT('',#477) ;
#485=VERTEX_POINT('',#484) ;
#503=VERTEX_POINT('',#502) ;
#505=VERTEX_POINT('',#504) ;
#527=VERTEX_POINT('',#526) ;
#529=VERTEX_POINT('',#528) ;
#536=VERTEX_POINT('',#535) ;
#562=VERTEX_POINT('',#561) ;
#580=VERTEX_POINT('',#579) ;
#582=VERTEX_POINT('',#581) ;
#604=VERTEX_POINT('',#603) ;
#628=VERTEX_POINT('',#627) ;
#652=VERTEX_POINT('',#651) ;
#654=VERTEX_POINT('',#653) ;
#661=VERTEX_POINT('',#660) ;
#673=VERTEX_POINT('',#672) ;
#680=VERTEX_POINT('',#679) ;
#704=VERTEX_POINT('',#703) ;
#706=VERTEX_POINT('',#705) ;
#728=VERTEX_POINT('',#727) ;
#752=VERTEX_POINT('',#751) ;
#771=VERTEX_POINT('',#770) ;
#789=VERTEX_POINT('',#788) ;
#791=VERTEX_POINT('',#790) ;
#813=VERTEX_POINT('',#812) ;
#815=VERTEX_POINT('',#814) ;
#822=VERTEX_POINT('',#821) ;
#848=VERTEX_POINT('',#847) ;
#866=VERTEX_POINT('',#865) ;
#868=VERTEX_POINT('',#867) ;
#890=VERTEX_POINT('',#889) ;
#892=VERTEX_POINT('',#891) ;
#899=VERTEX_POINT('',#898) ;
#921=VERTEX_POINT('',#920) ;
#928=VERTEX_POINT('',#927) ;
#935=VERTEX_POINT('',#934) ;
#1061=VERTEX_POINT('',#1060) ;
#1063=VERTEX_POINT('',#1062) ;
#1070=VERTEX_POINT('',#1069) ;
#1077=VERTEX_POINT('',#1076) ;
#1084=VERTEX_POINT('',#1083) ;
#1091=VERTEX_POINT('',#1090) ;
#1098=VERTEX_POINT('',#1097) ;
#1105=VERTEX_POINT('',#1104) ;
#1133=VERTEX_POINT('',#1132) ;
#1140=VERTEX_POINT('',#1139) ;
#1199=VERTEX_POINT('',#1198) ;
#1206=VERTEX_POINT('',#1205) ;
#1225=VERTEX_POINT('',#1224) ;
#41=(LENGTH_UNIT()NAMED_UNIT(*)SI_UNIT(.MILLI.,.METRE.)) ;
#42=(NAMED_UNIT(*)PLANE_ANGLE_UNIT()SI_UNIT($,.RADIAN.)) ;
#44=(NAMED_UNIT(*)SI_UNIT($,.STERADIAN.)SOLID_ANGLE_UNIT()) ;
#46=(GEOMETRIC_REPRESENTATION_CONTEXT(3)GLOBAL_UNCERTAINTY_ASSIGNED_CONTEXT((#45))GLOBAL_UNIT_ASSIGNED_CONTEXT((#41,#42,#44))REPRESENTATION_CONTEXT(' ',' ')) ;
ENDSEC;
END-ISO-10303-21;
