(kicad_pcb (version 20171130) (host pcbnew 5.1.5)

  (general
    (thickness 1.6)
    (drawings 5)
    (tracks 12)
    (zones 0)
    (modules 7)
    (nets 7)
  )

  (page A4)
  (layers
    (0 F.Cu signal)
    (31 B.Cu signal)
    (32 B.Adhes user)
    (33 F.Adhes user)
    (34 B.Paste user)
    (35 F.Paste user)
    (36 B.SilkS user)
    (37 F.SilkS user)
    (38 B.Mask user)
    (39 F.Mask user)
    (40 Dwgs.User user)
    (41 Cmts.User user)
    (42 Eco1.User user)
    (43 Eco2.User user)
    (44 Edge.Cuts user)
    (45 Margin user)
    (46 B.CrtYd user)
    (47 F.CrtYd user)
    (48 B.Fab user)
    (49 F.Fab user hide)
  )

  (setup
    (last_trace_width 0.25)
    (user_trace_width 0.254)
    (user_trace_width 0.381)
    (user_trace_width 0.508)
    (user_trace_width 0.762)
    (user_trace_width 1.27)
    (user_trace_width 1.905)
    (user_trace_width 2.54)
    (user_trace_width 3.81)
    (trace_clearance 0.2)
    (zone_clearance 0.508)
    (zone_45_only no)
    (trace_min 0.2)
    (via_size 0.8)
    (via_drill 0.4)
    (via_min_size 0.4)
    (via_min_drill 0.3)
    (uvia_size 0.3)
    (uvia_drill 0.1)
    (uvias_allowed no)
    (uvia_min_size 0.2)
    (uvia_min_drill 0.1)
    (edge_width 0.15)
    (segment_width 0.2)
    (pcb_text_width 0.3)
    (pcb_text_size 1.5 1.5)
    (mod_edge_width 0.15)
    (mod_text_size 1 1)
    (mod_text_width 0.15)
    (pad_size 1.524 1.524)
    (pad_drill 0.762)
    (pad_to_mask_clearance 0.051)
    (solder_mask_min_width 0.25)
    (aux_axis_origin 0 0)
    (visible_elements FFFFFF7F)
    (pcbplotparams
      (layerselection 0x010fc_ffffffff)
      (usegerberextensions false)
      (usegerberattributes false)
      (usegerberadvancedattributes false)
      (creategerberjobfile false)
      (excludeedgelayer true)
      (linewidth 0.100000)
      (plotframeref false)
      (viasonmask false)
      (mode 1)
      (useauxorigin false)
      (hpglpennumber 1)
      (hpglpenspeed 20)
      (hpglpendiameter 15.000000)
      (psnegative false)
      (psa4output false)
      (plotreference true)
      (plotvalue true)
      (plotinvisibletext false)
      (padsonsilk false)
      (subtractmaskfromsilk false)
      (outputformat 1)
      (mirror false)
      (drillshape 1)
      (scaleselection 1)
      (outputdirectory ""))
  )

  (net 0 "")
  (net 1 GND)
  (net 2 VCC)
  (net 3 /VIN1)
  (net 4 /VIN2)
  (net 5 /VOUT2)
  (net 6 /VOUT1)

  (net_class Default "Dies ist die voreingestellte Netzklasse."
    (clearance 0.2)
    (trace_width 0.25)
    (via_dia 0.8)
    (via_drill 0.4)
    (uvia_dia 0.3)
    (uvia_drill 0.1)
    (add_net /VIN1)
    (add_net /VIN2)
    (add_net /VOUT1)
    (add_net /VOUT2)
    (add_net GND)
    (add_net VCC)
  )

  (module Connector_PinHeader_2.54mm:PinHeader_1x06_P2.54mm_Vertical (layer F.Cu) (tedit 59FED5CC) (tstamp 5C9D4882)
    (at 176.911 75.438)
    (descr "Through hole straight pin header, 1x06, 2.54mm pitch, single row")
    (tags "Through hole pin header THT 1x06 2.54mm single row")
    (path /5C85BDB9)
    (fp_text reference J7 (at -2.794 -1.27) (layer F.SilkS)
      (effects (font (size 1 1) (thickness 0.15)))
    )
    (fp_text value Conn_01x06_Male (at 0 15.03) (layer F.Fab)
      (effects (font (size 1 1) (thickness 0.15)))
    )
    (fp_line (start -0.635 -1.27) (end 1.27 -1.27) (layer F.Fab) (width 0.1))
    (fp_line (start 1.27 -1.27) (end 1.27 13.97) (layer F.Fab) (width 0.1))
    (fp_line (start 1.27 13.97) (end -1.27 13.97) (layer F.Fab) (width 0.1))
    (fp_line (start -1.27 13.97) (end -1.27 -0.635) (layer F.Fab) (width 0.1))
    (fp_line (start -1.27 -0.635) (end -0.635 -1.27) (layer F.Fab) (width 0.1))
    (fp_line (start -1.33 14.03) (end 1.33 14.03) (layer F.SilkS) (width 0.12))
    (fp_line (start -1.33 1.27) (end -1.33 14.03) (layer F.SilkS) (width 0.12))
    (fp_line (start 1.33 1.27) (end 1.33 14.03) (layer F.SilkS) (width 0.12))
    (fp_line (start -1.33 1.27) (end 1.33 1.27) (layer F.SilkS) (width 0.12))
    (fp_line (start -1.33 0) (end -1.33 -1.33) (layer F.SilkS) (width 0.12))
    (fp_line (start -1.33 -1.33) (end 0 -1.33) (layer F.SilkS) (width 0.12))
    (fp_line (start -1.8 -1.8) (end -1.8 14.5) (layer F.CrtYd) (width 0.05))
    (fp_line (start -1.8 14.5) (end 1.8 14.5) (layer F.CrtYd) (width 0.05))
    (fp_line (start 1.8 14.5) (end 1.8 -1.8) (layer F.CrtYd) (width 0.05))
    (fp_line (start 1.8 -1.8) (end -1.8 -1.8) (layer F.CrtYd) (width 0.05))
    (fp_text user %R (at 0 6.35 90) (layer F.Fab)
      (effects (font (size 1 1) (thickness 0.15)))
    )
    (pad 1 thru_hole rect (at 0 0) (size 1.7 1.7) (drill 1) (layers *.Cu *.Mask)
      (net 1 GND))
    (pad 2 thru_hole oval (at 0 2.54) (size 1.7 1.7) (drill 1) (layers *.Cu *.Mask)
      (net 1 GND))
    (pad 3 thru_hole oval (at 0 5.08) (size 1.7 1.7) (drill 1) (layers *.Cu *.Mask)
      (net 1 GND))
    (pad 4 thru_hole oval (at 0 7.62) (size 1.7 1.7) (drill 1) (layers *.Cu *.Mask)
      (net 6 /VOUT1))
    (pad 5 thru_hole oval (at 0 10.16) (size 1.7 1.7) (drill 1) (layers *.Cu *.Mask)
      (net 6 /VOUT1))
    (pad 6 thru_hole oval (at 0 12.7) (size 1.7 1.7) (drill 1) (layers *.Cu *.Mask)
      (net 6 /VOUT1))
    (model ${KISYS3DMOD}/Connector_PinHeader_2.54mm.3dshapes/PinHeader_1x06_P2.54mm_Vertical.wrl
      (at (xyz 0 0 0))
      (scale (xyz 1 1 1))
      (rotate (xyz 0 0 0))
    )
  )

  (module Connector_PinHeader_2.54mm:PinHeader_1x06_P2.54mm_Vertical (layer F.Cu) (tedit 59FED5CC) (tstamp 5C9ACAA1)
    (at 130.683 75.438)
    (descr "Through hole straight pin header, 1x06, 2.54mm pitch, single row")
    (tags "Through hole pin header THT 1x06 2.54mm single row")
    (path /5C847F99)
    (fp_text reference J5 (at 2.794 4.064) (layer F.SilkS)
      (effects (font (size 1 1) (thickness 0.15)))
    )
    (fp_text value Conn_01x06_Male (at 0 15.03) (layer F.Fab)
      (effects (font (size 1 1) (thickness 0.15)))
    )
    (fp_text user %R (at 0 6.35 90) (layer F.Fab)
      (effects (font (size 1 1) (thickness 0.15)))
    )
    (fp_line (start 1.8 -1.8) (end -1.8 -1.8) (layer F.CrtYd) (width 0.05))
    (fp_line (start 1.8 14.5) (end 1.8 -1.8) (layer F.CrtYd) (width 0.05))
    (fp_line (start -1.8 14.5) (end 1.8 14.5) (layer F.CrtYd) (width 0.05))
    (fp_line (start -1.8 -1.8) (end -1.8 14.5) (layer F.CrtYd) (width 0.05))
    (fp_line (start -1.33 -1.33) (end 0 -1.33) (layer F.SilkS) (width 0.12))
    (fp_line (start -1.33 0) (end -1.33 -1.33) (layer F.SilkS) (width 0.12))
    (fp_line (start -1.33 1.27) (end 1.33 1.27) (layer F.SilkS) (width 0.12))
    (fp_line (start 1.33 1.27) (end 1.33 14.03) (layer F.SilkS) (width 0.12))
    (fp_line (start -1.33 1.27) (end -1.33 14.03) (layer F.SilkS) (width 0.12))
    (fp_line (start -1.33 14.03) (end 1.33 14.03) (layer F.SilkS) (width 0.12))
    (fp_line (start -1.27 -0.635) (end -0.635 -1.27) (layer F.Fab) (width 0.1))
    (fp_line (start -1.27 13.97) (end -1.27 -0.635) (layer F.Fab) (width 0.1))
    (fp_line (start 1.27 13.97) (end -1.27 13.97) (layer F.Fab) (width 0.1))
    (fp_line (start 1.27 -1.27) (end 1.27 13.97) (layer F.Fab) (width 0.1))
    (fp_line (start -0.635 -1.27) (end 1.27 -1.27) (layer F.Fab) (width 0.1))
    (pad 6 thru_hole oval (at 0 12.7) (size 1.7 1.7) (drill 1) (layers *.Cu *.Mask)
      (net 3 /VIN1))
    (pad 5 thru_hole oval (at 0 10.16) (size 1.7 1.7) (drill 1) (layers *.Cu *.Mask)
      (net 3 /VIN1))
    (pad 4 thru_hole oval (at 0 7.62) (size 1.7 1.7) (drill 1) (layers *.Cu *.Mask)
      (net 3 /VIN1))
    (pad 3 thru_hole oval (at 0 5.08) (size 1.7 1.7) (drill 1) (layers *.Cu *.Mask)
      (net 1 GND))
    (pad 2 thru_hole oval (at 0 2.54) (size 1.7 1.7) (drill 1) (layers *.Cu *.Mask)
      (net 1 GND))
    (pad 1 thru_hole rect (at 0 0) (size 1.7 1.7) (drill 1) (layers *.Cu *.Mask)
      (net 1 GND))
    (model ${KISYS3DMOD}/Connector_PinHeader_2.54mm.3dshapes/PinHeader_1x06_P2.54mm_Vertical.wrl
      (at (xyz 0 0 0))
      (scale (xyz 1 1 1))
      (rotate (xyz 0 0 0))
    )
  )

  (module Connector_PinHeader_2.54mm:PinHeader_1x04_P2.54mm_Vertical (layer F.Cu) (tedit 59FED5CC) (tstamp 5C9ACABA)
    (at 153.543 108.966 90)
    (descr "Through hole straight pin header, 1x04, 2.54mm pitch, single row")
    (tags "Through hole pin header THT 1x04 2.54mm single row")
    (path /5C873A24)
    (fp_text reference J6 (at 0 -3.048 180) (layer F.SilkS)
      (effects (font (size 1 1) (thickness 0.15)))
    )
    (fp_text value Conn_01x04_Male (at 0 9.95 90) (layer F.Fab)
      (effects (font (size 1 1) (thickness 0.15)))
    )
    (fp_line (start -0.635 -1.27) (end 1.27 -1.27) (layer F.Fab) (width 0.1))
    (fp_line (start 1.27 -1.27) (end 1.27 8.89) (layer F.Fab) (width 0.1))
    (fp_line (start 1.27 8.89) (end -1.27 8.89) (layer F.Fab) (width 0.1))
    (fp_line (start -1.27 8.89) (end -1.27 -0.635) (layer F.Fab) (width 0.1))
    (fp_line (start -1.27 -0.635) (end -0.635 -1.27) (layer F.Fab) (width 0.1))
    (fp_line (start -1.33 8.95) (end 1.33 8.95) (layer F.SilkS) (width 0.12))
    (fp_line (start -1.33 1.27) (end -1.33 8.95) (layer F.SilkS) (width 0.12))
    (fp_line (start 1.33 1.27) (end 1.33 8.95) (layer F.SilkS) (width 0.12))
    (fp_line (start -1.33 1.27) (end 1.33 1.27) (layer F.SilkS) (width 0.12))
    (fp_line (start -1.33 0) (end -1.33 -1.33) (layer F.SilkS) (width 0.12))
    (fp_line (start -1.33 -1.33) (end 0 -1.33) (layer F.SilkS) (width 0.12))
    (fp_line (start -1.8 -1.8) (end -1.8 9.4) (layer F.CrtYd) (width 0.05))
    (fp_line (start -1.8 9.4) (end 1.8 9.4) (layer F.CrtYd) (width 0.05))
    (fp_line (start 1.8 9.4) (end 1.8 -1.8) (layer F.CrtYd) (width 0.05))
    (fp_line (start 1.8 -1.8) (end -1.8 -1.8) (layer F.CrtYd) (width 0.05))
    (fp_text user %R (at 0 3.81 180) (layer F.Fab)
      (effects (font (size 1 1) (thickness 0.15)))
    )
    (pad 1 thru_hole rect (at 0 0 90) (size 1.7 1.7) (drill 1) (layers *.Cu *.Mask)
      (net 1 GND))
    (pad 2 thru_hole oval (at 0 2.54 90) (size 1.7 1.7) (drill 1) (layers *.Cu *.Mask)
      (net 2 VCC))
    (pad 3 thru_hole oval (at 0 5.08 90) (size 1.7 1.7) (drill 1) (layers *.Cu *.Mask)
      (net 2 VCC))
    (pad 4 thru_hole oval (at 0 7.62 90) (size 1.7 1.7) (drill 1) (layers *.Cu *.Mask)
      (net 5 /VOUT2))
    (model ${KISYS3DMOD}/Connector_PinHeader_2.54mm.3dshapes/PinHeader_1x04_P2.54mm_Vertical.wrl
      (at (xyz 0 0 0))
      (scale (xyz 1 1 1))
      (rotate (xyz 0 0 0))
    )
  )

  (module Connector_PinHeader_2.54mm:PinHeader_1x06_P2.54mm_Vertical (layer F.Cu) (tedit 59FED5CC) (tstamp 5C9ACB03)
    (at 130.683 109.22 180)
    (descr "Through hole straight pin header, 1x06, 2.54mm pitch, single row")
    (tags "Through hole pin header THT 1x06 2.54mm single row")
    (path /5C8EDC6E)
    (fp_text reference J8 (at -3.048 -1.016 180) (layer F.SilkS)
      (effects (font (size 1 1) (thickness 0.15)))
    )
    (fp_text value Conn_01x06_Male (at 0 15.03 180) (layer F.Fab)
      (effects (font (size 1 1) (thickness 0.15)))
    )
    (fp_line (start -0.635 -1.27) (end 1.27 -1.27) (layer F.Fab) (width 0.1))
    (fp_line (start 1.27 -1.27) (end 1.27 13.97) (layer F.Fab) (width 0.1))
    (fp_line (start 1.27 13.97) (end -1.27 13.97) (layer F.Fab) (width 0.1))
    (fp_line (start -1.27 13.97) (end -1.27 -0.635) (layer F.Fab) (width 0.1))
    (fp_line (start -1.27 -0.635) (end -0.635 -1.27) (layer F.Fab) (width 0.1))
    (fp_line (start -1.33 14.03) (end 1.33 14.03) (layer F.SilkS) (width 0.12))
    (fp_line (start -1.33 1.27) (end -1.33 14.03) (layer F.SilkS) (width 0.12))
    (fp_line (start 1.33 1.27) (end 1.33 14.03) (layer F.SilkS) (width 0.12))
    (fp_line (start -1.33 1.27) (end 1.33 1.27) (layer F.SilkS) (width 0.12))
    (fp_line (start -1.33 0) (end -1.33 -1.33) (layer F.SilkS) (width 0.12))
    (fp_line (start -1.33 -1.33) (end 0 -1.33) (layer F.SilkS) (width 0.12))
    (fp_line (start -1.8 -1.8) (end -1.8 14.5) (layer F.CrtYd) (width 0.05))
    (fp_line (start -1.8 14.5) (end 1.8 14.5) (layer F.CrtYd) (width 0.05))
    (fp_line (start 1.8 14.5) (end 1.8 -1.8) (layer F.CrtYd) (width 0.05))
    (fp_line (start 1.8 -1.8) (end -1.8 -1.8) (layer F.CrtYd) (width 0.05))
    (fp_text user %R (at 0 6.35 270) (layer F.Fab)
      (effects (font (size 1 1) (thickness 0.15)))
    )
    (pad 1 thru_hole rect (at 0 0 180) (size 1.7 1.7) (drill 1) (layers *.Cu *.Mask)
      (net 1 GND))
    (pad 2 thru_hole oval (at 0 2.54 180) (size 1.7 1.7) (drill 1) (layers *.Cu *.Mask)
      (net 1 GND))
    (pad 3 thru_hole oval (at 0 5.08 180) (size 1.7 1.7) (drill 1) (layers *.Cu *.Mask)
      (net 1 GND))
    (pad 4 thru_hole oval (at 0 7.62 180) (size 1.7 1.7) (drill 1) (layers *.Cu *.Mask)
      (net 4 /VIN2))
    (pad 5 thru_hole oval (at 0 10.16 180) (size 1.7 1.7) (drill 1) (layers *.Cu *.Mask)
      (net 4 /VIN2))
    (pad 6 thru_hole oval (at 0 12.7 180) (size 1.7 1.7) (drill 1) (layers *.Cu *.Mask)
      (net 4 /VIN2))
    (model ${KISYS3DMOD}/Connector_PinHeader_2.54mm.3dshapes/PinHeader_1x06_P2.54mm_Vertical.wrl
      (at (xyz 0 0 0))
      (scale (xyz 1 1 1))
      (rotate (xyz 0 0 0))
    )
  )

  (module Connector_PinHeader_2.54mm:PinHeader_1x02_P2.54mm_Vertical (layer F.Cu) (tedit 59FED5CC) (tstamp 5C9ACB19)
    (at 133.223 92.202 270)
    (descr "Through hole straight pin header, 1x02, 2.54mm pitch, single row")
    (tags "Through hole pin header THT 1x02 2.54mm single row")
    (path /5C8F3418)
    (fp_text reference J9 (at -2.794 -0.762) (layer F.SilkS)
      (effects (font (size 1 1) (thickness 0.15)))
    )
    (fp_text value Conn_01x02_Male (at 0 4.87 270) (layer F.Fab)
      (effects (font (size 1 1) (thickness 0.15)))
    )
    (fp_line (start -0.635 -1.27) (end 1.27 -1.27) (layer F.Fab) (width 0.1))
    (fp_line (start 1.27 -1.27) (end 1.27 3.81) (layer F.Fab) (width 0.1))
    (fp_line (start 1.27 3.81) (end -1.27 3.81) (layer F.Fab) (width 0.1))
    (fp_line (start -1.27 3.81) (end -1.27 -0.635) (layer F.Fab) (width 0.1))
    (fp_line (start -1.27 -0.635) (end -0.635 -1.27) (layer F.Fab) (width 0.1))
    (fp_line (start -1.33 3.87) (end 1.33 3.87) (layer F.SilkS) (width 0.12))
    (fp_line (start -1.33 1.27) (end -1.33 3.87) (layer F.SilkS) (width 0.12))
    (fp_line (start 1.33 1.27) (end 1.33 3.87) (layer F.SilkS) (width 0.12))
    (fp_line (start -1.33 1.27) (end 1.33 1.27) (layer F.SilkS) (width 0.12))
    (fp_line (start -1.33 0) (end -1.33 -1.33) (layer F.SilkS) (width 0.12))
    (fp_line (start -1.33 -1.33) (end 0 -1.33) (layer F.SilkS) (width 0.12))
    (fp_line (start -1.8 -1.8) (end -1.8 4.35) (layer F.CrtYd) (width 0.05))
    (fp_line (start -1.8 4.35) (end 1.8 4.35) (layer F.CrtYd) (width 0.05))
    (fp_line (start 1.8 4.35) (end 1.8 -1.8) (layer F.CrtYd) (width 0.05))
    (fp_line (start 1.8 -1.8) (end -1.8 -1.8) (layer F.CrtYd) (width 0.05))
    (fp_text user %R (at 0 1.27) (layer F.Fab)
      (effects (font (size 1 1) (thickness 0.15)))
    )
    (pad 1 thru_hole rect (at 0 0 270) (size 1.7 1.7) (drill 1) (layers *.Cu *.Mask)
      (net 4 /VIN2))
    (pad 2 thru_hole oval (at 0 2.54 270) (size 1.7 1.7) (drill 1) (layers *.Cu *.Mask)
      (net 3 /VIN1))
    (model ${KISYS3DMOD}/Connector_PinHeader_2.54mm.3dshapes/PinHeader_1x02_P2.54mm_Vertical.wrl
      (at (xyz 0 0 0))
      (scale (xyz 1 1 1))
      (rotate (xyz 0 0 0))
    )
  )

  (module Connector_PinHeader_2.54mm:PinHeader_1x06_P2.54mm_Vertical (layer F.Cu) (tedit 59FED5CC) (tstamp 5C9D466D)
    (at 176.911 109.22 180)
    (descr "Through hole straight pin header, 1x06, 2.54mm pitch, single row")
    (tags "Through hole pin header THT 1x06 2.54mm single row")
    (path /5C912241)
    (fp_text reference J10 (at 3.302 -1.016 180) (layer F.SilkS)
      (effects (font (size 1 1) (thickness 0.15)))
    )
    (fp_text value Conn_01x06_Male (at 0 15.03 180) (layer F.Fab)
      (effects (font (size 1 1) (thickness 0.15)))
    )
    (fp_line (start -0.635 -1.27) (end 1.27 -1.27) (layer F.Fab) (width 0.1))
    (fp_line (start 1.27 -1.27) (end 1.27 13.97) (layer F.Fab) (width 0.1))
    (fp_line (start 1.27 13.97) (end -1.27 13.97) (layer F.Fab) (width 0.1))
    (fp_line (start -1.27 13.97) (end -1.27 -0.635) (layer F.Fab) (width 0.1))
    (fp_line (start -1.27 -0.635) (end -0.635 -1.27) (layer F.Fab) (width 0.1))
    (fp_line (start -1.33 14.03) (end 1.33 14.03) (layer F.SilkS) (width 0.12))
    (fp_line (start -1.33 1.27) (end -1.33 14.03) (layer F.SilkS) (width 0.12))
    (fp_line (start 1.33 1.27) (end 1.33 14.03) (layer F.SilkS) (width 0.12))
    (fp_line (start -1.33 1.27) (end 1.33 1.27) (layer F.SilkS) (width 0.12))
    (fp_line (start -1.33 0) (end -1.33 -1.33) (layer F.SilkS) (width 0.12))
    (fp_line (start -1.33 -1.33) (end 0 -1.33) (layer F.SilkS) (width 0.12))
    (fp_line (start -1.8 -1.8) (end -1.8 14.5) (layer F.CrtYd) (width 0.05))
    (fp_line (start -1.8 14.5) (end 1.8 14.5) (layer F.CrtYd) (width 0.05))
    (fp_line (start 1.8 14.5) (end 1.8 -1.8) (layer F.CrtYd) (width 0.05))
    (fp_line (start 1.8 -1.8) (end -1.8 -1.8) (layer F.CrtYd) (width 0.05))
    (fp_text user %R (at 0 6.35 270) (layer F.Fab)
      (effects (font (size 1 1) (thickness 0.15)))
    )
    (pad 1 thru_hole rect (at 0 0 180) (size 1.7 1.7) (drill 1) (layers *.Cu *.Mask)
      (net 1 GND))
    (pad 2 thru_hole oval (at 0 2.54 180) (size 1.7 1.7) (drill 1) (layers *.Cu *.Mask)
      (net 1 GND))
    (pad 3 thru_hole oval (at 0 5.08 180) (size 1.7 1.7) (drill 1) (layers *.Cu *.Mask)
      (net 1 GND))
    (pad 4 thru_hole oval (at 0 7.62 180) (size 1.7 1.7) (drill 1) (layers *.Cu *.Mask)
      (net 5 /VOUT2))
    (pad 5 thru_hole oval (at 0 10.16 180) (size 1.7 1.7) (drill 1) (layers *.Cu *.Mask)
      (net 5 /VOUT2))
    (pad 6 thru_hole oval (at 0 12.7 180) (size 1.7 1.7) (drill 1) (layers *.Cu *.Mask)
      (net 5 /VOUT2))
    (model ${KISYS3DMOD}/Connector_PinHeader_2.54mm.3dshapes/PinHeader_1x06_P2.54mm_Vertical.wrl
      (at (xyz 0 0 0))
      (scale (xyz 1 1 1))
      (rotate (xyz 0 0 0))
    )
  )

  (module Connector_PinHeader_2.54mm:PinHeader_1x02_P2.54mm_Vertical (layer F.Cu) (tedit 59FED5CC) (tstamp 5C9D4683)
    (at 174.371 92.202 90)
    (descr "Through hole straight pin header, 1x02, 2.54mm pitch, single row")
    (tags "Through hole pin header THT 1x02 2.54mm single row")
    (path /5C918985)
    (fp_text reference J11 (at 3.048 -2.54 180) (layer F.SilkS)
      (effects (font (size 1 1) (thickness 0.15)))
    )
    (fp_text value Conn_01x02_Male (at 0 4.87 90) (layer F.Fab)
      (effects (font (size 1 1) (thickness 0.15)))
    )
    (fp_line (start -0.635 -1.27) (end 1.27 -1.27) (layer F.Fab) (width 0.1))
    (fp_line (start 1.27 -1.27) (end 1.27 3.81) (layer F.Fab) (width 0.1))
    (fp_line (start 1.27 3.81) (end -1.27 3.81) (layer F.Fab) (width 0.1))
    (fp_line (start -1.27 3.81) (end -1.27 -0.635) (layer F.Fab) (width 0.1))
    (fp_line (start -1.27 -0.635) (end -0.635 -1.27) (layer F.Fab) (width 0.1))
    (fp_line (start -1.33 3.87) (end 1.33 3.87) (layer F.SilkS) (width 0.12))
    (fp_line (start -1.33 1.27) (end -1.33 3.87) (layer F.SilkS) (width 0.12))
    (fp_line (start 1.33 1.27) (end 1.33 3.87) (layer F.SilkS) (width 0.12))
    (fp_line (start -1.33 1.27) (end 1.33 1.27) (layer F.SilkS) (width 0.12))
    (fp_line (start -1.33 0) (end -1.33 -1.33) (layer F.SilkS) (width 0.12))
    (fp_line (start -1.33 -1.33) (end 0 -1.33) (layer F.SilkS) (width 0.12))
    (fp_line (start -1.8 -1.8) (end -1.8 4.35) (layer F.CrtYd) (width 0.05))
    (fp_line (start -1.8 4.35) (end 1.8 4.35) (layer F.CrtYd) (width 0.05))
    (fp_line (start 1.8 4.35) (end 1.8 -1.8) (layer F.CrtYd) (width 0.05))
    (fp_line (start 1.8 -1.8) (end -1.8 -1.8) (layer F.CrtYd) (width 0.05))
    (fp_text user %R (at 0 1.27 180) (layer F.Fab)
      (effects (font (size 1 1) (thickness 0.15)))
    )
    (pad 1 thru_hole rect (at 0 0 90) (size 1.7 1.7) (drill 1) (layers *.Cu *.Mask)
      (net 5 /VOUT2))
    (pad 2 thru_hole oval (at 0 2.54 90) (size 1.7 1.7) (drill 1) (layers *.Cu *.Mask)
      (net 6 /VOUT1))
    (model ${KISYS3DMOD}/Connector_PinHeader_2.54mm.3dshapes/PinHeader_1x02_P2.54mm_Vertical.wrl
      (at (xyz 0 0 0))
      (scale (xyz 1 1 1))
      (rotate (xyz 0 0 0))
    )
  )

  (gr_line (start 128.651 73.406) (end 128.905 73.406) (layer Edge.Cuts) (width 0.15))
  (gr_line (start 128.651 111.252) (end 128.651 73.406) (layer Edge.Cuts) (width 0.15))
  (gr_line (start 178.943 111.252) (end 128.651 111.252) (layer Edge.Cuts) (width 0.15))
  (gr_line (start 178.943 73.406) (end 178.943 111.252) (layer Edge.Cuts) (width 0.15))
  (gr_line (start 128.905 73.406) (end 178.943 73.406) (layer Edge.Cuts) (width 0.15))

  (segment (start 156.083 108.966) (end 158.623 108.966) (width 1.27) (layer B.Cu) (net 2))
  (segment (start 130.683 92.202) (end 130.683 88.138) (width 1.27) (layer F.Cu) (net 3))
  (segment (start 130.683 83.058) (end 130.683 88.138) (width 1.27) (layer F.Cu) (net 3))
  (segment (start 133.223 93.98) (end 130.683 96.52) (width 1.27) (layer F.Cu) (net 4))
  (segment (start 133.223 92.202) (end 133.223 93.98) (width 1.27) (layer F.Cu) (net 4))
  (segment (start 130.683 96.52) (end 130.683 99.06) (width 1.27) (layer F.Cu) (net 4))
  (segment (start 130.683 101.6) (end 130.683 99.06) (width 1.27) (layer F.Cu) (net 4))
  (segment (start 174.371 93.98) (end 176.911 96.52) (width 1.27) (layer F.Cu) (net 5))
  (segment (start 174.371 92.202) (end 174.371 93.98) (width 1.27) (layer F.Cu) (net 5))
  (segment (start 176.911 96.52) (end 176.911 101.6) (width 1.27) (layer F.Cu) (net 5))
  (segment (start 176.911 83.058) (end 176.911 88.138) (width 1.27) (layer F.Cu) (net 6))
  (segment (start 176.911 92.202) (end 176.911 88.138) (width 1.27) (layer F.Cu) (net 6))

  (zone (net 1) (net_name GND) (layer F.Cu) (tstamp 0) (hatch edge 0.508)
    (connect_pads (clearance 0.508))
    (min_thickness 0.254)
    (fill yes (arc_segments 16) (thermal_gap 0.508) (thermal_bridge_width 0.508))
    (polygon
      (pts
        (xy 126.365 70.866) (xy 182.245 70.866) (xy 182.245 116.586) (xy 126.365 116.586)
      )
    )
    (filled_polygon
      (pts
        (xy 175.609815 74.136815) (xy 175.530463 74.233506) (xy 175.471498 74.34382) (xy 175.435188 74.463518) (xy 175.422928 74.588)
        (xy 175.426 75.15225) (xy 175.58475 75.311) (xy 176.784 75.311) (xy 176.784 75.291) (xy 177.038 75.291)
        (xy 177.038 75.311) (xy 177.058 75.311) (xy 177.058 75.565) (xy 177.038 75.565) (xy 177.038 77.851)
        (xy 177.058 77.851) (xy 177.058 78.105) (xy 177.038 78.105) (xy 177.038 80.391) (xy 177.058 80.391)
        (xy 177.058 80.645) (xy 177.038 80.645) (xy 177.038 80.665) (xy 176.784 80.665) (xy 176.784 80.645)
        (xy 175.590845 80.645) (xy 175.469524 80.87489) (xy 175.514175 81.022099) (xy 175.639359 81.28492) (xy 175.813412 81.518269)
        (xy 176.029645 81.713178) (xy 176.146534 81.782805) (xy 175.964368 81.904525) (xy 175.757525 82.111368) (xy 175.59501 82.354589)
        (xy 175.483068 82.624842) (xy 175.426 82.91174) (xy 175.426 83.20426) (xy 175.483068 83.491158) (xy 175.59501 83.761411)
        (xy 175.641 83.83024) (xy 175.641 84.82576) (xy 175.59501 84.894589) (xy 175.483068 85.164842) (xy 175.426 85.45174)
        (xy 175.426 85.74426) (xy 175.483068 86.031158) (xy 175.59501 86.301411) (xy 175.641001 86.370241) (xy 175.641001 87.365759)
        (xy 175.59501 87.434589) (xy 175.483068 87.704842) (xy 175.426 87.99174) (xy 175.426 88.28426) (xy 175.483068 88.571158)
        (xy 175.59501 88.841411) (xy 175.641001 88.910241) (xy 175.641 90.875222) (xy 175.575494 90.821463) (xy 175.46518 90.762498)
        (xy 175.345482 90.726188) (xy 175.221 90.713928) (xy 173.521 90.713928) (xy 173.396518 90.726188) (xy 173.27682 90.762498)
        (xy 173.166506 90.821463) (xy 173.069815 90.900815) (xy 172.990463 90.997506) (xy 172.931498 91.10782) (xy 172.895188 91.227518)
        (xy 172.882928 91.352) (xy 172.882928 93.052) (xy 172.895188 93.176482) (xy 172.931498 93.29618) (xy 172.990463 93.406494)
        (xy 173.069815 93.503185) (xy 173.101 93.528778) (xy 173.101 93.917627) (xy 173.094857 93.98) (xy 173.101 94.042373)
        (xy 173.101 94.04238) (xy 173.108659 94.120138) (xy 173.119377 94.228963) (xy 173.133627 94.275937) (xy 173.191998 94.468359)
        (xy 173.309926 94.688988) (xy 173.468631 94.88237) (xy 173.517086 94.922136) (xy 175.466918 96.871969) (xy 175.483068 96.953158)
        (xy 175.59501 97.223411) (xy 175.641 97.29224) (xy 175.641 98.28776) (xy 175.59501 98.356589) (xy 175.483068 98.626842)
        (xy 175.426 98.91374) (xy 175.426 99.20626) (xy 175.483068 99.493158) (xy 175.59501 99.763411) (xy 175.641001 99.832241)
        (xy 175.641001 100.827759) (xy 175.59501 100.896589) (xy 175.483068 101.166842) (xy 175.426 101.45374) (xy 175.426 101.74626)
        (xy 175.483068 102.033158) (xy 175.59501 102.303411) (xy 175.757525 102.546632) (xy 175.964368 102.753475) (xy 176.146534 102.875195)
        (xy 176.029645 102.944822) (xy 175.813412 103.139731) (xy 175.639359 103.37308) (xy 175.514175 103.635901) (xy 175.469524 103.78311)
        (xy 175.590845 104.013) (xy 176.784 104.013) (xy 176.784 103.993) (xy 177.038 103.993) (xy 177.038 104.013)
        (xy 177.058 104.013) (xy 177.058 104.267) (xy 177.038 104.267) (xy 177.038 106.553) (xy 177.058 106.553)
        (xy 177.058 106.807) (xy 177.038 106.807) (xy 177.038 109.093) (xy 177.058 109.093) (xy 177.058 109.347)
        (xy 177.038 109.347) (xy 177.038 109.367) (xy 176.784 109.367) (xy 176.784 109.347) (xy 175.58475 109.347)
        (xy 175.426 109.50575) (xy 175.422928 110.07) (xy 175.435188 110.194482) (xy 175.471498 110.31418) (xy 175.530463 110.424494)
        (xy 175.609815 110.521185) (xy 175.635178 110.542) (xy 131.958822 110.542) (xy 131.984185 110.521185) (xy 132.063537 110.424494)
        (xy 132.122502 110.31418) (xy 132.158812 110.194482) (xy 132.171072 110.07) (xy 132.16969 109.816) (xy 152.054928 109.816)
        (xy 152.067188 109.940482) (xy 152.103498 110.06018) (xy 152.162463 110.170494) (xy 152.241815 110.267185) (xy 152.338506 110.346537)
        (xy 152.44882 110.405502) (xy 152.568518 110.441812) (xy 152.693 110.454072) (xy 153.25725 110.451) (xy 153.416 110.29225)
        (xy 153.416 109.093) (xy 152.21675 109.093) (xy 152.058 109.25175) (xy 152.054928 109.816) (xy 132.16969 109.816)
        (xy 132.168 109.50575) (xy 132.00925 109.347) (xy 130.81 109.347) (xy 130.81 109.367) (xy 130.556 109.367)
        (xy 130.556 109.347) (xy 130.536 109.347) (xy 130.536 109.093) (xy 130.556 109.093) (xy 130.556 106.807)
        (xy 130.81 106.807) (xy 130.81 109.093) (xy 132.00925 109.093) (xy 132.168 108.93425) (xy 132.171072 108.37)
        (xy 132.158812 108.245518) (xy 132.122502 108.12582) (xy 132.117254 108.116) (xy 152.054928 108.116) (xy 152.058 108.68025)
        (xy 152.21675 108.839) (xy 153.416 108.839) (xy 153.416 107.63975) (xy 153.67 107.63975) (xy 153.67 108.839)
        (xy 153.69 108.839) (xy 153.69 109.093) (xy 153.67 109.093) (xy 153.67 110.29225) (xy 153.82875 110.451)
        (xy 154.393 110.454072) (xy 154.517482 110.441812) (xy 154.63718 110.405502) (xy 154.747494 110.346537) (xy 154.844185 110.267185)
        (xy 154.923537 110.170494) (xy 154.982502 110.06018) (xy 155.004513 109.98762) (xy 155.136368 110.119475) (xy 155.379589 110.28199)
        (xy 155.649842 110.393932) (xy 155.93674 110.451) (xy 156.22926 110.451) (xy 156.516158 110.393932) (xy 156.786411 110.28199)
        (xy 157.029632 110.119475) (xy 157.236475 109.912632) (xy 157.353 109.73824) (xy 157.469525 109.912632) (xy 157.676368 110.119475)
        (xy 157.919589 110.28199) (xy 158.189842 110.393932) (xy 158.47674 110.451) (xy 158.76926 110.451) (xy 159.056158 110.393932)
        (xy 159.326411 110.28199) (xy 159.569632 110.119475) (xy 159.776475 109.912632) (xy 159.893 109.73824) (xy 160.009525 109.912632)
        (xy 160.216368 110.119475) (xy 160.459589 110.28199) (xy 160.729842 110.393932) (xy 161.01674 110.451) (xy 161.30926 110.451)
        (xy 161.596158 110.393932) (xy 161.866411 110.28199) (xy 162.109632 110.119475) (xy 162.316475 109.912632) (xy 162.47899 109.669411)
        (xy 162.590932 109.399158) (xy 162.648 109.11226) (xy 162.648 108.81974) (xy 162.590932 108.532842) (xy 162.523481 108.37)
        (xy 175.422928 108.37) (xy 175.426 108.93425) (xy 175.58475 109.093) (xy 176.784 109.093) (xy 176.784 106.807)
        (xy 175.590845 106.807) (xy 175.469524 107.03689) (xy 175.514175 107.184099) (xy 175.639359 107.44692) (xy 175.813412 107.680269)
        (xy 175.897466 107.756034) (xy 175.81682 107.780498) (xy 175.706506 107.839463) (xy 175.609815 107.918815) (xy 175.530463 108.015506)
        (xy 175.471498 108.12582) (xy 175.435188 108.245518) (xy 175.422928 108.37) (xy 162.523481 108.37) (xy 162.47899 108.262589)
        (xy 162.316475 108.019368) (xy 162.109632 107.812525) (xy 161.866411 107.65001) (xy 161.596158 107.538068) (xy 161.30926 107.481)
        (xy 161.01674 107.481) (xy 160.729842 107.538068) (xy 160.459589 107.65001) (xy 160.216368 107.812525) (xy 160.009525 108.019368)
        (xy 159.893 108.19376) (xy 159.776475 108.019368) (xy 159.569632 107.812525) (xy 159.326411 107.65001) (xy 159.056158 107.538068)
        (xy 158.76926 107.481) (xy 158.47674 107.481) (xy 158.189842 107.538068) (xy 157.919589 107.65001) (xy 157.676368 107.812525)
        (xy 157.469525 108.019368) (xy 157.353 108.19376) (xy 157.236475 108.019368) (xy 157.029632 107.812525) (xy 156.786411 107.65001)
        (xy 156.516158 107.538068) (xy 156.22926 107.481) (xy 155.93674 107.481) (xy 155.649842 107.538068) (xy 155.379589 107.65001)
        (xy 155.136368 107.812525) (xy 155.004513 107.94438) (xy 154.982502 107.87182) (xy 154.923537 107.761506) (xy 154.844185 107.664815)
        (xy 154.747494 107.585463) (xy 154.63718 107.526498) (xy 154.517482 107.490188) (xy 154.393 107.477928) (xy 153.82875 107.481)
        (xy 153.67 107.63975) (xy 153.416 107.63975) (xy 153.25725 107.481) (xy 152.693 107.477928) (xy 152.568518 107.490188)
        (xy 152.44882 107.526498) (xy 152.338506 107.585463) (xy 152.241815 107.664815) (xy 152.162463 107.761506) (xy 152.103498 107.87182)
        (xy 152.067188 107.991518) (xy 152.054928 108.116) (xy 132.117254 108.116) (xy 132.063537 108.015506) (xy 131.984185 107.918815)
        (xy 131.887494 107.839463) (xy 131.77718 107.780498) (xy 131.696534 107.756034) (xy 131.780588 107.680269) (xy 131.954641 107.44692)
        (xy 132.079825 107.184099) (xy 132.124476 107.03689) (xy 132.003155 106.807) (xy 130.81 106.807) (xy 130.556 106.807)
        (xy 130.536 106.807) (xy 130.536 106.553) (xy 130.556 106.553) (xy 130.556 104.267) (xy 130.81 104.267)
        (xy 130.81 106.553) (xy 132.003155 106.553) (xy 132.124476 106.32311) (xy 132.079825 106.175901) (xy 131.954641 105.91308)
        (xy 131.780588 105.679731) (xy 131.564355 105.484822) (xy 131.438745 105.41) (xy 131.564355 105.335178) (xy 131.780588 105.140269)
        (xy 131.954641 104.90692) (xy 132.079825 104.644099) (xy 132.124476 104.49689) (xy 175.469524 104.49689) (xy 175.514175 104.644099)
        (xy 175.639359 104.90692) (xy 175.813412 105.140269) (xy 176.029645 105.335178) (xy 176.155255 105.41) (xy 176.029645 105.484822)
        (xy 175.813412 105.679731) (xy 175.639359 105.91308) (xy 175.514175 106.175901) (xy 175.469524 106.32311) (xy 175.590845 106.553)
        (xy 176.784 106.553) (xy 176.784 104.267) (xy 175.590845 104.267) (xy 175.469524 104.49689) (xy 132.124476 104.49689)
        (xy 132.003155 104.267) (xy 130.81 104.267) (xy 130.556 104.267) (xy 130.536 104.267) (xy 130.536 104.013)
        (xy 130.556 104.013) (xy 130.556 103.993) (xy 130.81 103.993) (xy 130.81 104.013) (xy 132.003155 104.013)
        (xy 132.124476 103.78311) (xy 132.079825 103.635901) (xy 131.954641 103.37308) (xy 131.780588 103.139731) (xy 131.564355 102.944822)
        (xy 131.447466 102.875195) (xy 131.629632 102.753475) (xy 131.836475 102.546632) (xy 131.99899 102.303411) (xy 132.110932 102.033158)
        (xy 132.168 101.74626) (xy 132.168 101.45374) (xy 132.110932 101.166842) (xy 131.99899 100.896589) (xy 131.953 100.82776)
        (xy 131.953 99.83224) (xy 131.99899 99.763411) (xy 132.110932 99.493158) (xy 132.168 99.20626) (xy 132.168 98.91374)
        (xy 132.110932 98.626842) (xy 131.99899 98.356589) (xy 131.953 98.28776) (xy 131.953 97.29224) (xy 131.99899 97.223411)
        (xy 132.110932 96.953158) (xy 132.127082 96.871969) (xy 134.076914 94.922137) (xy 134.12537 94.88237) (xy 134.284075 94.688988)
        (xy 134.402003 94.468359) (xy 134.474623 94.228963) (xy 134.493 94.04238) (xy 134.493 94.042374) (xy 134.499143 93.980001)
        (xy 134.493 93.917628) (xy 134.493 93.528778) (xy 134.524185 93.503185) (xy 134.603537 93.406494) (xy 134.623011 93.370061)
        (xy 170.796 93.370061) (xy 170.796 93.573939) (xy 170.835774 93.773898) (xy 170.913795 93.962256) (xy 171.027063 94.131774)
        (xy 171.171226 94.275937) (xy 171.340744 94.389205) (xy 171.529102 94.467226) (xy 171.729061 94.507) (xy 171.932939 94.507)
        (xy 172.132898 94.467226) (xy 172.321256 94.389205) (xy 172.490774 94.275937) (xy 172.634937 94.131774) (xy 172.748205 93.962256)
        (xy 172.826226 93.773898) (xy 172.866 93.573939) (xy 172.866 93.370061) (xy 172.826226 93.170102) (xy 172.748205 92.981744)
        (xy 172.634937 92.812226) (xy 172.490774 92.668063) (xy 172.321256 92.554795) (xy 172.132898 92.476774) (xy 171.932939 92.437)
        (xy 171.729061 92.437) (xy 171.529102 92.476774) (xy 171.340744 92.554795) (xy 171.171226 92.668063) (xy 171.027063 92.812226)
        (xy 170.913795 92.981744) (xy 170.835774 93.170102) (xy 170.796 93.370061) (xy 134.623011 93.370061) (xy 134.662502 93.29618)
        (xy 134.698812 93.176482) (xy 134.711072 93.052) (xy 134.711072 91.352) (xy 134.698812 91.227518) (xy 134.662502 91.10782)
        (xy 134.603537 90.997506) (xy 134.524185 90.900815) (xy 134.427494 90.821463) (xy 134.31718 90.762498) (xy 134.197482 90.726188)
        (xy 134.073 90.713928) (xy 132.373 90.713928) (xy 132.248518 90.726188) (xy 132.12882 90.762498) (xy 132.018506 90.821463)
        (xy 131.953 90.875222) (xy 131.953 88.91024) (xy 131.99899 88.841411) (xy 132.110932 88.571158) (xy 132.168 88.28426)
        (xy 132.168 87.99174) (xy 132.110932 87.704842) (xy 131.99899 87.434589) (xy 131.953 87.36576) (xy 131.953 86.37024)
        (xy 131.99899 86.301411) (xy 132.110932 86.031158) (xy 132.168 85.74426) (xy 132.168 85.45174) (xy 132.110932 85.164842)
        (xy 131.99899 84.894589) (xy 131.953 84.82576) (xy 131.953 83.83024) (xy 131.99899 83.761411) (xy 132.110932 83.491158)
        (xy 132.168 83.20426) (xy 132.168 82.91174) (xy 132.110932 82.624842) (xy 131.99899 82.354589) (xy 131.836475 82.111368)
        (xy 131.629632 81.904525) (xy 131.447466 81.782805) (xy 131.564355 81.713178) (xy 131.780588 81.518269) (xy 131.954641 81.28492)
        (xy 132.079825 81.022099) (xy 132.124476 80.87489) (xy 132.003155 80.645) (xy 130.81 80.645) (xy 130.81 80.665)
        (xy 130.556 80.665) (xy 130.556 80.645) (xy 130.536 80.645) (xy 130.536 80.391) (xy 130.556 80.391)
        (xy 130.556 78.105) (xy 130.81 78.105) (xy 130.81 80.391) (xy 132.003155 80.391) (xy 132.124476 80.16111)
        (xy 132.079825 80.013901) (xy 131.954641 79.75108) (xy 131.780588 79.517731) (xy 131.564355 79.322822) (xy 131.438745 79.248)
        (xy 131.564355 79.173178) (xy 131.780588 78.978269) (xy 131.954641 78.74492) (xy 132.079825 78.482099) (xy 132.124476 78.33489)
        (xy 175.469524 78.33489) (xy 175.514175 78.482099) (xy 175.639359 78.74492) (xy 175.813412 78.978269) (xy 176.029645 79.173178)
        (xy 176.155255 79.248) (xy 176.029645 79.322822) (xy 175.813412 79.517731) (xy 175.639359 79.75108) (xy 175.514175 80.013901)
        (xy 175.469524 80.16111) (xy 175.590845 80.391) (xy 176.784 80.391) (xy 176.784 78.105) (xy 175.590845 78.105)
        (xy 175.469524 78.33489) (xy 132.124476 78.33489) (xy 132.003155 78.105) (xy 130.81 78.105) (xy 130.556 78.105)
        (xy 130.536 78.105) (xy 130.536 77.851) (xy 130.556 77.851) (xy 130.556 75.565) (xy 130.81 75.565)
        (xy 130.81 77.851) (xy 132.003155 77.851) (xy 132.124476 77.62111) (xy 132.079825 77.473901) (xy 131.954641 77.21108)
        (xy 131.780588 76.977731) (xy 131.696534 76.901966) (xy 131.77718 76.877502) (xy 131.887494 76.818537) (xy 131.984185 76.739185)
        (xy 132.063537 76.642494) (xy 132.122502 76.53218) (xy 132.158812 76.412482) (xy 132.171072 76.288) (xy 175.422928 76.288)
        (xy 175.435188 76.412482) (xy 175.471498 76.53218) (xy 175.530463 76.642494) (xy 175.609815 76.739185) (xy 175.706506 76.818537)
        (xy 175.81682 76.877502) (xy 175.897466 76.901966) (xy 175.813412 76.977731) (xy 175.639359 77.21108) (xy 175.514175 77.473901)
        (xy 175.469524 77.62111) (xy 175.590845 77.851) (xy 176.784 77.851) (xy 176.784 75.565) (xy 175.58475 75.565)
        (xy 175.426 75.72375) (xy 175.422928 76.288) (xy 132.171072 76.288) (xy 132.168 75.72375) (xy 132.00925 75.565)
        (xy 130.81 75.565) (xy 130.556 75.565) (xy 130.536 75.565) (xy 130.536 75.311) (xy 130.556 75.311)
        (xy 130.556 75.291) (xy 130.81 75.291) (xy 130.81 75.311) (xy 132.00925 75.311) (xy 132.168 75.15225)
        (xy 132.171072 74.588) (xy 132.158812 74.463518) (xy 132.122502 74.34382) (xy 132.063537 74.233506) (xy 131.984185 74.136815)
        (xy 131.958822 74.116) (xy 175.635178 74.116)
      )
    )
  )
  (zone (net 1) (net_name GND) (layer B.Cu) (tstamp 0) (hatch edge 0.508)
    (connect_pads (clearance 0.508))
    (min_thickness 0.254)
    (fill yes (arc_segments 16) (thermal_gap 0.508) (thermal_bridge_width 0.508))
    (polygon
      (pts
        (xy 127.635 71.882) (xy 180.975 71.882) (xy 180.975 115.062) (xy 127.635 115.062)
      )
    )
    (filled_polygon
      (pts
        (xy 175.609815 74.136815) (xy 175.530463 74.233506) (xy 175.471498 74.34382) (xy 175.435188 74.463518) (xy 175.422928 74.588)
        (xy 175.426 75.15225) (xy 175.58475 75.311) (xy 176.784 75.311) (xy 176.784 75.291) (xy 177.038 75.291)
        (xy 177.038 75.311) (xy 177.058 75.311) (xy 177.058 75.565) (xy 177.038 75.565) (xy 177.038 77.851)
        (xy 177.058 77.851) (xy 177.058 78.105) (xy 177.038 78.105) (xy 177.038 80.391) (xy 177.058 80.391)
        (xy 177.058 80.645) (xy 177.038 80.645) (xy 177.038 80.665) (xy 176.784 80.665) (xy 176.784 80.645)
        (xy 175.590845 80.645) (xy 175.469524 80.87489) (xy 175.514175 81.022099) (xy 175.639359 81.28492) (xy 175.813412 81.518269)
        (xy 176.029645 81.713178) (xy 176.146534 81.782805) (xy 175.964368 81.904525) (xy 175.757525 82.111368) (xy 175.59501 82.354589)
        (xy 175.483068 82.624842) (xy 175.426 82.91174) (xy 175.426 83.20426) (xy 175.483068 83.491158) (xy 175.59501 83.761411)
        (xy 175.757525 84.004632) (xy 175.964368 84.211475) (xy 176.13876 84.328) (xy 175.964368 84.444525) (xy 175.757525 84.651368)
        (xy 175.59501 84.894589) (xy 175.483068 85.164842) (xy 175.426 85.45174) (xy 175.426 85.74426) (xy 175.483068 86.031158)
        (xy 175.59501 86.301411) (xy 175.757525 86.544632) (xy 175.964368 86.751475) (xy 176.13876 86.868) (xy 175.964368 86.984525)
        (xy 175.757525 87.191368) (xy 175.59501 87.434589) (xy 175.483068 87.704842) (xy 175.426 87.99174) (xy 175.426 88.28426)
        (xy 175.483068 88.571158) (xy 175.59501 88.841411) (xy 175.757525 89.084632) (xy 175.964368 89.291475) (xy 176.207589 89.45399)
        (xy 176.477842 89.565932) (xy 176.76474 89.623) (xy 177.05726 89.623) (xy 177.344158 89.565932) (xy 177.614411 89.45399)
        (xy 177.857632 89.291475) (xy 178.064475 89.084632) (xy 178.22699 88.841411) (xy 178.233 88.826902) (xy 178.233 91.5131)
        (xy 178.22699 91.498589) (xy 178.064475 91.255368) (xy 177.857632 91.048525) (xy 177.614411 90.88601) (xy 177.344158 90.774068)
        (xy 177.05726 90.717) (xy 176.76474 90.717) (xy 176.477842 90.774068) (xy 176.207589 90.88601) (xy 175.964368 91.048525)
        (xy 175.832513 91.18038) (xy 175.810502 91.10782) (xy 175.751537 90.997506) (xy 175.672185 90.900815) (xy 175.575494 90.821463)
        (xy 175.46518 90.762498) (xy 175.345482 90.726188) (xy 175.221 90.713928) (xy 173.521 90.713928) (xy 173.396518 90.726188)
        (xy 173.27682 90.762498) (xy 173.166506 90.821463) (xy 173.069815 90.900815) (xy 172.990463 90.997506) (xy 172.931498 91.10782)
        (xy 172.895188 91.227518) (xy 172.882928 91.352) (xy 172.882928 93.052) (xy 172.895188 93.176482) (xy 172.931498 93.29618)
        (xy 172.990463 93.406494) (xy 173.069815 93.503185) (xy 173.166506 93.582537) (xy 173.27682 93.641502) (xy 173.396518 93.677812)
        (xy 173.521 93.690072) (xy 175.221 93.690072) (xy 175.345482 93.677812) (xy 175.46518 93.641502) (xy 175.575494 93.582537)
        (xy 175.672185 93.503185) (xy 175.751537 93.406494) (xy 175.810502 93.29618) (xy 175.832513 93.22362) (xy 175.964368 93.355475)
        (xy 176.207589 93.51799) (xy 176.477842 93.629932) (xy 176.76474 93.687) (xy 177.05726 93.687) (xy 177.344158 93.629932)
        (xy 177.614411 93.51799) (xy 177.857632 93.355475) (xy 178.064475 93.148632) (xy 178.22699 92.905411) (xy 178.233001 92.8909)
        (xy 178.233001 95.8311) (xy 178.22699 95.816589) (xy 178.064475 95.573368) (xy 177.857632 95.366525) (xy 177.614411 95.20401)
        (xy 177.344158 95.092068) (xy 177.05726 95.035) (xy 176.76474 95.035) (xy 176.477842 95.092068) (xy 176.207589 95.20401)
        (xy 175.964368 95.366525) (xy 175.757525 95.573368) (xy 175.59501 95.816589) (xy 175.483068 96.086842) (xy 175.426 96.37374)
        (xy 175.426 96.66626) (xy 175.483068 96.953158) (xy 175.59501 97.223411) (xy 175.757525 97.466632) (xy 175.964368 97.673475)
        (xy 176.13876 97.79) (xy 175.964368 97.906525) (xy 175.757525 98.113368) (xy 175.59501 98.356589) (xy 175.483068 98.626842)
        (xy 175.426 98.91374) (xy 175.426 99.20626) (xy 175.483068 99.493158) (xy 175.59501 99.763411) (xy 175.757525 100.006632)
        (xy 175.964368 100.213475) (xy 176.13876 100.33) (xy 175.964368 100.446525) (xy 175.757525 100.653368) (xy 175.59501 100.896589)
        (xy 175.483068 101.166842) (xy 175.426 101.45374) (xy 175.426 101.74626) (xy 175.483068 102.033158) (xy 175.59501 102.303411)
        (xy 175.757525 102.546632) (xy 175.964368 102.753475) (xy 176.146534 102.875195) (xy 176.029645 102.944822) (xy 175.813412 103.139731)
        (xy 175.639359 103.37308) (xy 175.514175 103.635901) (xy 175.469524 103.78311) (xy 175.590845 104.013) (xy 176.784 104.013)
        (xy 176.784 103.993) (xy 177.038 103.993) (xy 177.038 104.013) (xy 177.058 104.013) (xy 177.058 104.267)
        (xy 177.038 104.267) (xy 177.038 106.553) (xy 177.058 106.553) (xy 177.058 106.807) (xy 177.038 106.807)
        (xy 177.038 109.093) (xy 177.058 109.093) (xy 177.058 109.347) (xy 177.038 109.347) (xy 177.038 109.367)
        (xy 176.784 109.367) (xy 176.784 109.347) (xy 175.58475 109.347) (xy 175.426 109.50575) (xy 175.422928 110.07)
        (xy 175.435188 110.194482) (xy 175.471498 110.31418) (xy 175.530463 110.424494) (xy 175.609815 110.521185) (xy 175.635178 110.542)
        (xy 131.958822 110.542) (xy 131.984185 110.521185) (xy 132.063537 110.424494) (xy 132.122502 110.31418) (xy 132.158812 110.194482)
        (xy 132.171072 110.07) (xy 132.16969 109.816) (xy 152.054928 109.816) (xy 152.067188 109.940482) (xy 152.103498 110.06018)
        (xy 152.162463 110.170494) (xy 152.241815 110.267185) (xy 152.338506 110.346537) (xy 152.44882 110.405502) (xy 152.568518 110.441812)
        (xy 152.693 110.454072) (xy 153.25725 110.451) (xy 153.416 110.29225) (xy 153.416 109.093) (xy 152.21675 109.093)
        (xy 152.058 109.25175) (xy 152.054928 109.816) (xy 132.16969 109.816) (xy 132.168 109.50575) (xy 132.00925 109.347)
        (xy 130.81 109.347) (xy 130.81 109.367) (xy 130.556 109.367) (xy 130.556 109.347) (xy 130.536 109.347)
        (xy 130.536 109.093) (xy 130.556 109.093) (xy 130.556 106.807) (xy 130.81 106.807) (xy 130.81 109.093)
        (xy 132.00925 109.093) (xy 132.168 108.93425) (xy 132.171072 108.37) (xy 132.158812 108.245518) (xy 132.122502 108.12582)
        (xy 132.117254 108.116) (xy 152.054928 108.116) (xy 152.058 108.68025) (xy 152.21675 108.839) (xy 153.416 108.839)
        (xy 153.416 107.63975) (xy 153.67 107.63975) (xy 153.67 108.839) (xy 153.69 108.839) (xy 153.69 109.093)
        (xy 153.67 109.093) (xy 153.67 110.29225) (xy 153.82875 110.451) (xy 154.393 110.454072) (xy 154.517482 110.441812)
        (xy 154.63718 110.405502) (xy 154.747494 110.346537) (xy 154.844185 110.267185) (xy 154.923537 110.170494) (xy 154.982502 110.06018)
        (xy 155.004513 109.98762) (xy 155.136368 110.119475) (xy 155.379589 110.28199) (xy 155.649842 110.393932) (xy 155.93674 110.451)
        (xy 156.22926 110.451) (xy 156.516158 110.393932) (xy 156.786411 110.28199) (xy 156.85524 110.236) (xy 157.85076 110.236)
        (xy 157.919589 110.28199) (xy 158.189842 110.393932) (xy 158.47674 110.451) (xy 158.76926 110.451) (xy 159.056158 110.393932)
        (xy 159.326411 110.28199) (xy 159.569632 110.119475) (xy 159.776475 109.912632) (xy 159.893 109.73824) (xy 160.009525 109.912632)
        (xy 160.216368 110.119475) (xy 160.459589 110.28199) (xy 160.729842 110.393932) (xy 161.01674 110.451) (xy 161.30926 110.451)
        (xy 161.596158 110.393932) (xy 161.866411 110.28199) (xy 162.109632 110.119475) (xy 162.316475 109.912632) (xy 162.47899 109.669411)
        (xy 162.590932 109.399158) (xy 162.648 109.11226) (xy 162.648 108.81974) (xy 162.590932 108.532842) (xy 162.523481 108.37)
        (xy 175.422928 108.37) (xy 175.426 108.93425) (xy 175.58475 109.093) (xy 176.784 109.093) (xy 176.784 106.807)
        (xy 175.590845 106.807) (xy 175.469524 107.03689) (xy 175.514175 107.184099) (xy 175.639359 107.44692) (xy 175.813412 107.680269)
        (xy 175.897466 107.756034) (xy 175.81682 107.780498) (xy 175.706506 107.839463) (xy 175.609815 107.918815) (xy 175.530463 108.015506)
        (xy 175.471498 108.12582) (xy 175.435188 108.245518) (xy 175.422928 108.37) (xy 162.523481 108.37) (xy 162.47899 108.262589)
        (xy 162.316475 108.019368) (xy 162.109632 107.812525) (xy 161.866411 107.65001) (xy 161.596158 107.538068) (xy 161.30926 107.481)
        (xy 161.01674 107.481) (xy 160.729842 107.538068) (xy 160.459589 107.65001) (xy 160.216368 107.812525) (xy 160.009525 108.019368)
        (xy 159.893 108.19376) (xy 159.776475 108.019368) (xy 159.569632 107.812525) (xy 159.326411 107.65001) (xy 159.056158 107.538068)
        (xy 158.76926 107.481) (xy 158.47674 107.481) (xy 158.189842 107.538068) (xy 157.919589 107.65001) (xy 157.85076 107.696)
        (xy 156.85524 107.696) (xy 156.786411 107.65001) (xy 156.516158 107.538068) (xy 156.22926 107.481) (xy 155.93674 107.481)
        (xy 155.649842 107.538068) (xy 155.379589 107.65001) (xy 155.136368 107.812525) (xy 155.004513 107.94438) (xy 154.982502 107.87182)
        (xy 154.923537 107.761506) (xy 154.844185 107.664815) (xy 154.747494 107.585463) (xy 154.63718 107.526498) (xy 154.517482 107.490188)
        (xy 154.393 107.477928) (xy 153.82875 107.481) (xy 153.67 107.63975) (xy 153.416 107.63975) (xy 153.25725 107.481)
        (xy 152.693 107.477928) (xy 152.568518 107.490188) (xy 152.44882 107.526498) (xy 152.338506 107.585463) (xy 152.241815 107.664815)
        (xy 152.162463 107.761506) (xy 152.103498 107.87182) (xy 152.067188 107.991518) (xy 152.054928 108.116) (xy 132.117254 108.116)
        (xy 132.063537 108.015506) (xy 131.984185 107.918815) (xy 131.887494 107.839463) (xy 131.77718 107.780498) (xy 131.696534 107.756034)
        (xy 131.780588 107.680269) (xy 131.954641 107.44692) (xy 132.079825 107.184099) (xy 132.124476 107.03689) (xy 132.003155 106.807)
        (xy 130.81 106.807) (xy 130.556 106.807) (xy 130.536 106.807) (xy 130.536 106.553) (xy 130.556 106.553)
        (xy 130.556 104.267) (xy 130.81 104.267) (xy 130.81 106.553) (xy 132.003155 106.553) (xy 132.124476 106.32311)
        (xy 132.079825 106.175901) (xy 131.954641 105.91308) (xy 131.780588 105.679731) (xy 131.564355 105.484822) (xy 131.438745 105.41)
        (xy 131.564355 105.335178) (xy 131.780588 105.140269) (xy 131.954641 104.90692) (xy 132.079825 104.644099) (xy 132.124476 104.49689)
        (xy 175.469524 104.49689) (xy 175.514175 104.644099) (xy 175.639359 104.90692) (xy 175.813412 105.140269) (xy 176.029645 105.335178)
        (xy 176.155255 105.41) (xy 176.029645 105.484822) (xy 175.813412 105.679731) (xy 175.639359 105.91308) (xy 175.514175 106.175901)
        (xy 175.469524 106.32311) (xy 175.590845 106.553) (xy 176.784 106.553) (xy 176.784 104.267) (xy 175.590845 104.267)
        (xy 175.469524 104.49689) (xy 132.124476 104.49689) (xy 132.003155 104.267) (xy 130.81 104.267) (xy 130.556 104.267)
        (xy 130.536 104.267) (xy 130.536 104.013) (xy 130.556 104.013) (xy 130.556 103.993) (xy 130.81 103.993)
        (xy 130.81 104.013) (xy 132.003155 104.013) (xy 132.124476 103.78311) (xy 132.079825 103.635901) (xy 131.954641 103.37308)
        (xy 131.780588 103.139731) (xy 131.564355 102.944822) (xy 131.447466 102.875195) (xy 131.629632 102.753475) (xy 131.836475 102.546632)
        (xy 131.99899 102.303411) (xy 132.110932 102.033158) (xy 132.168 101.74626) (xy 132.168 101.45374) (xy 132.110932 101.166842)
        (xy 131.99899 100.896589) (xy 131.836475 100.653368) (xy 131.629632 100.446525) (xy 131.45524 100.33) (xy 131.629632 100.213475)
        (xy 131.836475 100.006632) (xy 131.99899 99.763411) (xy 132.110932 99.493158) (xy 132.168 99.20626) (xy 132.168 98.91374)
        (xy 132.110932 98.626842) (xy 131.99899 98.356589) (xy 131.836475 98.113368) (xy 131.629632 97.906525) (xy 131.45524 97.79)
        (xy 131.629632 97.673475) (xy 131.836475 97.466632) (xy 131.99899 97.223411) (xy 132.110932 96.953158) (xy 132.168 96.66626)
        (xy 132.168 96.37374) (xy 132.110932 96.086842) (xy 131.99899 95.816589) (xy 131.836475 95.573368) (xy 131.629632 95.366525)
        (xy 131.386411 95.20401) (xy 131.116158 95.092068) (xy 130.82926 95.035) (xy 130.53674 95.035) (xy 130.249842 95.092068)
        (xy 129.979589 95.20401) (xy 129.736368 95.366525) (xy 129.529525 95.573368) (xy 129.36701 95.816589) (xy 129.361 95.831098)
        (xy 129.361 92.890902) (xy 129.36701 92.905411) (xy 129.529525 93.148632) (xy 129.736368 93.355475) (xy 129.979589 93.51799)
        (xy 130.249842 93.629932) (xy 130.53674 93.687) (xy 130.82926 93.687) (xy 131.116158 93.629932) (xy 131.386411 93.51799)
        (xy 131.629632 93.355475) (xy 131.761487 93.22362) (xy 131.783498 93.29618) (xy 131.842463 93.406494) (xy 131.921815 93.503185)
        (xy 132.018506 93.582537) (xy 132.12882 93.641502) (xy 132.248518 93.677812) (xy 132.373 93.690072) (xy 134.073 93.690072)
        (xy 134.197482 93.677812) (xy 134.31718 93.641502) (xy 134.427494 93.582537) (xy 134.524185 93.503185) (xy 134.603537 93.406494)
        (xy 134.623011 93.370061) (xy 170.796 93.370061) (xy 170.796 93.573939) (xy 170.835774 93.773898) (xy 170.913795 93.962256)
        (xy 171.027063 94.131774) (xy 171.171226 94.275937) (xy 171.340744 94.389205) (xy 171.529102 94.467226) (xy 171.729061 94.507)
        (xy 171.932939 94.507) (xy 172.132898 94.467226) (xy 172.321256 94.389205) (xy 172.490774 94.275937) (xy 172.634937 94.131774)
        (xy 172.748205 93.962256) (xy 172.826226 93.773898) (xy 172.866 93.573939) (xy 172.866 93.370061) (xy 172.826226 93.170102)
        (xy 172.748205 92.981744) (xy 172.634937 92.812226) (xy 172.490774 92.668063) (xy 172.321256 92.554795) (xy 172.132898 92.476774)
        (xy 171.932939 92.437) (xy 171.729061 92.437) (xy 171.529102 92.476774) (xy 171.340744 92.554795) (xy 171.171226 92.668063)
        (xy 171.027063 92.812226) (xy 170.913795 92.981744) (xy 170.835774 93.170102) (xy 170.796 93.370061) (xy 134.623011 93.370061)
        (xy 134.662502 93.29618) (xy 134.698812 93.176482) (xy 134.711072 93.052) (xy 134.711072 91.352) (xy 134.698812 91.227518)
        (xy 134.662502 91.10782) (xy 134.603537 90.997506) (xy 134.524185 90.900815) (xy 134.427494 90.821463) (xy 134.31718 90.762498)
        (xy 134.197482 90.726188) (xy 134.073 90.713928) (xy 132.373 90.713928) (xy 132.248518 90.726188) (xy 132.12882 90.762498)
        (xy 132.018506 90.821463) (xy 131.921815 90.900815) (xy 131.842463 90.997506) (xy 131.783498 91.10782) (xy 131.761487 91.18038)
        (xy 131.629632 91.048525) (xy 131.386411 90.88601) (xy 131.116158 90.774068) (xy 130.82926 90.717) (xy 130.53674 90.717)
        (xy 130.249842 90.774068) (xy 129.979589 90.88601) (xy 129.736368 91.048525) (xy 129.529525 91.255368) (xy 129.36701 91.498589)
        (xy 129.361 91.513098) (xy 129.361 88.826902) (xy 129.36701 88.841411) (xy 129.529525 89.084632) (xy 129.736368 89.291475)
        (xy 129.979589 89.45399) (xy 130.249842 89.565932) (xy 130.53674 89.623) (xy 130.82926 89.623) (xy 131.116158 89.565932)
        (xy 131.386411 89.45399) (xy 131.629632 89.291475) (xy 131.836475 89.084632) (xy 131.99899 88.841411) (xy 132.110932 88.571158)
        (xy 132.168 88.28426) (xy 132.168 87.99174) (xy 132.110932 87.704842) (xy 131.99899 87.434589) (xy 131.836475 87.191368)
        (xy 131.629632 86.984525) (xy 131.45524 86.868) (xy 131.629632 86.751475) (xy 131.836475 86.544632) (xy 131.99899 86.301411)
        (xy 132.110932 86.031158) (xy 132.168 85.74426) (xy 132.168 85.45174) (xy 132.110932 85.164842) (xy 131.99899 84.894589)
        (xy 131.836475 84.651368) (xy 131.629632 84.444525) (xy 131.45524 84.328) (xy 131.629632 84.211475) (xy 131.836475 84.004632)
        (xy 131.99899 83.761411) (xy 132.110932 83.491158) (xy 132.168 83.20426) (xy 132.168 82.91174) (xy 132.110932 82.624842)
        (xy 131.99899 82.354589) (xy 131.836475 82.111368) (xy 131.629632 81.904525) (xy 131.447466 81.782805) (xy 131.564355 81.713178)
        (xy 131.780588 81.518269) (xy 131.954641 81.28492) (xy 132.079825 81.022099) (xy 132.124476 80.87489) (xy 132.003155 80.645)
        (xy 130.81 80.645) (xy 130.81 80.665) (xy 130.556 80.665) (xy 130.556 80.645) (xy 130.536 80.645)
        (xy 130.536 80.391) (xy 130.556 80.391) (xy 130.556 78.105) (xy 130.81 78.105) (xy 130.81 80.391)
        (xy 132.003155 80.391) (xy 132.124476 80.16111) (xy 132.079825 80.013901) (xy 131.954641 79.75108) (xy 131.780588 79.517731)
        (xy 131.564355 79.322822) (xy 131.438745 79.248) (xy 131.564355 79.173178) (xy 131.780588 78.978269) (xy 131.954641 78.74492)
        (xy 132.079825 78.482099) (xy 132.124476 78.33489) (xy 175.469524 78.33489) (xy 175.514175 78.482099) (xy 175.639359 78.74492)
        (xy 175.813412 78.978269) (xy 176.029645 79.173178) (xy 176.155255 79.248) (xy 176.029645 79.322822) (xy 175.813412 79.517731)
        (xy 175.639359 79.75108) (xy 175.514175 80.013901) (xy 175.469524 80.16111) (xy 175.590845 80.391) (xy 176.784 80.391)
        (xy 176.784 78.105) (xy 175.590845 78.105) (xy 175.469524 78.33489) (xy 132.124476 78.33489) (xy 132.003155 78.105)
        (xy 130.81 78.105) (xy 130.556 78.105) (xy 130.536 78.105) (xy 130.536 77.851) (xy 130.556 77.851)
        (xy 130.556 75.565) (xy 130.81 75.565) (xy 130.81 77.851) (xy 132.003155 77.851) (xy 132.124476 77.62111)
        (xy 132.079825 77.473901) (xy 131.954641 77.21108) (xy 131.780588 76.977731) (xy 131.696534 76.901966) (xy 131.77718 76.877502)
        (xy 131.887494 76.818537) (xy 131.984185 76.739185) (xy 132.063537 76.642494) (xy 132.122502 76.53218) (xy 132.158812 76.412482)
        (xy 132.171072 76.288) (xy 175.422928 76.288) (xy 175.435188 76.412482) (xy 175.471498 76.53218) (xy 175.530463 76.642494)
        (xy 175.609815 76.739185) (xy 175.706506 76.818537) (xy 175.81682 76.877502) (xy 175.897466 76.901966) (xy 175.813412 76.977731)
        (xy 175.639359 77.21108) (xy 175.514175 77.473901) (xy 175.469524 77.62111) (xy 175.590845 77.851) (xy 176.784 77.851)
        (xy 176.784 75.565) (xy 175.58475 75.565) (xy 175.426 75.72375) (xy 175.422928 76.288) (xy 132.171072 76.288)
        (xy 132.168 75.72375) (xy 132.00925 75.565) (xy 130.81 75.565) (xy 130.556 75.565) (xy 130.536 75.565)
        (xy 130.536 75.311) (xy 130.556 75.311) (xy 130.556 75.291) (xy 130.81 75.291) (xy 130.81 75.311)
        (xy 132.00925 75.311) (xy 132.168 75.15225) (xy 132.171072 74.588) (xy 132.158812 74.463518) (xy 132.122502 74.34382)
        (xy 132.063537 74.233506) (xy 131.984185 74.136815) (xy 131.958822 74.116) (xy 175.635178 74.116)
      )
    )
  )
)
