EESchema Schematic File Version 4
LIBS:bq24002_bcr_eval-cache
EELAYER 30 0
EELAYER END
$Descr A4 11693 8268
encoding utf-8
Sheet 1 1
Title ""
Date ""
Rev ""
Comp ""
Comment1 ""
Comment2 ""
Comment3 ""
Comment4 ""
$EndDescr
$Comp
L pcdu-cache:pcdu-rescue_bq24002-mylib U?
U 1 1 59824991
P 4050 2700
AR Path="/59811E48/59824991" Ref="U?"  Part="1" 
AR Path="/598129F4/59824991" Ref="U?"  Part="1" 
AR Path="/59824991" Ref="U3"  Part="1" 
F 0 "U3" H 4050 2950 50  0000 C CNN
F 1 "bq24002" H 3800 1650 50  0000 C CNN
F 2 "Package_SO:HTSSOP-20-1EP_4.4x6.5mm_P0.65mm_EP3.4x6.5mm" H 4050 3050 60  0001 C CNN
F 3 "" H 4050 3050 60  0000 C CNN
	1    4050 2700
	1    0    0    -1  
$EndComp
$Comp
L Device:R R?
U 1 1 59824A80
P 2550 2000
AR Path="/59811E48/59824A80" Ref="R?"  Part="1" 
AR Path="/598129F4/59824A80" Ref="R?"  Part="1" 
AR Path="/59824A80" Ref="R7"  Part="1" 
F 0 "R7" V 2630 2000 50  0000 C CNN
F 1 "0.1" V 2550 2000 50  0000 C CNN
F 2 "Resistor_SMD:R_0805_2012Metric" V 2480 2000 50  0001 C CNN
F 3 "" H 2550 2000 50  0000 C CNN
	1    2550 2000
	0    1    1    0   
$EndComp
Wire Wire Line
	3050 2600 3300 2600
Wire Wire Line
	3050 2000 3050 2200
Wire Wire Line
	3300 2200 3050 2200
Connection ~ 3050 2200
Connection ~ 3050 2000
Wire Wire Line
	2200 2000 2200 2400
Connection ~ 2200 2000
$Comp
L Device:C C?
U 1 1 59824B62
P 1900 2150
AR Path="/59811E48/59824B62" Ref="C?"  Part="1" 
AR Path="/598129F4/59824B62" Ref="C?"  Part="1" 
AR Path="/59824B62" Ref="C1"  Part="1" 
F 0 "C1" H 1925 2250 50  0000 L CNN
F 1 "10uF" H 1925 2050 50  0000 L CNN
F 2 "Capacitor_SMD:C_0805_2012Metric" H 1938 2000 50  0001 C CNN
F 3 "" H 1900 2150 50  0000 C CNN
	1    1900 2150
	1    0    0    -1  
$EndComp
Connection ~ 2200 2400
$Comp
L Device:R R?
U 1 1 59824BAF
P 2500 2550
AR Path="/59811E48/59824BAF" Ref="R?"  Part="1" 
AR Path="/598129F4/59824BAF" Ref="R?"  Part="1" 
AR Path="/59824BAF" Ref="R3"  Part="1" 
F 0 "R3" V 2580 2550 50  0000 C CNN
F 1 "309k" V 2500 2550 50  0000 C CNN
F 2 "Resistor_SMD:R_0805_2012Metric" V 2430 2550 50  0001 C CNN
F 3 "" H 2500 2550 50  0000 C CNN
	1    2500 2550
	1    0    0    -1  
$EndComp
$Comp
L Device:R R?
U 1 1 59824C0C
P 2500 2850
AR Path="/59811E48/59824C0C" Ref="R?"  Part="1" 
AR Path="/598129F4/59824C0C" Ref="R?"  Part="1" 
AR Path="/59824C0C" Ref="R4"  Part="1" 
F 0 "R4" V 2580 2850 50  0000 C CNN
F 1 "110k" V 2500 2850 50  0000 C CNN
F 2 "Resistor_SMD:R_0805_2012Metric" V 2430 2850 50  0001 C CNN
F 3 "" H 2500 2850 50  0000 C CNN
	1    2500 2850
	1    0    0    -1  
$EndComp
$Comp
L power:GND #PWR?
U 1 1 59824C37
P 2500 3000
AR Path="/59811E48/59824C37" Ref="#PWR?"  Part="1" 
AR Path="/598129F4/59824C37" Ref="#PWR?"  Part="1" 
AR Path="/59824C37" Ref="#PWR07"  Part="1" 
F 0 "#PWR07" H 2500 2750 50  0001 C CNN
F 1 "GND" H 2500 2850 50  0000 C CNN
F 2 "" H 2500 3000 50  0000 C CNN
F 3 "" H 2500 3000 50  0000 C CNN
	1    2500 3000
	1    0    0    -1  
$EndComp
Wire Wire Line
	2500 2700 2750 2700
Wire Wire Line
	2750 2700 2750 3000
Wire Wire Line
	2750 3000 3300 3000
$Comp
L power:GND #PWR?
U 1 1 59824CF1
P 3300 3600
AR Path="/59811E48/59824CF1" Ref="#PWR?"  Part="1" 
AR Path="/598129F4/59824CF1" Ref="#PWR?"  Part="1" 
AR Path="/59824CF1" Ref="#PWR011"  Part="1" 
F 0 "#PWR011" H 3300 3350 50  0001 C CNN
F 1 "GND" H 3300 3450 50  0000 C CNN
F 2 "" H 3300 3600 50  0000 C CNN
F 3 "" H 3300 3600 50  0000 C CNN
	1    3300 3600
	1    0    0    -1  
$EndComp
Text Notes 2450 3400 0    60   ~ 0
4.2V
Text Notes 2450 3700 0    60   ~ 0
4.1V
Text Notes 1800 3550 0    60   ~ 0
Select EOC voltage
$Comp
L Device:C C?
U 1 1 59824FDC
P 5550 2150
AR Path="/59811E48/59824FDC" Ref="C?"  Part="1" 
AR Path="/598129F4/59824FDC" Ref="C?"  Part="1" 
AR Path="/59824FDC" Ref="C7"  Part="1" 
F 0 "C7" H 5575 2250 50  0000 L CNN
F 1 "10uF" H 5575 2050 50  0000 L CNN
F 2 "Capacitor_SMD:C_0805_2012Metric" H 5588 2000 50  0001 C CNN
F 3 "" H 5550 2150 50  0000 C CNN
	1    5550 2150
	1    0    0    -1  
$EndComp
Wire Wire Line
	4800 2000 5050 2000
Wire Wire Line
	4800 2200 5050 2200
Wire Wire Line
	5050 2000 5050 2200
Connection ~ 5050 2000
Wire Wire Line
	5050 2400 4800 2400
Connection ~ 5050 2200
$Comp
L power:GND #PWR?
U 1 1 5982507D
P 5550 2300
AR Path="/59811E48/5982507D" Ref="#PWR?"  Part="1" 
AR Path="/598129F4/5982507D" Ref="#PWR?"  Part="1" 
AR Path="/5982507D" Ref="#PWR019"  Part="1" 
F 0 "#PWR019" H 5550 2050 50  0001 C CNN
F 1 "GND" H 5550 2150 50  0000 C CNN
F 2 "" H 5550 2300 50  0000 C CNN
F 3 "" H 5550 2300 50  0000 C CNN
	1    5550 2300
	1    0    0    -1  
$EndComp
$Comp
L power:GND #PWR?
U 1 1 598250C5
P 4800 2600
AR Path="/59811E48/598250C5" Ref="#PWR?"  Part="1" 
AR Path="/598129F4/598250C5" Ref="#PWR?"  Part="1" 
AR Path="/598250C5" Ref="#PWR013"  Part="1" 
F 0 "#PWR013" H 4800 2350 50  0001 C CNN
F 1 "GND" H 4800 2450 50  0000 C CNN
F 2 "" H 4800 2600 50  0000 C CNN
F 3 "" H 4800 2600 50  0000 C CNN
	1    4800 2600
	1    0    0    -1  
$EndComp
$Comp
L Device:C C?
U 1 1 598250E9
P 5050 3550
AR Path="/59811E48/598250E9" Ref="C?"  Part="1" 
AR Path="/598129F4/598250E9" Ref="C?"  Part="1" 
AR Path="/598250E9" Ref="C3"  Part="1" 
F 0 "C3" H 5075 3650 50  0000 L CNN
F 1 "0.22uF" H 5075 3450 50  0000 L CNN
F 2 "Capacitor_SMD:C_0805_2012Metric" H 5088 3400 50  0001 C CNN
F 3 "" H 5050 3550 50  0000 C CNN
	1    5050 3550
	1    0    0    -1  
$EndComp
$Comp
L Device:C C?
U 1 1 59825118
P 5400 3550
AR Path="/59811E48/59825118" Ref="C?"  Part="1" 
AR Path="/598129F4/59825118" Ref="C?"  Part="1" 
AR Path="/59825118" Ref="C5"  Part="1" 
F 0 "C5" H 5425 3650 50  0000 L CNN
F 1 "10pf" H 5425 3450 50  0000 L CNN
F 2 "Capacitor_SMD:C_0805_2012Metric" H 5438 3400 50  0001 C CNN
F 3 "" H 5400 3550 50  0000 C CNN
	1    5400 3550
	1    0    0    -1  
$EndComp
Wire Wire Line
	4800 3400 5050 3400
Wire Wire Line
	4800 3200 5400 3200
$Comp
L power:GND #PWR?
U 1 1 59825190
P 5050 3700
AR Path="/59811E48/59825190" Ref="#PWR?"  Part="1" 
AR Path="/598129F4/59825190" Ref="#PWR?"  Part="1" 
AR Path="/59825190" Ref="#PWR015"  Part="1" 
F 0 "#PWR015" H 5050 3450 50  0001 C CNN
F 1 "GND" H 5050 3550 50  0000 C CNN
F 2 "" H 5050 3700 50  0000 C CNN
F 3 "" H 5050 3700 50  0000 C CNN
	1    5050 3700
	1    0    0    -1  
$EndComp
$Comp
L power:GND #PWR?
U 1 1 598251B8
P 5400 3700
AR Path="/59811E48/598251B8" Ref="#PWR?"  Part="1" 
AR Path="/598129F4/598251B8" Ref="#PWR?"  Part="1" 
AR Path="/598251B8" Ref="#PWR017"  Part="1" 
F 0 "#PWR017" H 5400 3450 50  0001 C CNN
F 1 "GND" H 5400 3550 50  0000 C CNN
F 2 "" H 5400 3700 50  0000 C CNN
F 3 "" H 5400 3700 50  0000 C CNN
	1    5400 3700
	1    0    0    -1  
$EndComp
Wire Wire Line
	5400 3200 5400 3400
$Comp
L Device:LED D?
U 1 1 598252C5
P 5800 3000
AR Path="/59811E48/598252C5" Ref="D?"  Part="1" 
AR Path="/598129F4/598252C5" Ref="D?"  Part="1" 
AR Path="/598252C5" Ref="D2"  Part="1" 
F 0 "D2" H 5800 3100 50  0000 C CNN
F 1 "LED" H 5800 2900 50  0000 C CNN
F 2 "LED_SMD:LED_0603_1608Metric" H 5800 3000 50  0001 C CNN
F 3 "" H 5800 3000 50  0000 C CNN
	1    5800 3000
	1    0    0    -1  
$EndComp
$Comp
L Device:LED D?
U 1 1 59825380
P 5800 2800
AR Path="/59811E48/59825380" Ref="D?"  Part="1" 
AR Path="/598129F4/59825380" Ref="D?"  Part="1" 
AR Path="/59825380" Ref="D1"  Part="1" 
F 0 "D1" H 5800 2900 50  0000 C CNN
F 1 "LED" H 5800 2700 50  0000 C CNN
F 2 "LED_SMD:LED_0603_1608Metric" H 5800 2800 50  0001 C CNN
F 3 "" H 5800 2800 50  0000 C CNN
	1    5800 2800
	1    0    0    -1  
$EndComp
$Comp
L Device:R R?
U 1 1 5982540D
P 6100 2800
AR Path="/59811E48/5982540D" Ref="R?"  Part="1" 
AR Path="/598129F4/5982540D" Ref="R?"  Part="1" 
AR Path="/5982540D" Ref="R15"  Part="1" 
F 0 "R15" V 6180 2800 50  0000 C CNN
F 1 "1.5k" V 6100 2800 50  0000 C CNN
F 2 "Resistor_SMD:R_0805_2012Metric" V 6030 2800 50  0001 C CNN
F 3 "" H 6100 2800 50  0000 C CNN
	1    6100 2800
	0    1    1    0   
$EndComp
$Comp
L Device:R R?
U 1 1 59825459
P 6100 3000
AR Path="/59811E48/59825459" Ref="R?"  Part="1" 
AR Path="/598129F4/59825459" Ref="R?"  Part="1" 
AR Path="/59825459" Ref="R16"  Part="1" 
F 0 "R16" V 6180 3000 50  0000 C CNN
F 1 "1.5k" V 6100 3000 50  0000 C CNN
F 2 "Resistor_SMD:R_0805_2012Metric" V 6030 3000 50  0001 C CNN
F 3 "" H 6100 3000 50  0000 C CNN
	1    6100 3000
	0    1    1    0   
$EndComp
Wire Wire Line
	2200 4100 6250 4100
$Comp
L power:GND #PWR?
U 1 1 598259AE
P 1900 2300
AR Path="/59811E48/598259AE" Ref="#PWR?"  Part="1" 
AR Path="/598129F4/598259AE" Ref="#PWR?"  Part="1" 
AR Path="/598259AE" Ref="#PWR01"  Part="1" 
F 0 "#PWR01" H 1900 2050 50  0001 C CNN
F 1 "GND" H 1900 2150 50  0000 C CNN
F 2 "" H 1900 2300 50  0000 C CNN
F 3 "" H 1900 2300 50  0000 C CNN
	1    1900 2300
	1    0    0    -1  
$EndComp
Text Notes 6350 2800 0    60   ~ 0
Charging 90% complete
Text Notes 6350 3000 0    60   ~ 0
Battery charging
$Comp
L power:PWR_FLAG #FLG?
U 1 1 5985FE50
P 2900 2000
AR Path="/59811E48/5985FE50" Ref="#FLG?"  Part="1" 
AR Path="/598129F4/5985FE50" Ref="#FLG?"  Part="1" 
AR Path="/5985FE50" Ref="#FLG01"  Part="1" 
F 0 "#FLG01" H 2900 2095 50  0001 C CNN
F 1 "PWR_FLAG" H 2900 2180 50  0000 C CNN
F 2 "" H 2900 2000 50  0000 C CNN
F 3 "" H 2900 2000 50  0000 C CNN
	1    2900 2000
	1    0    0    -1  
$EndComp
Wire Wire Line
	3050 2200 3050 2600
Wire Wire Line
	3050 2000 3300 2000
Wire Wire Line
	2200 2000 2400 2000
Wire Wire Line
	5050 2200 5050 2400
Wire Wire Line
	2700 2000 2900 2000
Wire Wire Line
	2200 2400 2500 2400
Wire Wire Line
	6250 2800 6250 3000
Wire Wire Line
	5050 2000 5550 2000
Wire Wire Line
	4800 3000 5650 3000
Wire Wire Line
	4800 2800 5650 2800
Wire Wire Line
	1900 2000 2200 2000
Connection ~ 2500 2400
Wire Wire Line
	2500 2400 3300 2400
Connection ~ 2500 2700
Connection ~ 2900 2000
Wire Wire Line
	2900 2000 3050 2000
Connection ~ 6250 3000
Wire Wire Line
	6250 3000 6250 4100
$Comp
L Amplifier_Current:INA195 U1
U 1 1 5D13A713
P 2150 1250
F 0 "U1" H 2494 1296 50  0000 L CNN
F 1 "INA195" H 2494 1205 50  0000 L CNN
F 2 "Package_TO_SOT_SMD:SOT-23-5" H 2150 1250 50  0001 C CNN
F 3 "http://www.ti.com/lit/ds/symlink/ina193.pdf" H 2150 1250 50  0001 C CNN
	1    2150 1250
	1    0    0    -1  
$EndComp
$Comp
L Device:R R1
U 1 1 5D13D672
P 1600 2000
F 0 "R1" V 1807 2000 50  0000 C CNN
F 1 "33m" V 1716 2000 50  0000 C CNN
F 2 "Resistor_SMD:R_0805_2012Metric" V 1530 2000 50  0001 C CNN
F 3 "~" H 1600 2000 50  0001 C CNN
	1    1600 2000
	0    -1   -1   0   
$EndComp
$Comp
L power:GND #PWR04
U 1 1 5D13F85E
P 2050 1550
F 0 "#PWR04" H 2050 1300 50  0001 C CNN
F 1 "GND" H 2055 1377 50  0000 C CNN
F 2 "" H 2050 1550 50  0001 C CNN
F 3 "" H 2050 1550 50  0001 C CNN
	1    2050 1550
	1    0    0    -1  
$EndComp
$Comp
L power:VCC #PWR03
U 1 1 5D13FEF4
P 2050 950
F 0 "#PWR03" H 2050 800 50  0001 C CNN
F 1 "VCC" H 2067 1123 50  0000 C CNN
F 2 "" H 2050 950 50  0001 C CNN
F 3 "" H 2050 950 50  0001 C CNN
	1    2050 950 
	1    0    0    -1  
$EndComp
Wire Wire Line
	1850 1350 1750 1350
Wire Wire Line
	1750 1350 1750 2000
Wire Wire Line
	1850 1150 1450 1150
Wire Wire Line
	1450 1150 1450 2000
Wire Wire Line
	2850 1250 2450 1250
$Comp
L Amplifier_Current:INA195 U5
U 1 1 5D146A83
P 6450 1250
F 0 "U5" H 6794 1296 50  0000 L CNN
F 1 "INA195" H 6794 1205 50  0000 L CNN
F 2 "Package_TO_SOT_SMD:SOT-23-5" H 6450 1250 50  0001 C CNN
F 3 "http://www.ti.com/lit/ds/symlink/ina193.pdf" H 6450 1250 50  0001 C CNN
	1    6450 1250
	1    0    0    -1  
$EndComp
$Comp
L Device:R R13
U 1 1 5D146A8D
P 5900 2000
F 0 "R13" V 6107 2000 50  0000 C CNN
F 1 "33m" V 6016 2000 50  0000 C CNN
F 2 "Resistor_SMD:R_0805_2012Metric" V 5830 2000 50  0001 C CNN
F 3 "~" H 5900 2000 50  0001 C CNN
	1    5900 2000
	0    -1   -1   0   
$EndComp
$Comp
L power:GND #PWR022
U 1 1 5D146A97
P 6350 1550
F 0 "#PWR022" H 6350 1300 50  0001 C CNN
F 1 "GND" H 6355 1377 50  0000 C CNN
F 2 "" H 6350 1550 50  0001 C CNN
F 3 "" H 6350 1550 50  0001 C CNN
	1    6350 1550
	1    0    0    -1  
$EndComp
$Comp
L power:VCC #PWR021
U 1 1 5D146AA1
P 6350 950
F 0 "#PWR021" H 6350 800 50  0001 C CNN
F 1 "VCC" H 6367 1123 50  0000 C CNN
F 2 "" H 6350 950 50  0001 C CNN
F 3 "" H 6350 950 50  0001 C CNN
	1    6350 950 
	1    0    0    -1  
$EndComp
Wire Wire Line
	6150 1350 6050 1350
Wire Wire Line
	6050 1350 6050 2000
Wire Wire Line
	6150 1150 5750 1150
Wire Wire Line
	5750 1150 5750 2000
Wire Wire Line
	7150 1250 6750 1250
Wire Wire Line
	1750 2000 1900 2000
Connection ~ 1750 2000
Connection ~ 1900 2000
Wire Wire Line
	1000 2000 1450 2000
Connection ~ 1450 2000
Wire Wire Line
	5550 2000 5750 2000
Connection ~ 5550 2000
Connection ~ 5750 2000
Wire Wire Line
	7150 2000 6050 2000
Connection ~ 6050 2000
$Comp
L Connector:Conn_01x06_Male J5
U 1 1 5D15B0DF
P 10250 950
F 0 "J5" H 10222 832 50  0000 R CNN
F 1 "Conn_01x06_Male" H 10222 923 50  0000 R CNN
F 2 "Connector_PinHeader_2.54mm:PinHeader_1x06_P2.54mm_Vertical" H 10250 950 50  0001 C CNN
F 3 "~" H 10250 950 50  0001 C CNN
	1    10250 950 
	-1   0    0    1   
$EndComp
$Comp
L Connector:Conn_01x06_Male J6
U 1 1 5D15DBC9
P 10250 1700
F 0 "J6" H 10222 1582 50  0000 R CNN
F 1 "Conn_01x06_Male" H 10222 1673 50  0000 R CNN
F 2 "Connector_PinHeader_2.54mm:PinHeader_1x06_P2.54mm_Vertical" H 10250 1700 50  0001 C CNN
F 3 "~" H 10250 1700 50  0001 C CNN
	1    10250 1700
	-1   0    0    1   
$EndComp
$Comp
L Connector:Conn_01x02_Male J7
U 1 1 5D15F118
P 10250 2250
F 0 "J7" H 10222 2132 50  0000 R CNN
F 1 "Conn_01x02_Male" H 10222 2223 50  0000 R CNN
F 2 "Connector_PinHeader_2.54mm:PinHeader_1x02_P2.54mm_Vertical" H 10250 2250 50  0001 C CNN
F 3 "~" H 10250 2250 50  0001 C CNN
	1    10250 2250
	-1   0    0    1   
$EndComp
$Comp
L Connector:Conn_01x04_Male J8
U 1 1 5D164448
P 10250 2750
F 0 "J8" H 10222 2632 50  0000 R CNN
F 1 "Conn_01x04_Male" H 10222 2723 50  0000 R CNN
F 2 "Connector_PinHeader_2.54mm:PinHeader_1x04_P2.54mm_Vertical" H 10250 2750 50  0001 C CNN
F 3 "~" H 10250 2750 50  0001 C CNN
	1    10250 2750
	-1   0    0    1   
$EndComp
$Comp
L pcdu-cache:pcdu-rescue_bq24002-mylib U?
U 1 1 5D1655C7
P 4050 6200
AR Path="/59811E48/5D1655C7" Ref="U?"  Part="1" 
AR Path="/598129F4/5D1655C7" Ref="U?"  Part="1" 
AR Path="/5D1655C7" Ref="U4"  Part="1" 
F 0 "U4" H 4050 6450 50  0000 C CNN
F 1 "bq24002" H 3800 5150 50  0000 C CNN
F 2 "Package_SO:HTSSOP-20-1EP_4.4x6.5mm_P0.65mm_EP3.4x6.5mm" H 4050 6550 60  0001 C CNN
F 3 "" H 4050 6550 60  0000 C CNN
	1    4050 6200
	1    0    0    -1  
$EndComp
$Comp
L Device:R R?
U 1 1 5D1655D1
P 2550 5500
AR Path="/59811E48/5D1655D1" Ref="R?"  Part="1" 
AR Path="/598129F4/5D1655D1" Ref="R?"  Part="1" 
AR Path="/5D1655D1" Ref="R8"  Part="1" 
F 0 "R8" V 2630 5500 50  0000 C CNN
F 1 "0.1" V 2550 5500 50  0000 C CNN
F 2 "Resistor_SMD:R_0805_2012Metric" V 2480 5500 50  0001 C CNN
F 3 "" H 2550 5500 50  0000 C CNN
	1    2550 5500
	0    1    1    0   
$EndComp
Wire Wire Line
	3050 6100 3300 6100
Wire Wire Line
	3050 5500 3050 5700
Wire Wire Line
	3300 5700 3050 5700
Connection ~ 3050 5700
Connection ~ 3050 5500
Wire Wire Line
	2200 5500 2200 5900
Connection ~ 2200 5500
$Comp
L Device:C C?
U 1 1 5D1655E2
P 1900 5650
AR Path="/59811E48/5D1655E2" Ref="C?"  Part="1" 
AR Path="/598129F4/5D1655E2" Ref="C?"  Part="1" 
AR Path="/5D1655E2" Ref="C2"  Part="1" 
F 0 "C2" H 1925 5750 50  0000 L CNN
F 1 "10uF" H 1925 5550 50  0000 L CNN
F 2 "Capacitor_SMD:C_0805_2012Metric" H 1938 5500 50  0001 C CNN
F 3 "" H 1900 5650 50  0000 C CNN
	1    1900 5650
	1    0    0    -1  
$EndComp
Connection ~ 2200 5900
$Comp
L Device:R R?
U 1 1 5D1655ED
P 2500 6050
AR Path="/59811E48/5D1655ED" Ref="R?"  Part="1" 
AR Path="/598129F4/5D1655ED" Ref="R?"  Part="1" 
AR Path="/5D1655ED" Ref="R5"  Part="1" 
F 0 "R5" V 2580 6050 50  0000 C CNN
F 1 "309k" V 2500 6050 50  0000 C CNN
F 2 "Resistor_SMD:R_0805_2012Metric" V 2430 6050 50  0001 C CNN
F 3 "" H 2500 6050 50  0000 C CNN
	1    2500 6050
	1    0    0    -1  
$EndComp
$Comp
L Device:R R?
U 1 1 5D1655F7
P 2500 6350
AR Path="/59811E48/5D1655F7" Ref="R?"  Part="1" 
AR Path="/598129F4/5D1655F7" Ref="R?"  Part="1" 
AR Path="/5D1655F7" Ref="R6"  Part="1" 
F 0 "R6" V 2580 6350 50  0000 C CNN
F 1 "110k" V 2500 6350 50  0000 C CNN
F 2 "Resistor_SMD:R_0805_2012Metric" V 2430 6350 50  0001 C CNN
F 3 "" H 2500 6350 50  0000 C CNN
	1    2500 6350
	1    0    0    -1  
$EndComp
$Comp
L power:GND #PWR?
U 1 1 5D165601
P 2500 6500
AR Path="/59811E48/5D165601" Ref="#PWR?"  Part="1" 
AR Path="/598129F4/5D165601" Ref="#PWR?"  Part="1" 
AR Path="/5D165601" Ref="#PWR08"  Part="1" 
F 0 "#PWR08" H 2500 6250 50  0001 C CNN
F 1 "GND" H 2500 6350 50  0000 C CNN
F 2 "" H 2500 6500 50  0000 C CNN
F 3 "" H 2500 6500 50  0000 C CNN
	1    2500 6500
	1    0    0    -1  
$EndComp
Wire Wire Line
	2500 6200 2750 6200
Wire Wire Line
	2750 6200 2750 6500
Wire Wire Line
	2750 6500 3300 6500
$Comp
L power:GND #PWR?
U 1 1 5D16560E
P 3300 7100
AR Path="/59811E48/5D16560E" Ref="#PWR?"  Part="1" 
AR Path="/598129F4/5D16560E" Ref="#PWR?"  Part="1" 
AR Path="/5D16560E" Ref="#PWR012"  Part="1" 
F 0 "#PWR012" H 3300 6850 50  0001 C CNN
F 1 "GND" H 3300 6950 50  0000 C CNN
F 2 "" H 3300 7100 50  0000 C CNN
F 3 "" H 3300 7100 50  0000 C CNN
	1    3300 7100
	1    0    0    -1  
$EndComp
Text Notes 2450 6900 0    60   ~ 0
4.2V
Text Notes 2450 7200 0    60   ~ 0
4.1V
Text Notes 1800 7050 0    60   ~ 0
Select EOC voltage
$Comp
L Device:C C?
U 1 1 5D16563C
P 5550 5650
AR Path="/59811E48/5D16563C" Ref="C?"  Part="1" 
AR Path="/598129F4/5D16563C" Ref="C?"  Part="1" 
AR Path="/5D16563C" Ref="C8"  Part="1" 
F 0 "C8" H 5575 5750 50  0000 L CNN
F 1 "10uF" H 5575 5550 50  0000 L CNN
F 2 "Capacitor_SMD:C_0805_2012Metric" H 5588 5500 50  0001 C CNN
F 3 "" H 5550 5650 50  0000 C CNN
	1    5550 5650
	1    0    0    -1  
$EndComp
Wire Wire Line
	4800 5500 5050 5500
Wire Wire Line
	4800 5700 5050 5700
Wire Wire Line
	5050 5500 5050 5700
Connection ~ 5050 5500
Wire Wire Line
	5050 5900 4800 5900
Connection ~ 5050 5700
$Comp
L power:GND #PWR?
U 1 1 5D16564C
P 5550 5800
AR Path="/59811E48/5D16564C" Ref="#PWR?"  Part="1" 
AR Path="/598129F4/5D16564C" Ref="#PWR?"  Part="1" 
AR Path="/5D16564C" Ref="#PWR020"  Part="1" 
F 0 "#PWR020" H 5550 5550 50  0001 C CNN
F 1 "GND" H 5550 5650 50  0000 C CNN
F 2 "" H 5550 5800 50  0000 C CNN
F 3 "" H 5550 5800 50  0000 C CNN
	1    5550 5800
	1    0    0    -1  
$EndComp
$Comp
L power:GND #PWR?
U 1 1 5D165656
P 4800 6100
AR Path="/59811E48/5D165656" Ref="#PWR?"  Part="1" 
AR Path="/598129F4/5D165656" Ref="#PWR?"  Part="1" 
AR Path="/5D165656" Ref="#PWR014"  Part="1" 
F 0 "#PWR014" H 4800 5850 50  0001 C CNN
F 1 "GND" H 4800 5950 50  0000 C CNN
F 2 "" H 4800 6100 50  0000 C CNN
F 3 "" H 4800 6100 50  0000 C CNN
	1    4800 6100
	1    0    0    -1  
$EndComp
$Comp
L Device:C C?
U 1 1 5D165660
P 5050 7050
AR Path="/59811E48/5D165660" Ref="C?"  Part="1" 
AR Path="/598129F4/5D165660" Ref="C?"  Part="1" 
AR Path="/5D165660" Ref="C4"  Part="1" 
F 0 "C4" H 5075 7150 50  0000 L CNN
F 1 "0.22uF" H 5075 6950 50  0000 L CNN
F 2 "Capacitor_SMD:C_0805_2012Metric" H 5088 6900 50  0001 C CNN
F 3 "" H 5050 7050 50  0000 C CNN
	1    5050 7050
	1    0    0    -1  
$EndComp
$Comp
L Device:C C?
U 1 1 5D16566A
P 5400 7050
AR Path="/59811E48/5D16566A" Ref="C?"  Part="1" 
AR Path="/598129F4/5D16566A" Ref="C?"  Part="1" 
AR Path="/5D16566A" Ref="C6"  Part="1" 
F 0 "C6" H 5425 7150 50  0000 L CNN
F 1 "10pf" H 5425 6950 50  0000 L CNN
F 2 "Capacitor_SMD:C_0805_2012Metric" H 5438 6900 50  0001 C CNN
F 3 "" H 5400 7050 50  0000 C CNN
	1    5400 7050
	1    0    0    -1  
$EndComp
Wire Wire Line
	4800 6900 5050 6900
Wire Wire Line
	4800 6700 5400 6700
$Comp
L power:GND #PWR?
U 1 1 5D165676
P 5050 7200
AR Path="/59811E48/5D165676" Ref="#PWR?"  Part="1" 
AR Path="/598129F4/5D165676" Ref="#PWR?"  Part="1" 
AR Path="/5D165676" Ref="#PWR016"  Part="1" 
F 0 "#PWR016" H 5050 6950 50  0001 C CNN
F 1 "GND" H 5050 7050 50  0000 C CNN
F 2 "" H 5050 7200 50  0000 C CNN
F 3 "" H 5050 7200 50  0000 C CNN
	1    5050 7200
	1    0    0    -1  
$EndComp
$Comp
L power:GND #PWR?
U 1 1 5D165680
P 5400 7200
AR Path="/59811E48/5D165680" Ref="#PWR?"  Part="1" 
AR Path="/598129F4/5D165680" Ref="#PWR?"  Part="1" 
AR Path="/5D165680" Ref="#PWR018"  Part="1" 
F 0 "#PWR018" H 5400 6950 50  0001 C CNN
F 1 "GND" H 5400 7050 50  0000 C CNN
F 2 "" H 5400 7200 50  0000 C CNN
F 3 "" H 5400 7200 50  0000 C CNN
	1    5400 7200
	1    0    0    -1  
$EndComp
Wire Wire Line
	5400 6700 5400 6900
$Comp
L Device:LED D?
U 1 1 5D16568B
P 5800 6500
AR Path="/59811E48/5D16568B" Ref="D?"  Part="1" 
AR Path="/598129F4/5D16568B" Ref="D?"  Part="1" 
AR Path="/5D16568B" Ref="D4"  Part="1" 
F 0 "D4" H 5800 6600 50  0000 C CNN
F 1 "LED" H 5800 6400 50  0000 C CNN
F 2 "LED_SMD:LED_0603_1608Metric" H 5800 6500 50  0001 C CNN
F 3 "" H 5800 6500 50  0000 C CNN
	1    5800 6500
	1    0    0    -1  
$EndComp
$Comp
L Device:LED D?
U 1 1 5D165695
P 5800 6300
AR Path="/59811E48/5D165695" Ref="D?"  Part="1" 
AR Path="/598129F4/5D165695" Ref="D?"  Part="1" 
AR Path="/5D165695" Ref="D3"  Part="1" 
F 0 "D3" H 5800 6400 50  0000 C CNN
F 1 "LED" H 5800 6200 50  0000 C CNN
F 2 "LED_SMD:LED_0603_1608Metric" H 5800 6300 50  0001 C CNN
F 3 "" H 5800 6300 50  0000 C CNN
	1    5800 6300
	1    0    0    -1  
$EndComp
$Comp
L Device:R R?
U 1 1 5D16569F
P 6100 6300
AR Path="/59811E48/5D16569F" Ref="R?"  Part="1" 
AR Path="/598129F4/5D16569F" Ref="R?"  Part="1" 
AR Path="/5D16569F" Ref="R17"  Part="1" 
F 0 "R17" V 6180 6300 50  0000 C CNN
F 1 "1.5k" V 6100 6300 50  0000 C CNN
F 2 "Resistor_SMD:R_0805_2012Metric" V 6030 6300 50  0001 C CNN
F 3 "" H 6100 6300 50  0000 C CNN
	1    6100 6300
	0    1    1    0   
$EndComp
$Comp
L Device:R R?
U 1 1 5D1656A9
P 6100 6500
AR Path="/59811E48/5D1656A9" Ref="R?"  Part="1" 
AR Path="/598129F4/5D1656A9" Ref="R?"  Part="1" 
AR Path="/5D1656A9" Ref="R18"  Part="1" 
F 0 "R18" V 6180 6500 50  0000 C CNN
F 1 "1.5k" V 6100 6500 50  0000 C CNN
F 2 "Resistor_SMD:R_0805_2012Metric" V 6030 6500 50  0001 C CNN
F 3 "" H 6100 6500 50  0000 C CNN
	1    6100 6500
	0    1    1    0   
$EndComp
Wire Wire Line
	2200 7600 6250 7600
$Comp
L power:GND #PWR?
U 1 1 5D1656B5
P 1900 5800
AR Path="/59811E48/5D1656B5" Ref="#PWR?"  Part="1" 
AR Path="/598129F4/5D1656B5" Ref="#PWR?"  Part="1" 
AR Path="/5D1656B5" Ref="#PWR02"  Part="1" 
F 0 "#PWR02" H 1900 5550 50  0001 C CNN
F 1 "GND" H 1900 5650 50  0000 C CNN
F 2 "" H 1900 5800 50  0000 C CNN
F 3 "" H 1900 5800 50  0000 C CNN
	1    1900 5800
	1    0    0    -1  
$EndComp
Text Notes 6350 6300 0    60   ~ 0
Charging 90% complete
Text Notes 6350 6500 0    60   ~ 0
Battery charging
$Comp
L power:PWR_FLAG #FLG?
U 1 1 5D1656C1
P 2900 5500
AR Path="/59811E48/5D1656C1" Ref="#FLG?"  Part="1" 
AR Path="/598129F4/5D1656C1" Ref="#FLG?"  Part="1" 
AR Path="/5D1656C1" Ref="#FLG02"  Part="1" 
F 0 "#FLG02" H 2900 5595 50  0001 C CNN
F 1 "PWR_FLAG" H 2900 5680 50  0000 C CNN
F 2 "" H 2900 5500 50  0000 C CNN
F 3 "" H 2900 5500 50  0000 C CNN
	1    2900 5500
	1    0    0    -1  
$EndComp
Wire Wire Line
	3050 5700 3050 6100
Wire Wire Line
	3050 5500 3300 5500
Wire Wire Line
	2200 5500 2400 5500
Wire Wire Line
	5050 5700 5050 5900
Wire Wire Line
	2700 5500 2900 5500
Wire Wire Line
	2200 5900 2500 5900
Wire Wire Line
	6250 6300 6250 6500
Wire Wire Line
	5050 5500 5550 5500
Wire Wire Line
	4800 6500 5650 6500
Wire Wire Line
	4800 6300 5650 6300
Wire Wire Line
	1900 5500 2200 5500
Connection ~ 2500 5900
Wire Wire Line
	2500 5900 3300 5900
Connection ~ 2500 6200
Connection ~ 2900 5500
Wire Wire Line
	2900 5500 3050 5500
Connection ~ 6250 6500
Wire Wire Line
	6250 6500 6250 7600
$Comp
L Amplifier_Current:INA195 U2
U 1 1 5D1656E3
P 2150 4750
F 0 "U2" H 2494 4796 50  0000 L CNN
F 1 "INA195" H 2494 4705 50  0000 L CNN
F 2 "Package_TO_SOT_SMD:SOT-23-5" H 2150 4750 50  0001 C CNN
F 3 "http://www.ti.com/lit/ds/symlink/ina193.pdf" H 2150 4750 50  0001 C CNN
	1    2150 4750
	1    0    0    -1  
$EndComp
$Comp
L Device:R R2
U 1 1 5D1656ED
P 1600 5500
F 0 "R2" V 1807 5500 50  0000 C CNN
F 1 "33m" V 1716 5500 50  0000 C CNN
F 2 "Resistor_SMD:R_0805_2012Metric" V 1530 5500 50  0001 C CNN
F 3 "~" H 1600 5500 50  0001 C CNN
	1    1600 5500
	0    -1   -1   0   
$EndComp
$Comp
L power:GND #PWR06
U 1 1 5D1656F7
P 2050 5050
F 0 "#PWR06" H 2050 4800 50  0001 C CNN
F 1 "GND" H 2055 4877 50  0000 C CNN
F 2 "" H 2050 5050 50  0001 C CNN
F 3 "" H 2050 5050 50  0001 C CNN
	1    2050 5050
	1    0    0    -1  
$EndComp
$Comp
L power:VCC #PWR05
U 1 1 5D165701
P 2050 4450
F 0 "#PWR05" H 2050 4300 50  0001 C CNN
F 1 "VCC" H 2067 4623 50  0000 C CNN
F 2 "" H 2050 4450 50  0001 C CNN
F 3 "" H 2050 4450 50  0001 C CNN
	1    2050 4450
	1    0    0    -1  
$EndComp
Wire Wire Line
	1850 4850 1750 4850
Wire Wire Line
	1750 4850 1750 5500
Wire Wire Line
	1850 4650 1450 4650
Wire Wire Line
	1450 4650 1450 5500
Wire Wire Line
	2850 4750 2450 4750
$Comp
L Amplifier_Current:INA195 U6
U 1 1 5D165710
P 6450 4750
F 0 "U6" H 6794 4796 50  0000 L CNN
F 1 "INA195" H 6794 4705 50  0000 L CNN
F 2 "Package_TO_SOT_SMD:SOT-23-5" H 6450 4750 50  0001 C CNN
F 3 "http://www.ti.com/lit/ds/symlink/ina193.pdf" H 6450 4750 50  0001 C CNN
	1    6450 4750
	1    0    0    -1  
$EndComp
$Comp
L Device:R R14
U 1 1 5D16571A
P 5900 5500
F 0 "R14" V 6107 5500 50  0000 C CNN
F 1 "33m" V 6016 5500 50  0000 C CNN
F 2 "Resistor_SMD:R_0805_2012Metric" V 5830 5500 50  0001 C CNN
F 3 "~" H 5900 5500 50  0001 C CNN
	1    5900 5500
	0    -1   -1   0   
$EndComp
$Comp
L power:GND #PWR024
U 1 1 5D165724
P 6350 5050
F 0 "#PWR024" H 6350 4800 50  0001 C CNN
F 1 "GND" H 6355 4877 50  0000 C CNN
F 2 "" H 6350 5050 50  0001 C CNN
F 3 "" H 6350 5050 50  0001 C CNN
	1    6350 5050
	1    0    0    -1  
$EndComp
$Comp
L power:VCC #PWR023
U 1 1 5D16572E
P 6350 4450
F 0 "#PWR023" H 6350 4300 50  0001 C CNN
F 1 "VCC" H 6367 4623 50  0000 C CNN
F 2 "" H 6350 4450 50  0001 C CNN
F 3 "" H 6350 4450 50  0001 C CNN
	1    6350 4450
	1    0    0    -1  
$EndComp
Wire Wire Line
	6150 4850 6050 4850
Wire Wire Line
	6050 4850 6050 5500
Wire Wire Line
	6150 4650 5750 4650
Wire Wire Line
	5750 4650 5750 5500
Wire Wire Line
	7150 4750 6750 4750
Wire Wire Line
	1750 5500 1900 5500
Connection ~ 1750 5500
Connection ~ 1900 5500
Wire Wire Line
	1000 5500 1450 5500
Connection ~ 1450 5500
Wire Wire Line
	5550 5500 5750 5500
Connection ~ 5550 5500
Connection ~ 5750 5500
Wire Wire Line
	7150 5500 6050 5500
Connection ~ 6050 5500
$Comp
L power:GND #PWR025
U 1 1 5D1772A1
P 8500 6250
F 0 "#PWR025" H 8500 6000 50  0001 C CNN
F 1 "GND" H 8505 6077 50  0000 C CNN
F 2 "" H 8500 6250 50  0001 C CNN
F 3 "" H 8500 6250 50  0001 C CNN
	1    8500 6250
	1    0    0    -1  
$EndComp
$Comp
L power:PWR_FLAG #FLG03
U 1 1 5D177C53
P 8500 6000
F 0 "#FLG03" H 8500 6075 50  0001 C CNN
F 1 "PWR_FLAG" H 8500 6173 50  0000 C CNN
F 2 "" H 8500 6000 50  0001 C CNN
F 3 "~" H 8500 6000 50  0001 C CNN
	1    8500 6000
	1    0    0    -1  
$EndComp
$Comp
L power:PWR_FLAG #FLG04
U 1 1 5D178583
P 9000 6250
F 0 "#FLG04" H 9000 6325 50  0001 C CNN
F 1 "PWR_FLAG" H 9000 6423 50  0000 C CNN
F 2 "" H 9000 6250 50  0001 C CNN
F 3 "~" H 9000 6250 50  0001 C CNN
	1    9000 6250
	-1   0    0    1   
$EndComp
$Comp
L power:VCC #PWR026
U 1 1 5D1790AA
P 9000 6000
F 0 "#PWR026" H 9000 5850 50  0001 C CNN
F 1 "VCC" H 9017 6173 50  0000 C CNN
F 2 "" H 9000 6000 50  0001 C CNN
F 3 "" H 9000 6000 50  0001 C CNN
	1    9000 6000
	1    0    0    -1  
$EndComp
Wire Wire Line
	8500 6000 8500 6250
Wire Wire Line
	9000 6250 9000 6000
$Comp
L power:GND #PWR028
U 1 1 5D180912
P 9850 1150
F 0 "#PWR028" H 9850 900 50  0001 C CNN
F 1 "GND" H 9855 977 50  0000 C CNN
F 2 "" H 9850 1150 50  0001 C CNN
F 3 "" H 9850 1150 50  0001 C CNN
	1    9850 1150
	1    0    0    -1  
$EndComp
$Comp
L power:GND #PWR029
U 1 1 5D181DF9
P 9850 1900
F 0 "#PWR029" H 9850 1650 50  0001 C CNN
F 1 "GND" H 9855 1727 50  0000 C CNN
F 2 "" H 9850 1900 50  0001 C CNN
F 3 "" H 9850 1900 50  0001 C CNN
	1    9850 1900
	1    0    0    -1  
$EndComp
$Comp
L power:GND #PWR030
U 1 1 5D18249A
P 9850 2850
F 0 "#PWR030" H 9850 2600 50  0001 C CNN
F 1 "GND" H 9855 2677 50  0000 C CNN
F 2 "" H 9850 2850 50  0001 C CNN
F 3 "" H 9850 2850 50  0001 C CNN
	1    9850 2850
	1    0    0    -1  
$EndComp
Wire Wire Line
	9850 1900 9850 1800
Wire Wire Line
	9850 1800 10050 1800
Wire Wire Line
	10050 1700 10050 1800
Connection ~ 10050 1800
Wire Wire Line
	10050 1900 10050 1800
Wire Wire Line
	9850 1150 9850 1050
Wire Wire Line
	9850 1050 10050 1050
Wire Wire Line
	10050 950  10050 1050
Connection ~ 10050 1050
Wire Wire Line
	10050 1150 10050 1050
Wire Wire Line
	9850 750  10050 750 
Wire Wire Line
	10050 650  10050 750 
Connection ~ 10050 750 
Wire Wire Line
	10050 750  10050 850 
Wire Wire Line
	10050 1400 10050 1500
Connection ~ 10050 1500
Wire Wire Line
	10050 1500 10050 1600
Wire Wire Line
	9850 1500 10050 1500
Wire Wire Line
	9850 2150 10050 2150
Wire Wire Line
	9850 2250 10050 2250
Wire Wire Line
	9850 2550 10050 2550
Wire Wire Line
	10050 2750 10050 2650
Wire Wire Line
	9650 2650 10050 2650
Connection ~ 10050 2650
Wire Wire Line
	9850 2850 10050 2850
$Comp
L Connector:Conn_01x06_Male J9
U 1 1 5D1CD82F
P 10250 3600
F 0 "J9" H 10222 3482 50  0000 R CNN
F 1 "Conn_01x06_Male" H 10222 3573 50  0000 R CNN
F 2 "Connector_PinHeader_2.54mm:PinHeader_1x06_P2.54mm_Vertical" H 10250 3600 50  0001 C CNN
F 3 "~" H 10250 3600 50  0001 C CNN
	1    10250 3600
	-1   0    0    1   
$EndComp
$Comp
L Connector:Conn_01x06_Male J10
U 1 1 5D1CD839
P 10250 4350
F 0 "J10" H 10222 4232 50  0000 R CNN
F 1 "Conn_01x06_Male" H 10222 4323 50  0000 R CNN
F 2 "Connector_PinHeader_2.54mm:PinHeader_1x06_P2.54mm_Vertical" H 10250 4350 50  0001 C CNN
F 3 "~" H 10250 4350 50  0001 C CNN
	1    10250 4350
	-1   0    0    1   
$EndComp
$Comp
L Connector:Conn_01x02_Male J11
U 1 1 5D1CD843
P 10250 4900
F 0 "J11" H 10222 4782 50  0000 R CNN
F 1 "Conn_01x02_Male" H 10222 4873 50  0000 R CNN
F 2 "Connector_PinHeader_2.54mm:PinHeader_1x02_P2.54mm_Vertical" H 10250 4900 50  0001 C CNN
F 3 "~" H 10250 4900 50  0001 C CNN
	1    10250 4900
	-1   0    0    1   
$EndComp
$Comp
L power:GND #PWR031
U 1 1 5D1CD84D
P 9850 3800
F 0 "#PWR031" H 9850 3550 50  0001 C CNN
F 1 "GND" H 9855 3627 50  0000 C CNN
F 2 "" H 9850 3800 50  0001 C CNN
F 3 "" H 9850 3800 50  0001 C CNN
	1    9850 3800
	1    0    0    -1  
$EndComp
$Comp
L power:GND #PWR032
U 1 1 5D1CD857
P 9850 4550
F 0 "#PWR032" H 9850 4300 50  0001 C CNN
F 1 "GND" H 9855 4377 50  0000 C CNN
F 2 "" H 9850 4550 50  0001 C CNN
F 3 "" H 9850 4550 50  0001 C CNN
	1    9850 4550
	1    0    0    -1  
$EndComp
Wire Wire Line
	9850 4550 9850 4450
Wire Wire Line
	9850 4450 10050 4450
Wire Wire Line
	10050 4350 10050 4450
Connection ~ 10050 4450
Wire Wire Line
	10050 4550 10050 4450
Wire Wire Line
	9850 3800 9850 3700
Wire Wire Line
	9850 3700 10050 3700
Wire Wire Line
	10050 3600 10050 3700
Connection ~ 10050 3700
Wire Wire Line
	10050 3800 10050 3700
Wire Wire Line
	9850 3400 10050 3400
Wire Wire Line
	10050 3300 10050 3400
Connection ~ 10050 3400
Wire Wire Line
	10050 3400 10050 3500
Wire Wire Line
	10050 4050 10050 4150
Connection ~ 10050 4150
Wire Wire Line
	10050 4150 10050 4250
Wire Wire Line
	9850 4150 10050 4150
Wire Wire Line
	9850 4800 10050 4800
Wire Wire Line
	9850 4900 10050 4900
$Comp
L power:VCC #PWR027
U 1 1 5D1D72D2
P 9650 2650
F 0 "#PWR027" H 9650 2500 50  0001 C CNN
F 1 "VCC" H 9667 2823 50  0000 C CNN
F 2 "" H 9650 2650 50  0001 C CNN
F 3 "" H 9650 2650 50  0001 C CNN
	1    9650 2650
	1    0    0    -1  
$EndComp
Text Label 1000 2000 0    50   ~ 0
VIN1
Text Label 9850 750  0    50   ~ 0
VIN1
Text Label 9850 1500 0    50   ~ 0
VIN2
Text Label 9850 2150 0    50   ~ 0
VIN1
Text Label 9850 2250 0    50   ~ 0
VIN2
Text Label 9850 2550 0    50   ~ 0
VOUT2
Text Label 9850 3400 0    50   ~ 0
VOUT1
Text Label 9850 4150 0    50   ~ 0
VOUT2
Text Label 9850 4800 0    50   ~ 0
VOUT1
Text Label 9850 4900 0    50   ~ 0
VOUT2
Text Label 7150 2000 0    50   ~ 0
VOUT1
Text Label 7150 7250 0    50   ~ 0
VOUT2
Text Label 7150 5500 0    50   ~ 0
VOUT2
Text Label 1000 5500 0    50   ~ 0
VIN2
$Comp
L Connector:Conn_01x01_Male J1
U 1 1 5D1DD570
P 3050 1250
F 0 "J1" H 3022 1182 50  0000 R CNN
F 1 "Conn_01x01_Male" H 3022 1273 50  0000 R CNN
F 2 "Connector_PinHeader_2.54mm:PinHeader_1x01_P2.54mm_Vertical" H 3050 1250 50  0001 C CNN
F 3 "~" H 3050 1250 50  0001 C CNN
	1    3050 1250
	-1   0    0    1   
$EndComp
$Comp
L Connector:Conn_01x01_Male J3
U 1 1 5D1DDE4D
P 7350 1250
F 0 "J3" H 7322 1182 50  0000 R CNN
F 1 "Conn_01x01_Male" H 7322 1273 50  0000 R CNN
F 2 "Connector_PinHeader_2.54mm:PinHeader_1x01_P2.54mm_Vertical" H 7350 1250 50  0001 C CNN
F 3 "~" H 7350 1250 50  0001 C CNN
	1    7350 1250
	-1   0    0    1   
$EndComp
$Comp
L Connector:Conn_01x01_Male J4
U 1 1 5D1DE9E4
P 7350 4750
F 0 "J4" H 7322 4682 50  0000 R CNN
F 1 "Conn_01x01_Male" H 7322 4773 50  0000 R CNN
F 2 "Connector_PinHeader_2.54mm:PinHeader_1x01_P2.54mm_Vertical" H 7350 4750 50  0001 C CNN
F 3 "~" H 7350 4750 50  0001 C CNN
	1    7350 4750
	-1   0    0    1   
$EndComp
$Comp
L Connector:Conn_01x01_Male J2
U 1 1 5D1DF54C
P 3050 4750
F 0 "J2" H 3022 4682 50  0000 R CNN
F 1 "Conn_01x01_Male" H 3022 4773 50  0000 R CNN
F 2 "Connector_PinHeader_2.54mm:PinHeader_1x01_P2.54mm_Vertical" H 3050 4750 50  0001 C CNN
F 3 "~" H 3050 4750 50  0001 C CNN
	1    3050 4750
	-1   0    0    1   
$EndComp
Wire Wire Line
	2200 5900 2200 7600
Wire Wire Line
	2200 2400 2200 4100
$Comp
L Connector:Conn_01x01_Male J12
U 1 1 5DAC75B6
P 10250 5100
F 0 "J12" H 10222 5032 50  0000 R CNN
F 1 "Conn_01x01_Male" H 10222 5123 50  0000 R CNN
F 2 "Connector_PinHeader_2.54mm:PinHeader_1x01_P2.54mm_Vertical" H 10250 5100 50  0001 C CNN
F 3 "~" H 10250 5100 50  0001 C CNN
	1    10250 5100
	-1   0    0    1   
$EndComp
$Comp
L Connector:Conn_01x01_Male J13
U 1 1 5DAC7B29
P 10250 5250
F 0 "J13" H 10222 5182 50  0000 R CNN
F 1 "Conn_01x01_Male" H 10222 5273 50  0000 R CNN
F 2 "Connector_PinHeader_2.54mm:PinHeader_1x01_P2.54mm_Vertical" H 10250 5250 50  0001 C CNN
F 3 "~" H 10250 5250 50  0001 C CNN
	1    10250 5250
	-1   0    0    1   
$EndComp
$Comp
L Connector:Conn_01x03_Male J14
U 1 1 5DAC84E1
P 10250 5600
F 0 "J14" H 10222 5532 50  0000 R CNN
F 1 "Conn_01x03_Male" H 10222 5623 50  0000 R CNN
F 2 "Connector_PinHeader_2.54mm:PinHeader_1x03_P2.54mm_Vertical" H 10250 5600 50  0001 C CNN
F 3 "~" H 10250 5600 50  0001 C CNN
	1    10250 5600
	-1   0    0    1   
$EndComp
$Comp
L Connector:Conn_01x03_Male J15
U 1 1 5DAC895C
P 10250 6150
F 0 "J15" H 10222 6082 50  0000 R CNN
F 1 "Conn_01x03_Male" H 10222 6173 50  0000 R CNN
F 2 "Connector_PinHeader_2.54mm:PinHeader_1x03_P2.54mm_Vertical" H 10250 6150 50  0001 C CNN
F 3 "~" H 10250 6150 50  0001 C CNN
	1    10250 6150
	-1   0    0    1   
$EndComp
Wire Wire Line
	9850 5100 10050 5100
Wire Wire Line
	9850 5250 10050 5250
Wire Wire Line
	9850 5500 10050 5500
Wire Wire Line
	9850 5600 10050 5600
Wire Wire Line
	9850 5700 10050 5700
Wire Wire Line
	9850 5750 9850 5700
Wire Wire Line
	9850 6050 10050 6050
Wire Wire Line
	9850 6150 10050 6150
Wire Wire Line
	9850 6300 9850 6250
Wire Wire Line
	9850 6250 10050 6250
$Comp
L power:GND #PWR010
U 1 1 5DAF7E5B
P 9850 6300
F 0 "#PWR010" H 9850 6050 50  0001 C CNN
F 1 "GND" H 9855 6127 50  0000 C CNN
F 2 "" H 9850 6300 50  0001 C CNN
F 3 "" H 9850 6300 50  0001 C CNN
	1    9850 6300
	1    0    0    -1  
$EndComp
$Comp
L power:GND #PWR09
U 1 1 5DAF8605
P 9850 5750
F 0 "#PWR09" H 9850 5500 50  0001 C CNN
F 1 "GND" H 9855 5577 50  0000 C CNN
F 2 "" H 9850 5750 50  0001 C CNN
F 3 "" H 9850 5750 50  0001 C CNN
	1    9850 5750
	1    0    0    -1  
$EndComp
Text Label 9850 5500 0    50   ~ 0
VIN1
Text Label 9850 6050 0    50   ~ 0
VIN2
Wire Wire Line
	3100 6900 3300 6900
Text Label 3100 6900 0    50   ~ 0
VSEL2
Wire Wire Line
	3100 3400 3300 3400
Text Label 3100 3400 0    50   ~ 0
VSEL1
Text Label 9850 5600 0    50   ~ 0
VSEL1
Text Label 9850 6150 0    50   ~ 0
VSEL2
Wire Wire Line
	3100 3200 3300 3200
Wire Wire Line
	3100 6700 3300 6700
Text Label 3100 6700 0    50   ~ 0
EN2
Text Label 3100 3200 0    50   ~ 0
EN1
Text Label 9850 5100 0    50   ~ 0
EN1
Text Label 9850 5250 0    50   ~ 0
EN2
$EndSCHEMATC
