EESchema Schematic File Version 4
EELAYER 30 0
EELAYER END
$Descr A4 11693 8268
encoding utf-8
Sheet 1 1
Title ""
Date ""
Rev ""
Comp "LibreCube"
Comment1 ""
Comment2 ""
Comment3 ""
Comment4 ""
$EndDescr
$Comp
L mylib:TPS2034 U?
U 1 1 5DBC8FDD
P 6300 2250
AR Path="/5981D798/5983DD90/5DBC8FDD" Ref="U?"  Part="1" 
AR Path="/5981D798/5983E4FD/5DBC8FDD" Ref="U?"  Part="1" 
AR Path="/59824968/5983F4B3/5DBC8FDD" Ref="U?"  Part="1" 
AR Path="/59824968/5983F7D4/5DBC8FDD" Ref="U?"  Part="1" 
AR Path="/5982788E/5983F4B3/5DBC8FDD" Ref="U?"  Part="1" 
AR Path="/5982788E/5983F7D4/5DBC8FDD" Ref="U?"  Part="1" 
AR Path="/59829749/59842ECB/5DBC8FDD" Ref="U?"  Part="1" 
AR Path="/59829749/59842FE8/5DBC8FDD" Ref="U?"  Part="1" 
AR Path="/59841F95/59842ECB/5DBC8FDD" Ref="U?"  Part="1" 
AR Path="/59841F95/59842FE8/5DBC8FDD" Ref="U?"  Part="1" 
AR Path="/59845D4E/59842ECB/5DBC8FDD" Ref="U?"  Part="1" 
AR Path="/59845D4E/59842FE8/5DBC8FDD" Ref="U?"  Part="1" 
AR Path="/59845ED6/59842ECB/5DBC8FDD" Ref="U?"  Part="1" 
AR Path="/59845ED6/59842FE8/5DBC8FDD" Ref="U?"  Part="1" 
AR Path="/59846013/59842ECB/5DBC8FDD" Ref="U?"  Part="1" 
AR Path="/59846013/59842FE8/5DBC8FDD" Ref="U?"  Part="1" 
AR Path="/5DBC8FDD" Ref="U1"  Part="1" 
AR Path="/5DBAA80F/5DBC8FDD" Ref="U?"  Part="1" 
AR Path="/5DBAE4F7/5DBC8FDD" Ref="U?"  Part="1" 
AR Path="/5DBAE549/5DBC8FDD" Ref="U?"  Part="1" 
F 0 "U1" H 6300 1900 50  0000 C CNN
F 1 "TPS2034" H 6000 1800 50  0000 C CNN
F 2 "Package_SO:SOIC-8_3.9x4.9mm_P1.27mm" H 6300 2000 60  0000 C CNN
F 3 "" H 6300 2000 60  0000 C CNN
	1    6300 2250
	1    0    0    -1  
$EndComp
Text HLabel 7900 1950 2    60   Output ~ 0
OUT1
Text HLabel 4200 2150 0    60   Input ~ 0
IN1
Text HLabel 4200 2800 0    60   Input ~ 0
EN1
$Comp
L power:GND #PWR?
U 1 1 5DBC8FE6
P 5700 1950
AR Path="/5981D798/5983DD90/5DBC8FE6" Ref="#PWR?"  Part="1" 
AR Path="/5981D798/5983E4FD/5DBC8FE6" Ref="#PWR?"  Part="1" 
AR Path="/59824968/5983F4B3/5DBC8FE6" Ref="#PWR?"  Part="1" 
AR Path="/59824968/5983F7D4/5DBC8FE6" Ref="#PWR?"  Part="1" 
AR Path="/5982788E/5983F4B3/5DBC8FE6" Ref="#PWR?"  Part="1" 
AR Path="/5982788E/5983F7D4/5DBC8FE6" Ref="#PWR?"  Part="1" 
AR Path="/59829749/59842ECB/5DBC8FE6" Ref="#PWR?"  Part="1" 
AR Path="/59829749/59842FE8/5DBC8FE6" Ref="#PWR?"  Part="1" 
AR Path="/59841F95/59842ECB/5DBC8FE6" Ref="#PWR?"  Part="1" 
AR Path="/59841F95/59842FE8/5DBC8FE6" Ref="#PWR?"  Part="1" 
AR Path="/59845D4E/59842ECB/5DBC8FE6" Ref="#PWR?"  Part="1" 
AR Path="/59845D4E/59842FE8/5DBC8FE6" Ref="#PWR?"  Part="1" 
AR Path="/59845ED6/59842ECB/5DBC8FE6" Ref="#PWR?"  Part="1" 
AR Path="/59845ED6/59842FE8/5DBC8FE6" Ref="#PWR?"  Part="1" 
AR Path="/59846013/59842ECB/5DBC8FE6" Ref="#PWR?"  Part="1" 
AR Path="/59846013/59842FE8/5DBC8FE6" Ref="#PWR?"  Part="1" 
AR Path="/5DBC8FE6" Ref="#PWR03"  Part="1" 
AR Path="/5DBAA80F/5DBC8FE6" Ref="#PWR?"  Part="1" 
AR Path="/5DBAE4F7/5DBC8FE6" Ref="#PWR?"  Part="1" 
AR Path="/5DBAE549/5DBC8FE6" Ref="#PWR?"  Part="1" 
F 0 "#PWR03" H 5700 1700 50  0001 C CNN
F 1 "GND" H 5700 1800 50  0000 C CNN
F 2 "" H 5700 1950 50  0000 C CNN
F 3 "" H 5700 1950 50  0000 C CNN
	1    5700 1950
	1    0    0    -1  
$EndComp
Wire Wire Line
	7300 2350 6900 2350
Wire Wire Line
	7300 1950 7300 2150
Wire Wire Line
	6900 1950 7300 1950
Connection ~ 7300 1950
Wire Wire Line
	6900 2150 7300 2150
Connection ~ 7300 2150
Wire Wire Line
	5700 2350 5300 2350
Wire Wire Line
	5300 2150 5300 2350
Connection ~ 5300 2150
$Comp
L power:GND #PWR?
U 1 1 5DBC8FF5
P 4900 2450
AR Path="/5981D798/5983DD90/5DBC8FF5" Ref="#PWR?"  Part="1" 
AR Path="/5981D798/5983E4FD/5DBC8FF5" Ref="#PWR?"  Part="1" 
AR Path="/59824968/5983F4B3/5DBC8FF5" Ref="#PWR?"  Part="1" 
AR Path="/59824968/5983F7D4/5DBC8FF5" Ref="#PWR?"  Part="1" 
AR Path="/5982788E/5983F4B3/5DBC8FF5" Ref="#PWR?"  Part="1" 
AR Path="/5982788E/5983F7D4/5DBC8FF5" Ref="#PWR?"  Part="1" 
AR Path="/59829749/59842ECB/5DBC8FF5" Ref="#PWR?"  Part="1" 
AR Path="/59829749/59842FE8/5DBC8FF5" Ref="#PWR?"  Part="1" 
AR Path="/59841F95/59842ECB/5DBC8FF5" Ref="#PWR?"  Part="1" 
AR Path="/59841F95/59842FE8/5DBC8FF5" Ref="#PWR?"  Part="1" 
AR Path="/59845D4E/59842ECB/5DBC8FF5" Ref="#PWR?"  Part="1" 
AR Path="/59845D4E/59842FE8/5DBC8FF5" Ref="#PWR?"  Part="1" 
AR Path="/59845ED6/59842ECB/5DBC8FF5" Ref="#PWR?"  Part="1" 
AR Path="/59845ED6/59842FE8/5DBC8FF5" Ref="#PWR?"  Part="1" 
AR Path="/59846013/59842ECB/5DBC8FF5" Ref="#PWR?"  Part="1" 
AR Path="/59846013/59842FE8/5DBC8FF5" Ref="#PWR?"  Part="1" 
AR Path="/5DBC8FF5" Ref="#PWR01"  Part="1" 
AR Path="/5DBAA80F/5DBC8FF5" Ref="#PWR?"  Part="1" 
AR Path="/5DBAE4F7/5DBC8FF5" Ref="#PWR?"  Part="1" 
AR Path="/5DBAE549/5DBC8FF5" Ref="#PWR?"  Part="1" 
F 0 "#PWR01" H 4900 2200 50  0001 C CNN
F 1 "GND" H 4900 2300 50  0000 C CNN
F 2 "" H 4900 2450 50  0000 C CNN
F 3 "" H 4900 2450 50  0000 C CNN
	1    4900 2450
	1    0    0    -1  
$EndComp
Wire Wire Line
	5700 2800 5700 2550
Wire Wire Line
	4200 2800 4250 2800
$Comp
L Device:R R?
U 1 1 5DBC8FFD
P 4400 2300
AR Path="/5981D798/5983DD90/5DBC8FFD" Ref="R?"  Part="1" 
AR Path="/5981D798/5983E4FD/5DBC8FFD" Ref="R?"  Part="1" 
AR Path="/59824968/5983F4B3/5DBC8FFD" Ref="R?"  Part="1" 
AR Path="/59824968/5983F7D4/5DBC8FFD" Ref="R?"  Part="1" 
AR Path="/5982788E/5983F4B3/5DBC8FFD" Ref="R?"  Part="1" 
AR Path="/5982788E/5983F7D4/5DBC8FFD" Ref="R?"  Part="1" 
AR Path="/59829749/59842ECB/5DBC8FFD" Ref="R?"  Part="1" 
AR Path="/59829749/59842FE8/5DBC8FFD" Ref="R?"  Part="1" 
AR Path="/59841F95/59842ECB/5DBC8FFD" Ref="R?"  Part="1" 
AR Path="/59841F95/59842FE8/5DBC8FFD" Ref="R?"  Part="1" 
AR Path="/59845D4E/59842ECB/5DBC8FFD" Ref="R?"  Part="1" 
AR Path="/59845D4E/59842FE8/5DBC8FFD" Ref="R?"  Part="1" 
AR Path="/59845ED6/59842ECB/5DBC8FFD" Ref="R?"  Part="1" 
AR Path="/59845ED6/59842FE8/5DBC8FFD" Ref="R?"  Part="1" 
AR Path="/59846013/59842ECB/5DBC8FFD" Ref="R?"  Part="1" 
AR Path="/59846013/59842FE8/5DBC8FFD" Ref="R?"  Part="1" 
AR Path="/5DBC8FFD" Ref="R1"  Part="1" 
AR Path="/5DBAA80F/5DBC8FFD" Ref="R?"  Part="1" 
AR Path="/5DBAE4F7/5DBC8FFD" Ref="R?"  Part="1" 
AR Path="/5DBAE549/5DBC8FFD" Ref="R?"  Part="1" 
F 0 "R1" V 4480 2300 50  0000 C CNN
F 1 "1M" V 4400 2300 50  0000 C CNN
F 2 "Resistor_SMD:R_0805_2012Metric" V 4330 2300 50  0000 C CNN
F 3 "" H 4400 2300 50  0000 C CNN
	1    4400 2300
	1    0    0    -1  
$EndComp
Wire Wire Line
	4400 2450 4400 2800
Connection ~ 4400 2800
$Comp
L power:PWR_FLAG #FLG?
U 1 1 5DBC9005
P 4650 2150
AR Path="/5981D798/5983DD90/5DBC9005" Ref="#FLG?"  Part="1" 
AR Path="/5981D798/5983E4FD/5DBC9005" Ref="#FLG?"  Part="1" 
AR Path="/59824968/5983F4B3/5DBC9005" Ref="#FLG?"  Part="1" 
AR Path="/59824968/5983F7D4/5DBC9005" Ref="#FLG?"  Part="1" 
AR Path="/5982788E/5983F4B3/5DBC9005" Ref="#FLG?"  Part="1" 
AR Path="/5982788E/5983F7D4/5DBC9005" Ref="#FLG?"  Part="1" 
AR Path="/59829749/59842ECB/5DBC9005" Ref="#FLG?"  Part="1" 
AR Path="/59829749/59842FE8/5DBC9005" Ref="#FLG?"  Part="1" 
AR Path="/59841F95/59842ECB/5DBC9005" Ref="#FLG?"  Part="1" 
AR Path="/59841F95/59842FE8/5DBC9005" Ref="#FLG?"  Part="1" 
AR Path="/59845D4E/59842ECB/5DBC9005" Ref="#FLG?"  Part="1" 
AR Path="/59845D4E/59842FE8/5DBC9005" Ref="#FLG?"  Part="1" 
AR Path="/59845ED6/59842ECB/5DBC9005" Ref="#FLG?"  Part="1" 
AR Path="/59845ED6/59842FE8/5DBC9005" Ref="#FLG?"  Part="1" 
AR Path="/59846013/59842ECB/5DBC9005" Ref="#FLG?"  Part="1" 
AR Path="/59846013/59842FE8/5DBC9005" Ref="#FLG?"  Part="1" 
AR Path="/5DBC9005" Ref="#FLG01"  Part="1" 
AR Path="/5DBAA80F/5DBC9005" Ref="#FLG?"  Part="1" 
AR Path="/5DBAE4F7/5DBC9005" Ref="#FLG?"  Part="1" 
AR Path="/5DBAE549/5DBC9005" Ref="#FLG?"  Part="1" 
F 0 "#FLG01" H 4650 2245 50  0001 C CNN
F 1 "PWR_FLAG" H 4650 2330 50  0000 C CNN
F 2 "" H 4650 2150 50  0000 C CNN
F 3 "" H 4650 2150 50  0000 C CNN
	1    4650 2150
	1    0    0    -1  
$EndComp
$Comp
L Device:C C?
U 1 1 5DBC900B
P 7600 2100
AR Path="/5981D798/5983DD90/5DBC900B" Ref="C?"  Part="1" 
AR Path="/5981D798/5983E4FD/5DBC900B" Ref="C?"  Part="1" 
AR Path="/59824968/5983F4B3/5DBC900B" Ref="C?"  Part="1" 
AR Path="/59824968/5983F7D4/5DBC900B" Ref="C?"  Part="1" 
AR Path="/5982788E/5983F4B3/5DBC900B" Ref="C?"  Part="1" 
AR Path="/5982788E/5983F7D4/5DBC900B" Ref="C?"  Part="1" 
AR Path="/59829749/59842ECB/5DBC900B" Ref="C?"  Part="1" 
AR Path="/59829749/59842FE8/5DBC900B" Ref="C?"  Part="1" 
AR Path="/59841F95/59842ECB/5DBC900B" Ref="C?"  Part="1" 
AR Path="/59841F95/59842FE8/5DBC900B" Ref="C?"  Part="1" 
AR Path="/59845D4E/59842ECB/5DBC900B" Ref="C?"  Part="1" 
AR Path="/59845D4E/59842FE8/5DBC900B" Ref="C?"  Part="1" 
AR Path="/59845ED6/59842ECB/5DBC900B" Ref="C?"  Part="1" 
AR Path="/59845ED6/59842FE8/5DBC900B" Ref="C?"  Part="1" 
AR Path="/59846013/59842ECB/5DBC900B" Ref="C?"  Part="1" 
AR Path="/59846013/59842FE8/5DBC900B" Ref="C?"  Part="1" 
AR Path="/5DBC900B" Ref="C3"  Part="1" 
AR Path="/5DBAA80F/5DBC900B" Ref="C?"  Part="1" 
AR Path="/5DBAE4F7/5DBC900B" Ref="C?"  Part="1" 
AR Path="/5DBAE549/5DBC900B" Ref="C?"  Part="1" 
F 0 "C3" H 7625 2200 50  0000 L CNN
F 1 "0.1uF" H 7625 2000 50  0000 L CNN
F 2 "Capacitor_SMD:C_0805_2012Metric" H 7638 1950 50  0000 C CNN
F 3 "" H 7600 2100 50  0000 C CNN
	1    7600 2100
	1    0    0    -1  
$EndComp
$Comp
L power:GND #PWR?
U 1 1 5DBC9011
P 7600 2250
AR Path="/5981D798/5983DD90/5DBC9011" Ref="#PWR?"  Part="1" 
AR Path="/5981D798/5983E4FD/5DBC9011" Ref="#PWR?"  Part="1" 
AR Path="/59824968/5983F4B3/5DBC9011" Ref="#PWR?"  Part="1" 
AR Path="/59824968/5983F7D4/5DBC9011" Ref="#PWR?"  Part="1" 
AR Path="/5982788E/5983F4B3/5DBC9011" Ref="#PWR?"  Part="1" 
AR Path="/5982788E/5983F7D4/5DBC9011" Ref="#PWR?"  Part="1" 
AR Path="/59829749/59842ECB/5DBC9011" Ref="#PWR?"  Part="1" 
AR Path="/59829749/59842FE8/5DBC9011" Ref="#PWR?"  Part="1" 
AR Path="/59841F95/59842ECB/5DBC9011" Ref="#PWR?"  Part="1" 
AR Path="/59841F95/59842FE8/5DBC9011" Ref="#PWR?"  Part="1" 
AR Path="/59845D4E/59842ECB/5DBC9011" Ref="#PWR?"  Part="1" 
AR Path="/59845D4E/59842FE8/5DBC9011" Ref="#PWR?"  Part="1" 
AR Path="/59845ED6/59842ECB/5DBC9011" Ref="#PWR?"  Part="1" 
AR Path="/59845ED6/59842FE8/5DBC9011" Ref="#PWR?"  Part="1" 
AR Path="/59846013/59842ECB/5DBC9011" Ref="#PWR?"  Part="1" 
AR Path="/59846013/59842FE8/5DBC9011" Ref="#PWR?"  Part="1" 
AR Path="/5DBC9011" Ref="#PWR05"  Part="1" 
AR Path="/5DBAA80F/5DBC9011" Ref="#PWR?"  Part="1" 
AR Path="/5DBAE4F7/5DBC9011" Ref="#PWR?"  Part="1" 
AR Path="/5DBAE549/5DBC9011" Ref="#PWR?"  Part="1" 
F 0 "#PWR05" H 7600 2000 50  0001 C CNN
F 1 "GND" H 7600 2100 50  0000 C CNN
F 2 "" H 7600 2250 50  0000 C CNN
F 3 "" H 7600 2250 50  0000 C CNN
	1    7600 2250
	1    0    0    -1  
$EndComp
$Comp
L Device:R R?
U 1 1 5DBC9017
P 7250 2850
AR Path="/5981D798/5983DD90/5DBC9017" Ref="R?"  Part="1" 
AR Path="/5981D798/5983E4FD/5DBC9017" Ref="R?"  Part="1" 
AR Path="/59824968/5983F4B3/5DBC9017" Ref="R?"  Part="1" 
AR Path="/59824968/5983F7D4/5DBC9017" Ref="R?"  Part="1" 
AR Path="/5982788E/5983F4B3/5DBC9017" Ref="R?"  Part="1" 
AR Path="/5982788E/5983F7D4/5DBC9017" Ref="R?"  Part="1" 
AR Path="/59829749/59842ECB/5DBC9017" Ref="R?"  Part="1" 
AR Path="/59829749/59842FE8/5DBC9017" Ref="R?"  Part="1" 
AR Path="/59841F95/59842ECB/5DBC9017" Ref="R?"  Part="1" 
AR Path="/59841F95/59842FE8/5DBC9017" Ref="R?"  Part="1" 
AR Path="/59845D4E/59842ECB/5DBC9017" Ref="R?"  Part="1" 
AR Path="/59845D4E/59842FE8/5DBC9017" Ref="R?"  Part="1" 
AR Path="/59845ED6/59842ECB/5DBC9017" Ref="R?"  Part="1" 
AR Path="/59845ED6/59842FE8/5DBC9017" Ref="R?"  Part="1" 
AR Path="/59846013/59842ECB/5DBC9017" Ref="R?"  Part="1" 
AR Path="/59846013/59842FE8/5DBC9017" Ref="R?"  Part="1" 
AR Path="/5DBC9017" Ref="R3"  Part="1" 
AR Path="/5DBAA80F/5DBC9017" Ref="R?"  Part="1" 
AR Path="/5DBAE4F7/5DBC9017" Ref="R?"  Part="1" 
AR Path="/5DBAE549/5DBC9017" Ref="R?"  Part="1" 
F 0 "R3" V 7330 2850 50  0000 C CNN
F 1 "10k" V 7250 2850 50  0000 C CNN
F 2 "Resistor_SMD:R_0805_2012Metric" V 7180 2850 50  0000 C CNN
F 3 "" H 7250 2850 50  0000 C CNN
	1    7250 2850
	1    0    0    -1  
$EndComp
Text HLabel 7900 2550 2    60   Output ~ 0
_OC1
Wire Wire Line
	5300 3000 7250 3000
Connection ~ 5300 2350
Wire Wire Line
	7250 2700 7250 2550
Wire Wire Line
	6900 2550 7250 2550
Connection ~ 7250 2550
Wire Wire Line
	7300 2150 7300 2350
Wire Wire Line
	5300 2150 5700 2150
Wire Wire Line
	5300 2350 5300 3000
Wire Wire Line
	7250 2550 7900 2550
Wire Wire Line
	7300 1950 7600 1950
Wire Wire Line
	4200 2150 4250 2150
Connection ~ 4400 2150
Wire Wire Line
	4400 2150 4650 2150
Connection ~ 4650 2150
Wire Wire Line
	4650 2150 4900 2150
Connection ~ 4900 2150
Wire Wire Line
	4900 2150 5300 2150
Connection ~ 7600 1950
Wire Wire Line
	7600 1950 7800 1950
$Comp
L Connector:Conn_01x03_Male J1
U 1 1 5DBC9031
P 3950 1800
AR Path="/5DBC9031" Ref="J1"  Part="1" 
AR Path="/5DBAA80F/5DBC9031" Ref="J?"  Part="1" 
AR Path="/5DBAE4F7/5DBC9031" Ref="J?"  Part="1" 
AR Path="/5DBAE549/5DBC9031" Ref="J?"  Part="1" 
F 0 "J1" H 4058 2081 50  0000 C CNN
F 1 "Conn_01x03_Male" H 4058 1990 50  0000 C CNN
F 2 "Connector_PinHeader_2.54mm:PinHeader_1x03_P2.54mm_Vertical" H 3950 1800 50  0001 C CNN
F 3 "~" H 3950 1800 50  0001 C CNN
	1    3950 1800
	1    0    0    -1  
$EndComp
$Comp
L Connector:Conn_01x03_Male J3
U 1 1 5DBC9037
P 4050 3300
AR Path="/5DBC9037" Ref="J3"  Part="1" 
AR Path="/5DBAA80F/5DBC9037" Ref="J?"  Part="1" 
AR Path="/5DBAE4F7/5DBC9037" Ref="J?"  Part="1" 
AR Path="/5DBAE549/5DBC9037" Ref="J?"  Part="1" 
F 0 "J3" H 4158 3581 50  0000 C CNN
F 1 "Conn_01x03_Male" H 4158 3490 50  0000 C CNN
F 2 "Connector_PinHeader_2.54mm:PinHeader_1x03_P2.54mm_Vertical" H 4050 3300 50  0001 C CNN
F 3 "~" H 4050 3300 50  0001 C CNN
	1    4050 3300
	1    0    0    -1  
$EndComp
Wire Wire Line
	4250 3200 4250 2800
Wire Wire Line
	4250 3400 4250 3300
Wire Wire Line
	4250 3300 4250 3200
Connection ~ 4250 3300
Connection ~ 4250 3200
Connection ~ 4250 2800
Wire Wire Line
	4250 2800 4400 2800
Wire Wire Line
	4400 2800 5700 2800
Wire Wire Line
	4250 2150 4250 1900
Wire Wire Line
	4250 1700 4150 1700
Connection ~ 4250 2150
Wire Wire Line
	4250 2150 4400 2150
Wire Wire Line
	4150 1800 4250 1800
Connection ~ 4250 1800
Wire Wire Line
	4250 1800 4250 1700
Wire Wire Line
	4150 1900 4250 1900
Connection ~ 4250 1900
Wire Wire Line
	4250 1900 4250 1800
$Comp
L Connector:Conn_01x03_Male J5
U 1 1 5DBC904F
P 7600 1650
AR Path="/5DBC904F" Ref="J5"  Part="1" 
AR Path="/5DBAA80F/5DBC904F" Ref="J?"  Part="1" 
AR Path="/5DBAE4F7/5DBC904F" Ref="J?"  Part="1" 
AR Path="/5DBAE549/5DBC904F" Ref="J?"  Part="1" 
F 0 "J5" H 7708 1931 50  0000 C CNN
F 1 "Conn_01x03_Male" H 7708 1840 50  0000 C CNN
F 2 "Connector_PinHeader_2.54mm:PinHeader_1x03_P2.54mm_Vertical" H 7600 1650 50  0001 C CNN
F 3 "~" H 7600 1650 50  0001 C CNN
	1    7600 1650
	1    0    0    -1  
$EndComp
Wire Wire Line
	7800 1950 7800 1750
Connection ~ 7800 1950
Wire Wire Line
	7800 1950 7900 1950
Connection ~ 7800 1650
Wire Wire Line
	7800 1650 7800 1550
Connection ~ 7800 1750
Wire Wire Line
	7800 1750 7800 1650
$Comp
L Device:C C?
U 1 1 5DBC905C
P 4900 2300
AR Path="/5981D798/5983DD90/5DBC905C" Ref="C?"  Part="1" 
AR Path="/5981D798/5983E4FD/5DBC905C" Ref="C?"  Part="1" 
AR Path="/59824968/5983F4B3/5DBC905C" Ref="C?"  Part="1" 
AR Path="/59824968/5983F7D4/5DBC905C" Ref="C?"  Part="1" 
AR Path="/5982788E/5983F4B3/5DBC905C" Ref="C?"  Part="1" 
AR Path="/5982788E/5983F7D4/5DBC905C" Ref="C?"  Part="1" 
AR Path="/59829749/59842ECB/5DBC905C" Ref="C?"  Part="1" 
AR Path="/59829749/59842FE8/5DBC905C" Ref="C?"  Part="1" 
AR Path="/59841F95/59842ECB/5DBC905C" Ref="C?"  Part="1" 
AR Path="/59841F95/59842FE8/5DBC905C" Ref="C?"  Part="1" 
AR Path="/59845D4E/59842ECB/5DBC905C" Ref="C?"  Part="1" 
AR Path="/59845D4E/59842FE8/5DBC905C" Ref="C?"  Part="1" 
AR Path="/59845ED6/59842ECB/5DBC905C" Ref="C?"  Part="1" 
AR Path="/59845ED6/59842FE8/5DBC905C" Ref="C?"  Part="1" 
AR Path="/59846013/59842ECB/5DBC905C" Ref="C?"  Part="1" 
AR Path="/59846013/59842FE8/5DBC905C" Ref="C?"  Part="1" 
AR Path="/5DBC905C" Ref="C1"  Part="1" 
AR Path="/5DBAA80F/5DBC905C" Ref="C?"  Part="1" 
AR Path="/5DBAE4F7/5DBC905C" Ref="C?"  Part="1" 
AR Path="/5DBAE549/5DBC905C" Ref="C?"  Part="1" 
F 0 "C1" H 4925 2400 50  0000 L CNN
F 1 "0.1uF" H 4925 2200 50  0000 L CNN
F 2 "Capacitor_SMD:C_0805_2012Metric" H 4938 2150 50  0000 C CNN
F 3 "" H 4900 2300 50  0000 C CNN
	1    4900 2300
	1    0    0    -1  
$EndComp
$Comp
L mylib:TPS2034 U?
U 1 1 5DBC9062
P 6300 4500
AR Path="/5981D798/5983DD90/5DBC9062" Ref="U?"  Part="1" 
AR Path="/5981D798/5983E4FD/5DBC9062" Ref="U?"  Part="1" 
AR Path="/59824968/5983F4B3/5DBC9062" Ref="U?"  Part="1" 
AR Path="/59824968/5983F7D4/5DBC9062" Ref="U?"  Part="1" 
AR Path="/5982788E/5983F4B3/5DBC9062" Ref="U?"  Part="1" 
AR Path="/5982788E/5983F7D4/5DBC9062" Ref="U?"  Part="1" 
AR Path="/59829749/59842ECB/5DBC9062" Ref="U?"  Part="1" 
AR Path="/59829749/59842FE8/5DBC9062" Ref="U?"  Part="1" 
AR Path="/59841F95/59842ECB/5DBC9062" Ref="U?"  Part="1" 
AR Path="/59841F95/59842FE8/5DBC9062" Ref="U?"  Part="1" 
AR Path="/59845D4E/59842ECB/5DBC9062" Ref="U?"  Part="1" 
AR Path="/59845D4E/59842FE8/5DBC9062" Ref="U?"  Part="1" 
AR Path="/59845ED6/59842ECB/5DBC9062" Ref="U?"  Part="1" 
AR Path="/59845ED6/59842FE8/5DBC9062" Ref="U?"  Part="1" 
AR Path="/59846013/59842ECB/5DBC9062" Ref="U?"  Part="1" 
AR Path="/59846013/59842FE8/5DBC9062" Ref="U?"  Part="1" 
AR Path="/5DBC9062" Ref="U2"  Part="1" 
AR Path="/5DBAA80F/5DBC9062" Ref="U?"  Part="1" 
AR Path="/5DBAE4F7/5DBC9062" Ref="U?"  Part="1" 
AR Path="/5DBAE549/5DBC9062" Ref="U?"  Part="1" 
F 0 "U2" H 6300 4150 50  0000 C CNN
F 1 "TPS2034" H 6000 4050 50  0000 C CNN
F 2 "Package_SO:SOIC-8_3.9x4.9mm_P1.27mm" H 6300 4250 60  0000 C CNN
F 3 "" H 6300 4250 60  0000 C CNN
	1    6300 4500
	1    0    0    -1  
$EndComp
Text HLabel 7900 4200 2    60   Output ~ 0
OUT2
Text HLabel 4200 4400 0    60   Input ~ 0
IN2
Text HLabel 4200 5050 0    60   Input ~ 0
EN2
$Comp
L power:GND #PWR?
U 1 1 5DBC906B
P 5700 4200
AR Path="/5981D798/5983DD90/5DBC906B" Ref="#PWR?"  Part="1" 
AR Path="/5981D798/5983E4FD/5DBC906B" Ref="#PWR?"  Part="1" 
AR Path="/59824968/5983F4B3/5DBC906B" Ref="#PWR?"  Part="1" 
AR Path="/59824968/5983F7D4/5DBC906B" Ref="#PWR?"  Part="1" 
AR Path="/5982788E/5983F4B3/5DBC906B" Ref="#PWR?"  Part="1" 
AR Path="/5982788E/5983F7D4/5DBC906B" Ref="#PWR?"  Part="1" 
AR Path="/59829749/59842ECB/5DBC906B" Ref="#PWR?"  Part="1" 
AR Path="/59829749/59842FE8/5DBC906B" Ref="#PWR?"  Part="1" 
AR Path="/59841F95/59842ECB/5DBC906B" Ref="#PWR?"  Part="1" 
AR Path="/59841F95/59842FE8/5DBC906B" Ref="#PWR?"  Part="1" 
AR Path="/59845D4E/59842ECB/5DBC906B" Ref="#PWR?"  Part="1" 
AR Path="/59845D4E/59842FE8/5DBC906B" Ref="#PWR?"  Part="1" 
AR Path="/59845ED6/59842ECB/5DBC906B" Ref="#PWR?"  Part="1" 
AR Path="/59845ED6/59842FE8/5DBC906B" Ref="#PWR?"  Part="1" 
AR Path="/59846013/59842ECB/5DBC906B" Ref="#PWR?"  Part="1" 
AR Path="/59846013/59842FE8/5DBC906B" Ref="#PWR?"  Part="1" 
AR Path="/5DBC906B" Ref="#PWR04"  Part="1" 
AR Path="/5DBAA80F/5DBC906B" Ref="#PWR?"  Part="1" 
AR Path="/5DBAE4F7/5DBC906B" Ref="#PWR?"  Part="1" 
AR Path="/5DBAE549/5DBC906B" Ref="#PWR?"  Part="1" 
F 0 "#PWR04" H 5700 3950 50  0001 C CNN
F 1 "GND" H 5700 4050 50  0000 C CNN
F 2 "" H 5700 4200 50  0000 C CNN
F 3 "" H 5700 4200 50  0000 C CNN
	1    5700 4200
	1    0    0    -1  
$EndComp
Wire Wire Line
	7300 4600 6900 4600
Wire Wire Line
	7300 4200 7300 4400
Wire Wire Line
	6900 4200 7300 4200
Connection ~ 7300 4200
Wire Wire Line
	6900 4400 7300 4400
Connection ~ 7300 4400
Wire Wire Line
	5700 4600 5300 4600
Wire Wire Line
	5300 4400 5300 4600
Connection ~ 5300 4400
$Comp
L power:GND #PWR?
U 1 1 5DBC907A
P 4900 4700
AR Path="/5981D798/5983DD90/5DBC907A" Ref="#PWR?"  Part="1" 
AR Path="/5981D798/5983E4FD/5DBC907A" Ref="#PWR?"  Part="1" 
AR Path="/59824968/5983F4B3/5DBC907A" Ref="#PWR?"  Part="1" 
AR Path="/59824968/5983F7D4/5DBC907A" Ref="#PWR?"  Part="1" 
AR Path="/5982788E/5983F4B3/5DBC907A" Ref="#PWR?"  Part="1" 
AR Path="/5982788E/5983F7D4/5DBC907A" Ref="#PWR?"  Part="1" 
AR Path="/59829749/59842ECB/5DBC907A" Ref="#PWR?"  Part="1" 
AR Path="/59829749/59842FE8/5DBC907A" Ref="#PWR?"  Part="1" 
AR Path="/59841F95/59842ECB/5DBC907A" Ref="#PWR?"  Part="1" 
AR Path="/59841F95/59842FE8/5DBC907A" Ref="#PWR?"  Part="1" 
AR Path="/59845D4E/59842ECB/5DBC907A" Ref="#PWR?"  Part="1" 
AR Path="/59845D4E/59842FE8/5DBC907A" Ref="#PWR?"  Part="1" 
AR Path="/59845ED6/59842ECB/5DBC907A" Ref="#PWR?"  Part="1" 
AR Path="/59845ED6/59842FE8/5DBC907A" Ref="#PWR?"  Part="1" 
AR Path="/59846013/59842ECB/5DBC907A" Ref="#PWR?"  Part="1" 
AR Path="/59846013/59842FE8/5DBC907A" Ref="#PWR?"  Part="1" 
AR Path="/5DBC907A" Ref="#PWR02"  Part="1" 
AR Path="/5DBAA80F/5DBC907A" Ref="#PWR?"  Part="1" 
AR Path="/5DBAE4F7/5DBC907A" Ref="#PWR?"  Part="1" 
AR Path="/5DBAE549/5DBC907A" Ref="#PWR?"  Part="1" 
F 0 "#PWR02" H 4900 4450 50  0001 C CNN
F 1 "GND" H 4900 4550 50  0000 C CNN
F 2 "" H 4900 4700 50  0000 C CNN
F 3 "" H 4900 4700 50  0000 C CNN
	1    4900 4700
	1    0    0    -1  
$EndComp
Wire Wire Line
	5700 5050 5700 4800
Wire Wire Line
	4200 5050 4250 5050
$Comp
L Device:R R?
U 1 1 5DBC9082
P 4400 4550
AR Path="/5981D798/5983DD90/5DBC9082" Ref="R?"  Part="1" 
AR Path="/5981D798/5983E4FD/5DBC9082" Ref="R?"  Part="1" 
AR Path="/59824968/5983F4B3/5DBC9082" Ref="R?"  Part="1" 
AR Path="/59824968/5983F7D4/5DBC9082" Ref="R?"  Part="1" 
AR Path="/5982788E/5983F4B3/5DBC9082" Ref="R?"  Part="1" 
AR Path="/5982788E/5983F7D4/5DBC9082" Ref="R?"  Part="1" 
AR Path="/59829749/59842ECB/5DBC9082" Ref="R?"  Part="1" 
AR Path="/59829749/59842FE8/5DBC9082" Ref="R?"  Part="1" 
AR Path="/59841F95/59842ECB/5DBC9082" Ref="R?"  Part="1" 
AR Path="/59841F95/59842FE8/5DBC9082" Ref="R?"  Part="1" 
AR Path="/59845D4E/59842ECB/5DBC9082" Ref="R?"  Part="1" 
AR Path="/59845D4E/59842FE8/5DBC9082" Ref="R?"  Part="1" 
AR Path="/59845ED6/59842ECB/5DBC9082" Ref="R?"  Part="1" 
AR Path="/59845ED6/59842FE8/5DBC9082" Ref="R?"  Part="1" 
AR Path="/59846013/59842ECB/5DBC9082" Ref="R?"  Part="1" 
AR Path="/59846013/59842FE8/5DBC9082" Ref="R?"  Part="1" 
AR Path="/5DBC9082" Ref="R2"  Part="1" 
AR Path="/5DBAA80F/5DBC9082" Ref="R?"  Part="1" 
AR Path="/5DBAE4F7/5DBC9082" Ref="R?"  Part="1" 
AR Path="/5DBAE549/5DBC9082" Ref="R?"  Part="1" 
F 0 "R2" V 4480 4550 50  0000 C CNN
F 1 "1M" V 4400 4550 50  0000 C CNN
F 2 "Resistor_SMD:R_0805_2012Metric" V 4330 4550 50  0000 C CNN
F 3 "" H 4400 4550 50  0000 C CNN
	1    4400 4550
	1    0    0    -1  
$EndComp
Wire Wire Line
	4400 4700 4400 5050
Connection ~ 4400 5050
$Comp
L power:PWR_FLAG #FLG?
U 1 1 5DBC908A
P 4650 4400
AR Path="/5981D798/5983DD90/5DBC908A" Ref="#FLG?"  Part="1" 
AR Path="/5981D798/5983E4FD/5DBC908A" Ref="#FLG?"  Part="1" 
AR Path="/59824968/5983F4B3/5DBC908A" Ref="#FLG?"  Part="1" 
AR Path="/59824968/5983F7D4/5DBC908A" Ref="#FLG?"  Part="1" 
AR Path="/5982788E/5983F4B3/5DBC908A" Ref="#FLG?"  Part="1" 
AR Path="/5982788E/5983F7D4/5DBC908A" Ref="#FLG?"  Part="1" 
AR Path="/59829749/59842ECB/5DBC908A" Ref="#FLG?"  Part="1" 
AR Path="/59829749/59842FE8/5DBC908A" Ref="#FLG?"  Part="1" 
AR Path="/59841F95/59842ECB/5DBC908A" Ref="#FLG?"  Part="1" 
AR Path="/59841F95/59842FE8/5DBC908A" Ref="#FLG?"  Part="1" 
AR Path="/59845D4E/59842ECB/5DBC908A" Ref="#FLG?"  Part="1" 
AR Path="/59845D4E/59842FE8/5DBC908A" Ref="#FLG?"  Part="1" 
AR Path="/59845ED6/59842ECB/5DBC908A" Ref="#FLG?"  Part="1" 
AR Path="/59845ED6/59842FE8/5DBC908A" Ref="#FLG?"  Part="1" 
AR Path="/59846013/59842ECB/5DBC908A" Ref="#FLG?"  Part="1" 
AR Path="/59846013/59842FE8/5DBC908A" Ref="#FLG?"  Part="1" 
AR Path="/5DBC908A" Ref="#FLG02"  Part="1" 
AR Path="/5DBAA80F/5DBC908A" Ref="#FLG?"  Part="1" 
AR Path="/5DBAE4F7/5DBC908A" Ref="#FLG?"  Part="1" 
AR Path="/5DBAE549/5DBC908A" Ref="#FLG?"  Part="1" 
F 0 "#FLG02" H 4650 4495 50  0001 C CNN
F 1 "PWR_FLAG" H 4650 4580 50  0000 C CNN
F 2 "" H 4650 4400 50  0000 C CNN
F 3 "" H 4650 4400 50  0000 C CNN
	1    4650 4400
	1    0    0    -1  
$EndComp
$Comp
L Device:C C?
U 1 1 5DBC9090
P 7600 4350
AR Path="/5981D798/5983DD90/5DBC9090" Ref="C?"  Part="1" 
AR Path="/5981D798/5983E4FD/5DBC9090" Ref="C?"  Part="1" 
AR Path="/59824968/5983F4B3/5DBC9090" Ref="C?"  Part="1" 
AR Path="/59824968/5983F7D4/5DBC9090" Ref="C?"  Part="1" 
AR Path="/5982788E/5983F4B3/5DBC9090" Ref="C?"  Part="1" 
AR Path="/5982788E/5983F7D4/5DBC9090" Ref="C?"  Part="1" 
AR Path="/59829749/59842ECB/5DBC9090" Ref="C?"  Part="1" 
AR Path="/59829749/59842FE8/5DBC9090" Ref="C?"  Part="1" 
AR Path="/59841F95/59842ECB/5DBC9090" Ref="C?"  Part="1" 
AR Path="/59841F95/59842FE8/5DBC9090" Ref="C?"  Part="1" 
AR Path="/59845D4E/59842ECB/5DBC9090" Ref="C?"  Part="1" 
AR Path="/59845D4E/59842FE8/5DBC9090" Ref="C?"  Part="1" 
AR Path="/59845ED6/59842ECB/5DBC9090" Ref="C?"  Part="1" 
AR Path="/59845ED6/59842FE8/5DBC9090" Ref="C?"  Part="1" 
AR Path="/59846013/59842ECB/5DBC9090" Ref="C?"  Part="1" 
AR Path="/59846013/59842FE8/5DBC9090" Ref="C?"  Part="1" 
AR Path="/5DBC9090" Ref="C4"  Part="1" 
AR Path="/5DBAA80F/5DBC9090" Ref="C?"  Part="1" 
AR Path="/5DBAE4F7/5DBC9090" Ref="C?"  Part="1" 
AR Path="/5DBAE549/5DBC9090" Ref="C?"  Part="1" 
F 0 "C4" H 7625 4450 50  0000 L CNN
F 1 "0.1uF" H 7625 4250 50  0000 L CNN
F 2 "Capacitor_SMD:C_0805_2012Metric" H 7638 4200 50  0000 C CNN
F 3 "" H 7600 4350 50  0000 C CNN
	1    7600 4350
	1    0    0    -1  
$EndComp
$Comp
L power:GND #PWR?
U 1 1 5DBC9096
P 7600 4500
AR Path="/5981D798/5983DD90/5DBC9096" Ref="#PWR?"  Part="1" 
AR Path="/5981D798/5983E4FD/5DBC9096" Ref="#PWR?"  Part="1" 
AR Path="/59824968/5983F4B3/5DBC9096" Ref="#PWR?"  Part="1" 
AR Path="/59824968/5983F7D4/5DBC9096" Ref="#PWR?"  Part="1" 
AR Path="/5982788E/5983F4B3/5DBC9096" Ref="#PWR?"  Part="1" 
AR Path="/5982788E/5983F7D4/5DBC9096" Ref="#PWR?"  Part="1" 
AR Path="/59829749/59842ECB/5DBC9096" Ref="#PWR?"  Part="1" 
AR Path="/59829749/59842FE8/5DBC9096" Ref="#PWR?"  Part="1" 
AR Path="/59841F95/59842ECB/5DBC9096" Ref="#PWR?"  Part="1" 
AR Path="/59841F95/59842FE8/5DBC9096" Ref="#PWR?"  Part="1" 
AR Path="/59845D4E/59842ECB/5DBC9096" Ref="#PWR?"  Part="1" 
AR Path="/59845D4E/59842FE8/5DBC9096" Ref="#PWR?"  Part="1" 
AR Path="/59845ED6/59842ECB/5DBC9096" Ref="#PWR?"  Part="1" 
AR Path="/59845ED6/59842FE8/5DBC9096" Ref="#PWR?"  Part="1" 
AR Path="/59846013/59842ECB/5DBC9096" Ref="#PWR?"  Part="1" 
AR Path="/59846013/59842FE8/5DBC9096" Ref="#PWR?"  Part="1" 
AR Path="/5DBC9096" Ref="#PWR06"  Part="1" 
AR Path="/5DBAA80F/5DBC9096" Ref="#PWR?"  Part="1" 
AR Path="/5DBAE4F7/5DBC9096" Ref="#PWR?"  Part="1" 
AR Path="/5DBAE549/5DBC9096" Ref="#PWR?"  Part="1" 
F 0 "#PWR06" H 7600 4250 50  0001 C CNN
F 1 "GND" H 7600 4350 50  0000 C CNN
F 2 "" H 7600 4500 50  0000 C CNN
F 3 "" H 7600 4500 50  0000 C CNN
	1    7600 4500
	1    0    0    -1  
$EndComp
$Comp
L Device:R R?
U 1 1 5DBC909C
P 7250 5100
AR Path="/5981D798/5983DD90/5DBC909C" Ref="R?"  Part="1" 
AR Path="/5981D798/5983E4FD/5DBC909C" Ref="R?"  Part="1" 
AR Path="/59824968/5983F4B3/5DBC909C" Ref="R?"  Part="1" 
AR Path="/59824968/5983F7D4/5DBC909C" Ref="R?"  Part="1" 
AR Path="/5982788E/5983F4B3/5DBC909C" Ref="R?"  Part="1" 
AR Path="/5982788E/5983F7D4/5DBC909C" Ref="R?"  Part="1" 
AR Path="/59829749/59842ECB/5DBC909C" Ref="R?"  Part="1" 
AR Path="/59829749/59842FE8/5DBC909C" Ref="R?"  Part="1" 
AR Path="/59841F95/59842ECB/5DBC909C" Ref="R?"  Part="1" 
AR Path="/59841F95/59842FE8/5DBC909C" Ref="R?"  Part="1" 
AR Path="/59845D4E/59842ECB/5DBC909C" Ref="R?"  Part="1" 
AR Path="/59845D4E/59842FE8/5DBC909C" Ref="R?"  Part="1" 
AR Path="/59845ED6/59842ECB/5DBC909C" Ref="R?"  Part="1" 
AR Path="/59845ED6/59842FE8/5DBC909C" Ref="R?"  Part="1" 
AR Path="/59846013/59842ECB/5DBC909C" Ref="R?"  Part="1" 
AR Path="/59846013/59842FE8/5DBC909C" Ref="R?"  Part="1" 
AR Path="/5DBC909C" Ref="R4"  Part="1" 
AR Path="/5DBAA80F/5DBC909C" Ref="R?"  Part="1" 
AR Path="/5DBAE4F7/5DBC909C" Ref="R?"  Part="1" 
AR Path="/5DBAE549/5DBC909C" Ref="R?"  Part="1" 
F 0 "R4" V 7330 5100 50  0000 C CNN
F 1 "10k" V 7250 5100 50  0000 C CNN
F 2 "Resistor_SMD:R_0805_2012Metric" V 7180 5100 50  0000 C CNN
F 3 "" H 7250 5100 50  0000 C CNN
	1    7250 5100
	1    0    0    -1  
$EndComp
Text HLabel 7900 4800 2    60   Output ~ 0
_OC2
Wire Wire Line
	5300 5250 7250 5250
Connection ~ 5300 4600
Wire Wire Line
	7250 4950 7250 4800
Wire Wire Line
	6900 4800 7250 4800
Connection ~ 7250 4800
Wire Wire Line
	7300 4400 7300 4600
Wire Wire Line
	5300 4400 5700 4400
Wire Wire Line
	5300 4600 5300 5250
Wire Wire Line
	7250 4800 7900 4800
Wire Wire Line
	7300 4200 7600 4200
Wire Wire Line
	4200 4400 4250 4400
Connection ~ 4400 4400
Wire Wire Line
	4400 4400 4650 4400
Connection ~ 4650 4400
Wire Wire Line
	4650 4400 4900 4400
Connection ~ 4900 4400
Wire Wire Line
	4900 4400 5300 4400
Connection ~ 7600 4200
Wire Wire Line
	7600 4200 7800 4200
$Comp
L Connector:Conn_01x03_Male J2
U 1 1 5DBC90B6
P 3950 4050
AR Path="/5DBC90B6" Ref="J2"  Part="1" 
AR Path="/5DBAA80F/5DBC90B6" Ref="J?"  Part="1" 
AR Path="/5DBAE4F7/5DBC90B6" Ref="J?"  Part="1" 
AR Path="/5DBAE549/5DBC90B6" Ref="J?"  Part="1" 
F 0 "J2" H 4058 4331 50  0000 C CNN
F 1 "Conn_01x03_Male" H 4058 4240 50  0000 C CNN
F 2 "Connector_PinHeader_2.54mm:PinHeader_1x03_P2.54mm_Vertical" H 3950 4050 50  0001 C CNN
F 3 "~" H 3950 4050 50  0001 C CNN
	1    3950 4050
	1    0    0    -1  
$EndComp
$Comp
L Connector:Conn_01x03_Male J4
U 1 1 5DBC90BC
P 4050 5550
AR Path="/5DBC90BC" Ref="J4"  Part="1" 
AR Path="/5DBAA80F/5DBC90BC" Ref="J?"  Part="1" 
AR Path="/5DBAE4F7/5DBC90BC" Ref="J?"  Part="1" 
AR Path="/5DBAE549/5DBC90BC" Ref="J?"  Part="1" 
F 0 "J4" H 4158 5831 50  0000 C CNN
F 1 "Conn_01x03_Male" H 4158 5740 50  0000 C CNN
F 2 "Connector_PinHeader_2.54mm:PinHeader_1x03_P2.54mm_Vertical" H 4050 5550 50  0001 C CNN
F 3 "~" H 4050 5550 50  0001 C CNN
	1    4050 5550
	1    0    0    -1  
$EndComp
Wire Wire Line
	4250 5450 4250 5050
Wire Wire Line
	4250 5650 4250 5550
Wire Wire Line
	4250 5550 4250 5450
Connection ~ 4250 5550
Connection ~ 4250 5450
Connection ~ 4250 5050
Wire Wire Line
	4250 5050 4400 5050
Wire Wire Line
	4400 5050 5700 5050
Wire Wire Line
	4250 4400 4250 4150
Wire Wire Line
	4250 3950 4150 3950
Connection ~ 4250 4400
Wire Wire Line
	4250 4400 4400 4400
Wire Wire Line
	4150 4050 4250 4050
Connection ~ 4250 4050
Wire Wire Line
	4250 4050 4250 3950
Wire Wire Line
	4150 4150 4250 4150
Connection ~ 4250 4150
Wire Wire Line
	4250 4150 4250 4050
$Comp
L Connector:Conn_01x03_Male J6
U 1 1 5DBC90D4
P 7600 3900
AR Path="/5DBC90D4" Ref="J6"  Part="1" 
AR Path="/5DBAA80F/5DBC90D4" Ref="J?"  Part="1" 
AR Path="/5DBAE4F7/5DBC90D4" Ref="J?"  Part="1" 
AR Path="/5DBAE549/5DBC90D4" Ref="J?"  Part="1" 
F 0 "J6" H 7708 4181 50  0000 C CNN
F 1 "Conn_01x03_Male" H 7708 4090 50  0000 C CNN
F 2 "Connector_PinHeader_2.54mm:PinHeader_1x03_P2.54mm_Vertical" H 7600 3900 50  0001 C CNN
F 3 "~" H 7600 3900 50  0001 C CNN
	1    7600 3900
	1    0    0    -1  
$EndComp
Wire Wire Line
	7800 4200 7800 4000
Connection ~ 7800 4200
Wire Wire Line
	7800 4200 7900 4200
Connection ~ 7800 3900
Wire Wire Line
	7800 3900 7800 3800
Connection ~ 7800 4000
Wire Wire Line
	7800 4000 7800 3900
$Comp
L Device:C C?
U 1 1 5DBC90E1
P 4900 4550
AR Path="/5981D798/5983DD90/5DBC90E1" Ref="C?"  Part="1" 
AR Path="/5981D798/5983E4FD/5DBC90E1" Ref="C?"  Part="1" 
AR Path="/59824968/5983F4B3/5DBC90E1" Ref="C?"  Part="1" 
AR Path="/59824968/5983F7D4/5DBC90E1" Ref="C?"  Part="1" 
AR Path="/5982788E/5983F4B3/5DBC90E1" Ref="C?"  Part="1" 
AR Path="/5982788E/5983F7D4/5DBC90E1" Ref="C?"  Part="1" 
AR Path="/59829749/59842ECB/5DBC90E1" Ref="C?"  Part="1" 
AR Path="/59829749/59842FE8/5DBC90E1" Ref="C?"  Part="1" 
AR Path="/59841F95/59842ECB/5DBC90E1" Ref="C?"  Part="1" 
AR Path="/59841F95/59842FE8/5DBC90E1" Ref="C?"  Part="1" 
AR Path="/59845D4E/59842ECB/5DBC90E1" Ref="C?"  Part="1" 
AR Path="/59845D4E/59842FE8/5DBC90E1" Ref="C?"  Part="1" 
AR Path="/59845ED6/59842ECB/5DBC90E1" Ref="C?"  Part="1" 
AR Path="/59845ED6/59842FE8/5DBC90E1" Ref="C?"  Part="1" 
AR Path="/59846013/59842ECB/5DBC90E1" Ref="C?"  Part="1" 
AR Path="/59846013/59842FE8/5DBC90E1" Ref="C?"  Part="1" 
AR Path="/5DBC90E1" Ref="C2"  Part="1" 
AR Path="/5DBAA80F/5DBC90E1" Ref="C?"  Part="1" 
AR Path="/5DBAE4F7/5DBC90E1" Ref="C?"  Part="1" 
AR Path="/5DBAE549/5DBC90E1" Ref="C?"  Part="1" 
F 0 "C2" H 4925 4650 50  0000 L CNN
F 1 "0.1uF" H 4925 4450 50  0000 L CNN
F 2 "Capacitor_SMD:C_0805_2012Metric" H 4938 4400 50  0000 C CNN
F 3 "" H 4900 4550 50  0000 C CNN
	1    4900 4550
	1    0    0    -1  
$EndComp
$EndSCHEMATC
