EESchema Schematic File Version 4
EELAYER 30 0
EELAYER END
$Descr A4 11693 8268
encoding utf-8
Sheet 1 1
Title "Array Power Regulator"
Date ""
Rev ""
Comp "LibreCube"
Comment1 ""
Comment2 ""
Comment3 ""
Comment4 ""
$EndDescr
$Comp
L boost_eval-rescue:TPS61032-mylib-boost_eval-rescue-boost_eval-rescue U?
U 1 1 59810773
P 3450 2900
AR Path="/5981037A/59810773" Ref="U?"  Part="1" 
AR Path="/5981D081/59810773" Ref="U?"  Part="1" 
AR Path="/5981E955/59810773" Ref="U?"  Part="1" 
AR Path="/597FA003/59810773" Ref="U?"  Part="1" 
AR Path="/59810773" Ref="U3"  Part="1" 
F 0 "U3" H 3450 3150 50  0000 C CNN
F 1 "TPS61032" H 3200 1850 50  0000 C CNN
F 2 "Package_SO:TSSOP-16-1EP_4.4x5mm_P0.65mm" H 3450 3250 60  0001 C CNN
F 3 "" H 3450 3250 60  0000 C CNN
	1    3450 2900
	1    0    0    -1  
$EndComp
$Comp
L power:GND #PWR?
U 1 1 59810A16
P 4350 3900
AR Path="/5981037A/59810A16" Ref="#PWR?"  Part="1" 
AR Path="/5981D081/59810A16" Ref="#PWR?"  Part="1" 
AR Path="/5981E955/59810A16" Ref="#PWR?"  Part="1" 
AR Path="/597FA003/59810A16" Ref="#PWR?"  Part="1" 
AR Path="/59810A16" Ref="#PWR09"  Part="1" 
F 0 "#PWR09" H 4350 3650 50  0001 C CNN
F 1 "GND" H 4350 3750 50  0000 C CNN
F 2 "" H 4350 3900 50  0000 C CNN
F 3 "" H 4350 3900 50  0000 C CNN
	1    4350 3900
	1    0    0    -1  
$EndComp
Wire Wire Line
	4200 3200 4350 3200
Wire Wire Line
	4350 3200 4350 3400
Wire Wire Line
	4200 3400 4350 3400
Connection ~ 4350 3400
Wire Wire Line
	4200 3600 4350 3600
Connection ~ 4350 3600
Wire Wire Line
	4350 3800 4200 3800
Connection ~ 4350 3800
Wire Wire Line
	2700 2000 2700 2200
$Comp
L power:GND #PWR?
U 1 1 59810AE6
P 2500 3900
AR Path="/5981037A/59810AE6" Ref="#PWR?"  Part="1" 
AR Path="/5981D081/59810AE6" Ref="#PWR?"  Part="1" 
AR Path="/5981E955/59810AE6" Ref="#PWR?"  Part="1" 
AR Path="/597FA003/59810AE6" Ref="#PWR?"  Part="1" 
AR Path="/59810AE6" Ref="#PWR07"  Part="1" 
F 0 "#PWR07" H 2500 3650 50  0001 C CNN
F 1 "GND" H 2500 3750 50  0000 C CNN
F 2 "" H 2500 3900 50  0000 C CNN
F 3 "" H 2500 3900 50  0000 C CNN
	1    2500 3900
	1    0    0    -1  
$EndComp
Wire Wire Line
	2500 3800 2700 3800
Wire Wire Line
	2500 2800 2500 3000
Wire Wire Line
	2700 3000 2500 3000
Connection ~ 2500 3800
Wire Wire Line
	2700 2800 2500 2800
Connection ~ 2500 3000
Wire Wire Line
	2700 2600 2600 2600
Wire Wire Line
	2600 2600 2600 2400
Connection ~ 2600 2400
$Comp
L Device:C C?
U 1 1 59810B4C
P 1900 2550
AR Path="/5981037A/59810B4C" Ref="C?"  Part="1" 
AR Path="/5981D081/59810B4C" Ref="C?"  Part="1" 
AR Path="/5981E955/59810B4C" Ref="C?"  Part="1" 
AR Path="/597FA003/59810B4C" Ref="C?"  Part="1" 
AR Path="/59810B4C" Ref="C1"  Part="1" 
F 0 "C1" H 1925 2650 50  0000 L CNN
F 1 "10uF" H 1925 2450 50  0000 L CNN
F 2 "Capacitor_SMD:C_0805_2012Metric" H 1938 2400 50  0001 C CNN
F 3 "" H 1900 2550 50  0000 C CNN
	1    1900 2550
	1    0    0    -1  
$EndComp
$Comp
L power:GND #PWR?
U 1 1 59810BA1
P 1900 2700
AR Path="/5981037A/59810BA1" Ref="#PWR?"  Part="1" 
AR Path="/5981D081/59810BA1" Ref="#PWR?"  Part="1" 
AR Path="/5981E955/59810BA1" Ref="#PWR?"  Part="1" 
AR Path="/597FA003/59810BA1" Ref="#PWR?"  Part="1" 
AR Path="/59810BA1" Ref="#PWR03"  Part="1" 
F 0 "#PWR03" H 1900 2450 50  0001 C CNN
F 1 "GND" H 1900 2550 50  0000 C CNN
F 2 "" H 1900 2700 50  0000 C CNN
F 3 "" H 1900 2700 50  0000 C CNN
	1    1900 2700
	1    0    0    -1  
$EndComp
NoConn ~ 4200 2600
NoConn ~ 4200 2800
NoConn ~ 4200 3000
Wire Wire Line
	4200 2000 4400 2000
Wire Wire Line
	4400 2000 4400 2200
Wire Wire Line
	4400 2400 4200 2400
Wire Wire Line
	4200 2200 4400 2200
Connection ~ 4400 2200
$Comp
L Device:C C?
U 1 1 59810D0B
P 4700 2350
AR Path="/5981037A/59810D0B" Ref="C?"  Part="1" 
AR Path="/5981D081/59810D0B" Ref="C?"  Part="1" 
AR Path="/5981E955/59810D0B" Ref="C?"  Part="1" 
AR Path="/597FA003/59810D0B" Ref="C?"  Part="1" 
AR Path="/59810D0B" Ref="C3"  Part="1" 
F 0 "C3" H 4725 2450 50  0000 L CNN
F 1 "2.2uF" H 4725 2250 50  0000 L CNN
F 2 "Capacitor_SMD:C_0805_2012Metric" H 4738 2200 50  0001 C CNN
F 3 "" H 4700 2350 50  0000 C CNN
	1    4700 2350
	1    0    0    -1  
$EndComp
$Comp
L Device:C C?
U 1 1 59810D73
P 5050 2350
AR Path="/5981037A/59810D73" Ref="C?"  Part="1" 
AR Path="/5981D081/59810D73" Ref="C?"  Part="1" 
AR Path="/5981E955/59810D73" Ref="C?"  Part="1" 
AR Path="/597FA003/59810D73" Ref="C?"  Part="1" 
AR Path="/59810D73" Ref="C5"  Part="1" 
F 0 "C5" H 5075 2450 50  0000 L CNN
F 1 "220uF" H 5075 2250 50  0000 L CNN
F 2 "Capacitor_SMD:C_1206_3216Metric" H 5088 2200 50  0001 C CNN
F 3 "" H 5050 2350 50  0000 C CNN
	1    5050 2350
	1    0    0    -1  
$EndComp
Wire Wire Line
	5050 2500 4900 2500
$Comp
L power:GND #PWR?
U 1 1 59810DCA
P 4900 2500
AR Path="/5981037A/59810DCA" Ref="#PWR?"  Part="1" 
AR Path="/5981D081/59810DCA" Ref="#PWR?"  Part="1" 
AR Path="/5981E955/59810DCA" Ref="#PWR?"  Part="1" 
AR Path="/597FA003/59810DCA" Ref="#PWR?"  Part="1" 
AR Path="/59810DCA" Ref="#PWR011"  Part="1" 
F 0 "#PWR011" H 4900 2250 50  0001 C CNN
F 1 "GND" H 4900 2350 50  0000 C CNN
F 2 "" H 4900 2500 50  0000 C CNN
F 3 "" H 4900 2500 50  0000 C CNN
	1    4900 2500
	1    0    0    -1  
$EndComp
Connection ~ 4700 2200
$Comp
L power:PWR_FLAG #FLG?
U 1 1 5985F2AA
P 2500 2000
AR Path="/5981037A/5985F2AA" Ref="#FLG?"  Part="1" 
AR Path="/5981D081/5985F2AA" Ref="#FLG?"  Part="1" 
AR Path="/5981E955/5985F2AA" Ref="#FLG?"  Part="1" 
AR Path="/597FA003/5985F2AA" Ref="#FLG?"  Part="1" 
AR Path="/5985F2AA" Ref="#FLG01"  Part="1" 
F 0 "#FLG01" H 2500 2095 50  0001 C CNN
F 1 "PWR_FLAG" H 2500 2180 50  0000 C CNN
F 2 "" H 2500 2000 50  0000 C CNN
F 3 "" H 2500 2000 50  0000 C CNN
	1    2500 2000
	1    0    0    -1  
$EndComp
$Comp
L Device:L L?
U 1 1 598E0758
P 2200 2150
AR Path="/5981037A/598E0758" Ref="L?"  Part="1" 
AR Path="/5981D081/598E0758" Ref="L?"  Part="1" 
AR Path="/5981E955/598E0758" Ref="L?"  Part="1" 
AR Path="/597FA003/598E0758" Ref="L?"  Part="1" 
AR Path="/598E0758" Ref="L1"  Part="1" 
F 0 "L1" V 2150 2150 50  0000 C CNN
F 1 "6.8uH" V 2275 2150 50  0000 C CNN
F 2 "Inductor_SMD:L_7.3x7.3_H4.5" H 2200 2150 50  0001 C CNN
F 3 "" H 2200 2150 50  0000 C CNN
	1    2200 2150
	1    0    0    -1  
$EndComp
Wire Wire Line
	2200 2300 2200 2400
Connection ~ 2200 2400
Wire Wire Line
	4350 3400 4350 3600
Wire Wire Line
	4350 3600 4350 3800
Wire Wire Line
	4350 3800 4350 3900
Wire Wire Line
	2500 3800 2500 3900
Wire Wire Line
	2500 3000 2500 3800
Wire Wire Line
	2600 2400 2700 2400
Wire Wire Line
	4400 2200 4400 2400
Wire Wire Line
	2200 2400 2600 2400
Wire Wire Line
	2200 2000 2500 2000
Wire Wire Line
	4400 2200 4700 2200
Wire Wire Line
	4700 2200 5050 2200
Wire Wire Line
	1900 2400 2200 2400
Connection ~ 2500 2000
Wire Wire Line
	2500 2000 2700 2000
Connection ~ 2700 2000
Connection ~ 4900 2500
Wire Wire Line
	4900 2500 4700 2500
$Comp
L boost_eval-rescue:TPS61032-mylib-boost_eval-rescue-boost_eval-rescue U?
U 1 1 5C818A78
P 3450 5800
AR Path="/5981037A/5C818A78" Ref="U?"  Part="1" 
AR Path="/5981D081/5C818A78" Ref="U?"  Part="1" 
AR Path="/5981E955/5C818A78" Ref="U?"  Part="1" 
AR Path="/597FA003/5C818A78" Ref="U?"  Part="1" 
AR Path="/5C818A78" Ref="U4"  Part="1" 
F 0 "U4" H 3450 6050 50  0000 C CNN
F 1 "TPS61032" H 3200 4750 50  0000 C CNN
F 2 "Package_SO:TSSOP-16-1EP_4.4x5mm_P0.65mm" H 3450 6150 60  0001 C CNN
F 3 "" H 3450 6150 60  0000 C CNN
	1    3450 5800
	1    0    0    -1  
$EndComp
$Comp
L power:GND #PWR?
U 1 1 5C818A7F
P 4350 6800
AR Path="/5981037A/5C818A7F" Ref="#PWR?"  Part="1" 
AR Path="/5981D081/5C818A7F" Ref="#PWR?"  Part="1" 
AR Path="/5981E955/5C818A7F" Ref="#PWR?"  Part="1" 
AR Path="/597FA003/5C818A7F" Ref="#PWR?"  Part="1" 
AR Path="/5C818A7F" Ref="#PWR010"  Part="1" 
F 0 "#PWR010" H 4350 6550 50  0001 C CNN
F 1 "GND" H 4350 6650 50  0000 C CNN
F 2 "" H 4350 6800 50  0000 C CNN
F 3 "" H 4350 6800 50  0000 C CNN
	1    4350 6800
	1    0    0    -1  
$EndComp
Wire Wire Line
	4200 6100 4350 6100
Wire Wire Line
	4350 6100 4350 6300
Wire Wire Line
	4200 6300 4350 6300
Connection ~ 4350 6300
Wire Wire Line
	4200 6500 4350 6500
Connection ~ 4350 6500
Wire Wire Line
	4350 6700 4200 6700
Connection ~ 4350 6700
Wire Wire Line
	2700 4900 2700 5100
$Comp
L power:GND #PWR?
U 1 1 5C818A8E
P 2500 6800
AR Path="/5981037A/5C818A8E" Ref="#PWR?"  Part="1" 
AR Path="/5981D081/5C818A8E" Ref="#PWR?"  Part="1" 
AR Path="/5981E955/5C818A8E" Ref="#PWR?"  Part="1" 
AR Path="/597FA003/5C818A8E" Ref="#PWR?"  Part="1" 
AR Path="/5C818A8E" Ref="#PWR08"  Part="1" 
F 0 "#PWR08" H 2500 6550 50  0001 C CNN
F 1 "GND" H 2500 6650 50  0000 C CNN
F 2 "" H 2500 6800 50  0000 C CNN
F 3 "" H 2500 6800 50  0000 C CNN
	1    2500 6800
	1    0    0    -1  
$EndComp
Wire Wire Line
	2500 6700 2700 6700
Wire Wire Line
	2500 5700 2500 5900
Wire Wire Line
	2700 5900 2500 5900
Connection ~ 2500 6700
Wire Wire Line
	2700 5700 2500 5700
Connection ~ 2500 5900
Wire Wire Line
	2700 5500 2600 5500
Wire Wire Line
	2600 5500 2600 5300
Connection ~ 2600 5300
$Comp
L Device:C C?
U 1 1 5C818A9D
P 1900 5450
AR Path="/5981037A/5C818A9D" Ref="C?"  Part="1" 
AR Path="/5981D081/5C818A9D" Ref="C?"  Part="1" 
AR Path="/5981E955/5C818A9D" Ref="C?"  Part="1" 
AR Path="/597FA003/5C818A9D" Ref="C?"  Part="1" 
AR Path="/5C818A9D" Ref="C2"  Part="1" 
F 0 "C2" H 1925 5550 50  0000 L CNN
F 1 "10uF" H 1925 5350 50  0000 L CNN
F 2 "Capacitor_SMD:C_0805_2012Metric" H 1938 5300 50  0001 C CNN
F 3 "" H 1900 5450 50  0000 C CNN
	1    1900 5450
	1    0    0    -1  
$EndComp
$Comp
L power:GND #PWR?
U 1 1 5C818AA4
P 1900 5600
AR Path="/5981037A/5C818AA4" Ref="#PWR?"  Part="1" 
AR Path="/5981D081/5C818AA4" Ref="#PWR?"  Part="1" 
AR Path="/5981E955/5C818AA4" Ref="#PWR?"  Part="1" 
AR Path="/597FA003/5C818AA4" Ref="#PWR?"  Part="1" 
AR Path="/5C818AA4" Ref="#PWR04"  Part="1" 
F 0 "#PWR04" H 1900 5350 50  0001 C CNN
F 1 "GND" H 1900 5450 50  0000 C CNN
F 2 "" H 1900 5600 50  0000 C CNN
F 3 "" H 1900 5600 50  0000 C CNN
	1    1900 5600
	1    0    0    -1  
$EndComp
NoConn ~ 4200 5500
NoConn ~ 4200 5700
NoConn ~ 4200 5900
Wire Wire Line
	4200 4900 4400 4900
Wire Wire Line
	4400 4900 4400 5100
Wire Wire Line
	4400 5300 4200 5300
Wire Wire Line
	4200 5100 4400 5100
Connection ~ 4400 5100
$Comp
L Device:C C?
U 1 1 5C818AB2
P 4700 5250
AR Path="/5981037A/5C818AB2" Ref="C?"  Part="1" 
AR Path="/5981D081/5C818AB2" Ref="C?"  Part="1" 
AR Path="/5981E955/5C818AB2" Ref="C?"  Part="1" 
AR Path="/597FA003/5C818AB2" Ref="C?"  Part="1" 
AR Path="/5C818AB2" Ref="C4"  Part="1" 
F 0 "C4" H 4725 5350 50  0000 L CNN
F 1 "2.2uF" H 4725 5150 50  0000 L CNN
F 2 "Capacitor_SMD:C_0805_2012Metric" H 4738 5100 50  0001 C CNN
F 3 "" H 4700 5250 50  0000 C CNN
	1    4700 5250
	1    0    0    -1  
$EndComp
$Comp
L Device:C C?
U 1 1 5C818AB9
P 5050 5250
AR Path="/5981037A/5C818AB9" Ref="C?"  Part="1" 
AR Path="/5981D081/5C818AB9" Ref="C?"  Part="1" 
AR Path="/5981E955/5C818AB9" Ref="C?"  Part="1" 
AR Path="/597FA003/5C818AB9" Ref="C?"  Part="1" 
AR Path="/5C818AB9" Ref="C6"  Part="1" 
F 0 "C6" H 5075 5350 50  0000 L CNN
F 1 "220uF" H 5075 5150 50  0000 L CNN
F 2 "Capacitor_SMD:C_1206_3216Metric" H 5088 5100 50  0001 C CNN
F 3 "" H 5050 5250 50  0000 C CNN
	1    5050 5250
	1    0    0    -1  
$EndComp
Wire Wire Line
	5050 5400 4900 5400
$Comp
L power:GND #PWR?
U 1 1 5C818AC1
P 4900 5400
AR Path="/5981037A/5C818AC1" Ref="#PWR?"  Part="1" 
AR Path="/5981D081/5C818AC1" Ref="#PWR?"  Part="1" 
AR Path="/5981E955/5C818AC1" Ref="#PWR?"  Part="1" 
AR Path="/597FA003/5C818AC1" Ref="#PWR?"  Part="1" 
AR Path="/5C818AC1" Ref="#PWR012"  Part="1" 
F 0 "#PWR012" H 4900 5150 50  0001 C CNN
F 1 "GND" H 4900 5250 50  0000 C CNN
F 2 "" H 4900 5400 50  0000 C CNN
F 3 "" H 4900 5400 50  0000 C CNN
	1    4900 5400
	1    0    0    -1  
$EndComp
Connection ~ 4700 5100
$Comp
L power:PWR_FLAG #FLG?
U 1 1 5C818AC8
P 2500 4900
AR Path="/5981037A/5C818AC8" Ref="#FLG?"  Part="1" 
AR Path="/5981D081/5C818AC8" Ref="#FLG?"  Part="1" 
AR Path="/5981E955/5C818AC8" Ref="#FLG?"  Part="1" 
AR Path="/597FA003/5C818AC8" Ref="#FLG?"  Part="1" 
AR Path="/5C818AC8" Ref="#FLG02"  Part="1" 
F 0 "#FLG02" H 2500 4995 50  0001 C CNN
F 1 "PWR_FLAG" H 2500 5080 50  0000 C CNN
F 2 "" H 2500 4900 50  0000 C CNN
F 3 "" H 2500 4900 50  0000 C CNN
	1    2500 4900
	1    0    0    -1  
$EndComp
$Comp
L Device:L L?
U 1 1 5C818ACE
P 2400 5050
AR Path="/5981037A/5C818ACE" Ref="L?"  Part="1" 
AR Path="/5981D081/5C818ACE" Ref="L?"  Part="1" 
AR Path="/5981E955/5C818ACE" Ref="L?"  Part="1" 
AR Path="/597FA003/5C818ACE" Ref="L?"  Part="1" 
AR Path="/5C818ACE" Ref="L2"  Part="1" 
F 0 "L2" V 2350 5050 50  0000 C CNN
F 1 "6.8uH" V 2475 5050 50  0000 C CNN
F 2 "Inductor_SMD:L_7.3x7.3_H4.5" H 2400 5050 50  0001 C CNN
F 3 "" H 2400 5050 50  0000 C CNN
	1    2400 5050
	1    0    0    -1  
$EndComp
Wire Wire Line
	4350 6300 4350 6500
Wire Wire Line
	4350 6500 4350 6700
Wire Wire Line
	4350 6700 4350 6800
Wire Wire Line
	2500 6700 2500 6800
Wire Wire Line
	2500 5900 2500 6700
Wire Wire Line
	2600 5300 2700 5300
Wire Wire Line
	4400 5100 4400 5300
Wire Wire Line
	2400 4900 2500 4900
Wire Wire Line
	4400 5100 4700 5100
Wire Wire Line
	4700 5100 5050 5100
Connection ~ 2500 4900
Wire Wire Line
	2500 4900 2700 4900
Connection ~ 2700 4900
Connection ~ 4900 5400
Wire Wire Line
	4900 5400 4700 5400
$Comp
L Amplifier_Current:INA195 U1
U 1 1 5C81BC78
P 2000 1400
F 0 "U1" H 2341 1446 50  0000 L CNN
F 1 "INA195" H 2341 1355 50  0000 L CNN
F 2 "Package_TO_SOT_SMD:SOT-23-5" H 2000 1400 50  0001 C CNN
F 3 "http://www.ti.com/lit/ds/symlink/ina193.pdf" H 2000 1400 50  0001 C CNN
	1    2000 1400
	1    0    0    -1  
$EndComp
$Comp
L Amplifier_Current:INA195 U5
U 1 1 5C81BE7C
P 5950 1750
F 0 "U5" H 6291 1796 50  0000 L CNN
F 1 "INA195" H 6291 1705 50  0000 L CNN
F 2 "Package_TO_SOT_SMD:SOT-23-5" H 5950 1750 50  0001 C CNN
F 3 "http://www.ti.com/lit/ds/symlink/ina193.pdf" H 5950 1750 50  0001 C CNN
	1    5950 1750
	1    0    0    -1  
$EndComp
$Comp
L Amplifier_Current:INA195 U2
U 1 1 5C81C0CF
P 2050 4400
F 0 "U2" H 2391 4446 50  0000 L CNN
F 1 "INA195" H 2391 4355 50  0000 L CNN
F 2 "Package_TO_SOT_SMD:SOT-23-5" H 2050 4400 50  0001 C CNN
F 3 "http://www.ti.com/lit/ds/symlink/ina193.pdf" H 2050 4400 50  0001 C CNN
	1    2050 4400
	1    0    0    -1  
$EndComp
$Comp
L Amplifier_Current:INA195 U6
U 1 1 5C81D5BC
P 5950 4550
F 0 "U6" H 6291 4596 50  0000 L CNN
F 1 "INA195" H 6291 4505 50  0000 L CNN
F 2 "Package_TO_SOT_SMD:SOT-23-5" H 5950 4550 50  0001 C CNN
F 3 "http://www.ti.com/lit/ds/symlink/ina193.pdf" H 5950 4550 50  0001 C CNN
	1    5950 4550
	1    0    0    -1  
$EndComp
$Comp
L Device:R R1
U 1 1 5C81EE68
P 1450 2400
F 0 "R1" V 1243 2400 50  0000 C CNN
F 1 "33m" V 1334 2400 50  0000 C CNN
F 2 "Resistor_SMD:R_0805_2012Metric" V 1380 2400 50  0001 C CNN
F 3 "~" H 1450 2400 50  0001 C CNN
	1    1450 2400
	0    1    1    0   
$EndComp
$Comp
L Device:R R3
U 1 1 5C81EF8B
P 5450 2200
F 0 "R3" V 5243 2200 50  0000 C CNN
F 1 "33m" V 5334 2200 50  0000 C CNN
F 2 "Resistor_SMD:R_0805_2012Metric" V 5380 2200 50  0001 C CNN
F 3 "~" H 5450 2200 50  0001 C CNN
	1    5450 2200
	0    1    1    0   
$EndComp
$Comp
L Device:R R2
U 1 1 5C81F120
P 1450 5300
F 0 "R2" V 1243 5300 50  0000 C CNN
F 1 "33m" V 1334 5300 50  0000 C CNN
F 2 "Resistor_SMD:R_0805_2012Metric" V 1380 5300 50  0001 C CNN
F 3 "~" H 1450 5300 50  0001 C CNN
	1    1450 5300
	0    1    1    0   
$EndComp
$Comp
L Device:R R4
U 1 1 5C81F1B9
P 5450 5100
F 0 "R4" V 5243 5100 50  0000 C CNN
F 1 "33m" V 5334 5100 50  0000 C CNN
F 2 "Resistor_SMD:R_0805_2012Metric" V 5380 5100 50  0001 C CNN
F 3 "~" H 5450 5100 50  0001 C CNN
	1    5450 5100
	0    1    1    0   
$EndComp
$Comp
L power:GND #PWR06
U 1 1 5C81F24B
P 1950 4700
F 0 "#PWR06" H 1950 4450 50  0001 C CNN
F 1 "GND" H 1955 4527 50  0000 C CNN
F 2 "" H 1950 4700 50  0001 C CNN
F 3 "" H 1950 4700 50  0001 C CNN
	1    1950 4700
	1    0    0    -1  
$EndComp
$Comp
L power:GND #PWR016
U 1 1 5C81F2E3
P 5850 4850
F 0 "#PWR016" H 5850 4600 50  0001 C CNN
F 1 "GND" H 5855 4677 50  0000 C CNN
F 2 "" H 5850 4850 50  0001 C CNN
F 3 "" H 5850 4850 50  0001 C CNN
	1    5850 4850
	1    0    0    -1  
$EndComp
$Comp
L power:GND #PWR014
U 1 1 5C81F395
P 5850 2050
F 0 "#PWR014" H 5850 1800 50  0001 C CNN
F 1 "GND" H 5855 1877 50  0000 C CNN
F 2 "" H 5850 2050 50  0001 C CNN
F 3 "" H 5850 2050 50  0001 C CNN
	1    5850 2050
	1    0    0    -1  
$EndComp
$Comp
L power:GND #PWR02
U 1 1 5C81F4AF
P 1900 1700
F 0 "#PWR02" H 1900 1450 50  0001 C CNN
F 1 "GND" H 1905 1527 50  0000 C CNN
F 2 "" H 1900 1700 50  0001 C CNN
F 3 "" H 1900 1700 50  0001 C CNN
	1    1900 1700
	1    0    0    -1  
$EndComp
Wire Wire Line
	1600 2400 1650 2400
Connection ~ 1900 2400
Wire Wire Line
	1050 2400 1250 2400
Wire Wire Line
	1700 1500 1650 1500
Wire Wire Line
	1650 1500 1650 2400
Connection ~ 1650 2400
Wire Wire Line
	1650 2400 1900 2400
Wire Wire Line
	1250 2400 1250 1300
Wire Wire Line
	1250 1300 1700 1300
Connection ~ 1250 2400
Wire Wire Line
	1250 2400 1300 2400
Wire Wire Line
	5600 2200 5600 1850
Wire Wire Line
	5600 1850 5650 1850
Wire Wire Line
	5650 1650 5300 1650
Wire Wire Line
	5300 1650 5300 2200
Wire Wire Line
	5300 2200 5050 2200
Connection ~ 5300 2200
Connection ~ 5050 2200
Wire Wire Line
	6100 2200 5600 2200
Connection ~ 5600 2200
Wire Wire Line
	1300 5300 1250 5300
Wire Wire Line
	1600 5300 1700 5300
Connection ~ 1900 5300
Wire Wire Line
	1750 4500 1700 4500
Wire Wire Line
	1700 4500 1700 5300
Connection ~ 1700 5300
Wire Wire Line
	1700 5300 1900 5300
Wire Wire Line
	1750 4300 1250 4300
Wire Wire Line
	1250 4300 1250 5300
Connection ~ 1250 5300
Wire Wire Line
	1250 5300 1050 5300
Wire Wire Line
	5650 4650 5600 4650
Wire Wire Line
	5600 4650 5600 5100
Wire Wire Line
	5300 5100 5300 4450
Wire Wire Line
	5300 4450 5650 4450
Wire Wire Line
	5300 5100 5050 5100
Connection ~ 5300 5100
Connection ~ 5050 5100
Wire Wire Line
	6150 5100 5600 5100
Connection ~ 5600 5100
$Comp
L Connector:Conn_01x06_Male J5
U 1 1 5C847F99
P 9800 1600
F 0 "J5" H 9773 1480 50  0000 R CNN
F 1 "Conn_01x06_Male" H 9773 1571 50  0000 R CNN
F 2 "Connector_PinHeader_2.54mm:PinHeader_1x06_P2.54mm_Vertical" H 9800 1600 50  0001 C CNN
F 3 "~" H 9800 1600 50  0001 C CNN
	1    9800 1600
	-1   0    0    1   
$EndComp
Wire Wire Line
	9250 1400 9400 1400
Wire Wire Line
	9400 1400 9400 1300
Wire Wire Line
	9400 1300 9600 1300
Connection ~ 9400 1400
Wire Wire Line
	9400 1400 9600 1400
Wire Wire Line
	9400 1400 9400 1500
Wire Wire Line
	9400 1500 9600 1500
Wire Wire Line
	9250 1700 9400 1700
Wire Wire Line
	9600 1600 9400 1600
Wire Wire Line
	9400 1600 9400 1700
Connection ~ 9400 1700
Wire Wire Line
	9400 1700 9600 1700
Wire Wire Line
	9600 1800 9400 1800
Wire Wire Line
	9400 1800 9400 1700
$Comp
L power:GND #PWR019
U 1 1 5C8586B6
P 9250 1850
F 0 "#PWR019" H 9250 1600 50  0001 C CNN
F 1 "GND" H 9255 1677 50  0000 C CNN
F 2 "" H 9250 1850 50  0001 C CNN
F 3 "" H 9250 1850 50  0001 C CNN
	1    9250 1850
	1    0    0    -1  
$EndComp
Wire Wire Line
	9250 1850 9250 1700
Text Label 9250 1400 0    50   ~ 0
VIN1
Text Label 1100 2400 0    50   ~ 0
VIN1
Text Label 1100 5300 0    50   ~ 0
VIN2
Text Label 6050 5100 0    50   ~ 0
VOUT2
Text Label 6000 2200 0    50   ~ 0
VOUT1
$Comp
L Connector:Conn_01x06_Male J7
U 1 1 5C85BDB9
P 9800 4400
F 0 "J7" H 9773 4280 50  0000 R CNN
F 1 "Conn_01x06_Male" H 9773 4371 50  0000 R CNN
F 2 "Connector_PinHeader_2.54mm:PinHeader_1x06_P2.54mm_Vertical" H 9800 4400 50  0001 C CNN
F 3 "~" H 9800 4400 50  0001 C CNN
	1    9800 4400
	-1   0    0    1   
$EndComp
Wire Wire Line
	9350 4500 9450 4500
Wire Wire Line
	9600 4400 9450 4400
Wire Wire Line
	9450 4400 9450 4500
Connection ~ 9450 4500
Wire Wire Line
	9450 4500 9600 4500
Wire Wire Line
	9600 4600 9450 4600
Wire Wire Line
	9450 4600 9450 4500
Wire Wire Line
	9350 4200 9450 4200
Wire Wire Line
	9600 4300 9450 4300
Wire Wire Line
	9450 4300 9450 4200
Connection ~ 9450 4200
Wire Wire Line
	9450 4200 9600 4200
Wire Wire Line
	9600 4100 9450 4100
Wire Wire Line
	9450 4100 9450 4200
$Comp
L power:GND #PWR022
U 1 1 5C86FC40
P 9350 4600
F 0 "#PWR022" H 9350 4350 50  0001 C CNN
F 1 "GND" H 9355 4427 50  0000 C CNN
F 2 "" H 9350 4600 50  0001 C CNN
F 3 "" H 9350 4600 50  0001 C CNN
	1    9350 4600
	1    0    0    -1  
$EndComp
Wire Wire Line
	9350 4600 9350 4500
Text Label 9350 4200 0    50   ~ 0
VOUT1
$Comp
L Connector:Conn_01x04_Male J6
U 1 1 5C873A24
P 9800 3550
F 0 "J6" H 9773 3430 50  0000 R CNN
F 1 "Conn_01x04_Male" H 9773 3521 50  0000 R CNN
F 2 "Connector_PinHeader_2.54mm:PinHeader_1x04_P2.54mm_Vertical" H 9800 3550 50  0001 C CNN
F 3 "~" H 9800 3550 50  0001 C CNN
	1    9800 3550
	-1   0    0    1   
$EndComp
$Comp
L power:GND #PWR021
U 1 1 5C873B5A
P 9350 3800
F 0 "#PWR021" H 9350 3550 50  0001 C CNN
F 1 "GND" H 9355 3627 50  0000 C CNN
F 2 "" H 9350 3800 50  0001 C CNN
F 3 "" H 9350 3800 50  0001 C CNN
	1    9350 3800
	1    0    0    -1  
$EndComp
Wire Wire Line
	9350 3800 9350 3650
Wire Wire Line
	9350 3650 9600 3650
Wire Wire Line
	9250 3550 9350 3550
Wire Wire Line
	9600 3450 9350 3450
Wire Wire Line
	9350 3450 9350 3550
Connection ~ 9350 3550
Wire Wire Line
	9350 3550 9600 3550
$Comp
L power:VCC #PWR020
U 1 1 5C886EFA
P 9250 3550
F 0 "#PWR020" H 9250 3400 50  0001 C CNN
F 1 "VCC" H 9267 3723 50  0000 C CNN
F 2 "" H 9250 3550 50  0001 C CNN
F 3 "" H 9250 3550 50  0001 C CNN
	1    9250 3550
	1    0    0    -1  
$EndComp
Wire Wire Line
	9350 3350 9600 3350
Text Label 9350 3350 0    50   ~ 0
VOUT2
$Comp
L power:GND #PWR017
U 1 1 5C88B06B
P 7100 6200
F 0 "#PWR017" H 7100 5950 50  0001 C CNN
F 1 "GND" H 7105 6027 50  0000 C CNN
F 2 "" H 7100 6200 50  0001 C CNN
F 3 "" H 7100 6200 50  0001 C CNN
	1    7100 6200
	1    0    0    -1  
$EndComp
$Comp
L power:VCC #PWR018
U 1 1 5C88B13C
P 7400 6100
F 0 "#PWR018" H 7400 5950 50  0001 C CNN
F 1 "VCC" H 7417 6273 50  0000 C CNN
F 2 "" H 7400 6100 50  0001 C CNN
F 3 "" H 7400 6100 50  0001 C CNN
	1    7400 6100
	1    0    0    -1  
$EndComp
$Comp
L power:PWR_FLAG #FLG03
U 1 1 5C88B1FF
P 7100 6100
F 0 "#FLG03" H 7100 6175 50  0001 C CNN
F 1 "PWR_FLAG" H 7100 6274 50  0000 C CNN
F 2 "" H 7100 6100 50  0001 C CNN
F 3 "~" H 7100 6100 50  0001 C CNN
	1    7100 6100
	1    0    0    -1  
$EndComp
$Comp
L power:PWR_FLAG #FLG04
U 1 1 5C88B260
P 7400 6200
F 0 "#FLG04" H 7400 6275 50  0001 C CNN
F 1 "PWR_FLAG" H 7400 6373 50  0000 C CNN
F 2 "" H 7400 6200 50  0001 C CNN
F 3 "~" H 7400 6200 50  0001 C CNN
	1    7400 6200
	-1   0    0    1   
$EndComp
Wire Wire Line
	7100 6200 7100 6100
Wire Wire Line
	7400 6200 7400 6100
$Comp
L power:VCC #PWR015
U 1 1 5C893673
P 5850 4250
F 0 "#PWR015" H 5850 4100 50  0001 C CNN
F 1 "VCC" H 5867 4423 50  0000 C CNN
F 2 "" H 5850 4250 50  0001 C CNN
F 3 "" H 5850 4250 50  0001 C CNN
	1    5850 4250
	1    0    0    -1  
$EndComp
$Comp
L power:VCC #PWR05
U 1 1 5C893767
P 1950 4100
F 0 "#PWR05" H 1950 3950 50  0001 C CNN
F 1 "VCC" H 1967 4273 50  0000 C CNN
F 2 "" H 1950 4100 50  0001 C CNN
F 3 "" H 1950 4100 50  0001 C CNN
	1    1950 4100
	1    0    0    -1  
$EndComp
$Comp
L power:VCC #PWR01
U 1 1 5C89381C
P 1900 1100
F 0 "#PWR01" H 1900 950 50  0001 C CNN
F 1 "VCC" H 1917 1273 50  0000 C CNN
F 2 "" H 1900 1100 50  0001 C CNN
F 3 "" H 1900 1100 50  0001 C CNN
	1    1900 1100
	1    0    0    -1  
$EndComp
$Comp
L power:VCC #PWR013
U 1 1 5C89387D
P 5850 1450
F 0 "#PWR013" H 5850 1300 50  0001 C CNN
F 1 "VCC" H 5867 1623 50  0000 C CNN
F 2 "" H 5850 1450 50  0001 C CNN
F 3 "" H 5850 1450 50  0001 C CNN
	1    5850 1450
	1    0    0    -1  
$EndComp
$Comp
L Connector:Conn_01x01_Male J1
U 1 1 5C8984BE
P 3000 1400
F 0 "J1" H 2973 1330 50  0000 R CNN
F 1 "Conn_01x01_Male" H 2973 1421 50  0000 R CNN
F 2 "Connector_PinHeader_2.54mm:PinHeader_1x01_P2.54mm_Vertical" H 3000 1400 50  0001 C CNN
F 3 "~" H 3000 1400 50  0001 C CNN
	1    3000 1400
	-1   0    0    1   
$EndComp
$Comp
L Connector:Conn_01x01_Male J3
U 1 1 5C8987DB
P 6850 1750
F 0 "J3" H 6823 1680 50  0000 R CNN
F 1 "Conn_01x01_Male" H 6823 1771 50  0000 R CNN
F 2 "Connector_PinHeader_2.54mm:PinHeader_1x01_P2.54mm_Vertical" H 6850 1750 50  0001 C CNN
F 3 "~" H 6850 1750 50  0001 C CNN
	1    6850 1750
	-1   0    0    1   
$EndComp
$Comp
L Connector:Conn_01x01_Male J2
U 1 1 5C89C98B
P 3050 4400
F 0 "J2" H 3023 4330 50  0000 R CNN
F 1 "Conn_01x01_Male" H 3023 4421 50  0000 R CNN
F 2 "Connector_PinHeader_2.54mm:PinHeader_1x01_P2.54mm_Vertical" H 3050 4400 50  0001 C CNN
F 3 "~" H 3050 4400 50  0001 C CNN
	1    3050 4400
	-1   0    0    1   
$EndComp
$Comp
L Connector:Conn_01x01_Male J4
U 1 1 5C8A0ADF
P 6850 4550
F 0 "J4" H 6823 4480 50  0000 R CNN
F 1 "Conn_01x01_Male" H 6823 4571 50  0000 R CNN
F 2 "Connector_PinHeader_2.54mm:PinHeader_1x01_P2.54mm_Vertical" H 6850 4550 50  0001 C CNN
F 3 "~" H 6850 4550 50  0001 C CNN
	1    6850 4550
	-1   0    0    1   
$EndComp
Wire Wire Line
	2300 1400 2800 1400
Wire Wire Line
	6650 1750 6250 1750
Wire Wire Line
	6250 4550 6650 4550
Wire Wire Line
	2350 4400 2850 4400
Wire Wire Line
	2400 5200 2400 5300
Connection ~ 2400 5300
Wire Wire Line
	2400 5300 2600 5300
$Comp
L Connector:Conn_01x06_Male J8
U 1 1 5C8EDC6E
P 9800 2400
F 0 "J8" H 9773 2280 50  0000 R CNN
F 1 "Conn_01x06_Male" H 9773 2371 50  0000 R CNN
F 2 "Connector_PinHeader_2.54mm:PinHeader_1x06_P2.54mm_Vertical" H 9800 2400 50  0001 C CNN
F 3 "~" H 9800 2400 50  0001 C CNN
	1    9800 2400
	-1   0    0    1   
$EndComp
Wire Wire Line
	9250 2200 9400 2200
Wire Wire Line
	9400 2200 9400 2100
Wire Wire Line
	9400 2100 9600 2100
Connection ~ 9400 2200
Wire Wire Line
	9400 2200 9600 2200
Wire Wire Line
	9400 2200 9400 2300
Wire Wire Line
	9400 2300 9600 2300
Wire Wire Line
	9250 2500 9400 2500
Wire Wire Line
	9600 2400 9400 2400
Wire Wire Line
	9400 2400 9400 2500
Connection ~ 9400 2500
Wire Wire Line
	9400 2500 9600 2500
Wire Wire Line
	9600 2600 9400 2600
Wire Wire Line
	9400 2600 9400 2500
$Comp
L power:GND #PWR0101
U 1 1 5C8EDC83
P 9250 2650
F 0 "#PWR0101" H 9250 2400 50  0001 C CNN
F 1 "GND" H 9255 2477 50  0000 C CNN
F 2 "" H 9250 2650 50  0001 C CNN
F 3 "" H 9250 2650 50  0001 C CNN
	1    9250 2650
	1    0    0    -1  
$EndComp
Wire Wire Line
	9250 2650 9250 2500
Text Label 9250 2200 0    50   ~ 0
VIN2
$Comp
L Connector:Conn_01x02_Male J9
U 1 1 5C8F3418
P 9800 3100
F 0 "J9" H 9773 2980 50  0000 R CNN
F 1 "Conn_01x02_Male" H 9773 3071 50  0000 R CNN
F 2 "Connector_PinHeader_2.54mm:PinHeader_1x02_P2.54mm_Vertical" H 9800 3100 50  0001 C CNN
F 3 "~" H 9800 3100 50  0001 C CNN
	1    9800 3100
	-1   0    0    1   
$EndComp
Wire Wire Line
	9350 3100 9600 3100
Wire Wire Line
	9350 3000 9600 3000
Text Label 9350 3100 0    50   ~ 0
VIN2
Text Label 9350 3000 0    50   ~ 0
VIN1
$Comp
L Connector:Conn_01x06_Male J10
U 1 1 5C912241
P 9850 6000
F 0 "J10" H 9823 5880 50  0000 R CNN
F 1 "Conn_01x06_Male" H 9823 5971 50  0000 R CNN
F 2 "Connector_PinHeader_2.54mm:PinHeader_1x06_P2.54mm_Vertical" H 9850 6000 50  0001 C CNN
F 3 "~" H 9850 6000 50  0001 C CNN
	1    9850 6000
	-1   0    0    1   
$EndComp
Wire Wire Line
	9400 6100 9500 6100
Wire Wire Line
	9650 6000 9500 6000
Wire Wire Line
	9500 6000 9500 6100
Connection ~ 9500 6100
Wire Wire Line
	9500 6100 9650 6100
Wire Wire Line
	9650 6200 9500 6200
Wire Wire Line
	9500 6200 9500 6100
Wire Wire Line
	9400 5800 9500 5800
Wire Wire Line
	9650 5900 9500 5900
Wire Wire Line
	9500 5900 9500 5800
Connection ~ 9500 5800
Wire Wire Line
	9500 5800 9650 5800
Wire Wire Line
	9650 5700 9500 5700
Wire Wire Line
	9500 5700 9500 5800
$Comp
L power:GND #PWR023
U 1 1 5C912256
P 9400 6200
F 0 "#PWR023" H 9400 5950 50  0001 C CNN
F 1 "GND" H 9405 6027 50  0000 C CNN
F 2 "" H 9400 6200 50  0001 C CNN
F 3 "" H 9400 6200 50  0001 C CNN
	1    9400 6200
	1    0    0    -1  
$EndComp
Wire Wire Line
	9400 6200 9400 6100
Text Label 9400 5800 0    50   ~ 0
VOUT2
$Comp
L Connector:Conn_01x02_Male J11
U 1 1 5C918985
P 9900 5200
F 0 "J11" H 9873 5080 50  0000 R CNN
F 1 "Conn_01x02_Male" H 9873 5171 50  0000 R CNN
F 2 "Connector_PinHeader_2.54mm:PinHeader_1x02_P2.54mm_Vertical" H 9900 5200 50  0001 C CNN
F 3 "~" H 9900 5200 50  0001 C CNN
	1    9900 5200
	-1   0    0    1   
$EndComp
Wire Wire Line
	9450 5200 9700 5200
Wire Wire Line
	9450 5100 9700 5100
Text Label 9450 5200 0    50   ~ 0
VOUT2
Text Label 9450 5100 0    50   ~ 0
VOUT1
Wire Wire Line
	1900 5300 2400 5300
$EndSCHEMATC
